EESchema Schematic File Version 2
LIBS:szpejo_revB-rescue
LIBS:74xgxx
LIBS:74xx
LIBS:ac-dc
LIBS:actel
LIBS:adc-dac
LIBS:Altera
LIBS:analog_devices
LIBS:analog_switches
LIBS:atmel
LIBS:audio
LIBS:brooktre
LIBS:cmos4000
LIBS:cmos_ieee
LIBS:conn
LIBS:contrib
LIBS:cypress
LIBS:dc-dc
LIBS:device
LIBS:digital-audio
LIBS:diode
LIBS:display
LIBS:dsp
LIBS:elec-unifil
LIBS:ESD_Protection
LIBS:ftdi
LIBS:gennum
LIBS:graphic
LIBS:hc11
LIBS:intel
LIBS:interface
LIBS:ir
LIBS:Lattice
LIBS:linear
LIBS:logo
LIBS:maxim
LIBS:memory
LIBS:microchip
LIBS:microchip_dspic33dsc
LIBS:microchip_pic10mcu
LIBS:microchip_pic12mcu
LIBS:microchip_pic16mcu
LIBS:microchip_pic18mcu
LIBS:microchip_pic32mcu
LIBS:microcontrollers
LIBS:motor_drivers
LIBS:motorola
LIBS:msp430
LIBS:nordicsemi
LIBS:nxp_armmcu
LIBS:onsemi
LIBS:opto
LIBS:Oscillators
LIBS:philips
LIBS:power
LIBS:powerint
LIBS:Power_Management
LIBS:pspice
LIBS:references
LIBS:regul
LIBS:relays
LIBS:rfcom
LIBS:sensors
LIBS:silabs
LIBS:siliconi
LIBS:stm8
LIBS:stm32
LIBS:supertex
LIBS:switches
LIBS:texas
LIBS:transf
LIBS:transistors
LIBS:ttl_ieee
LIBS:valves
LIBS:video
LIBS:Xicor
LIBS:xilinx
LIBS:Zilog
LIBS:szpejo_revB-cache
EELAYER 25 0
EELAYER END
$Descr A4 11693 8268
encoding utf-8
Sheet 3 3
Title ""
Date ""
Rev ""
Comp ""
Comment1 ""
Comment2 ""
Comment3 ""
Comment4 ""
$EndDescr
$Comp
L C C?
U 1 1 56B4956B
P 950 4200
F 0 "C?" H 975 4300 50  0000 L CNN
F 1 "22p" H 975 4100 50  0000 L CNN
F 2 "" H 988 4050 50  0000 C CNN
F 3 "" H 950 4200 50  0000 C CNN
	1    950  4200
	1    0    0    -1  
$EndComp
$Comp
L C C?
U 1 1 56B495B6
P 1250 4200
F 0 "C?" H 1275 4300 50  0000 L CNN
F 1 "22p" H 1275 4100 50  0000 L CNN
F 2 "" H 1288 4050 50  0000 C CNN
F 3 "" H 1250 4200 50  0000 C CNN
	1    1250 4200
	1    0    0    -1  
$EndComp
$Comp
L GNDD #PWR?
U 1 1 56B49625
P 1250 4450
F 0 "#PWR?" H 1250 4200 50  0001 C CNN
F 1 "GNDD" H 1250 4300 50  0000 C CNN
F 2 "" H 1250 4450 50  0000 C CNN
F 3 "" H 1250 4450 50  0000 C CNN
	1    1250 4450
	1    0    0    -1  
$EndComp
$Comp
L GNDD #PWR?
U 1 1 56B4963F
P 950 4450
F 0 "#PWR?" H 950 4200 50  0001 C CNN
F 1 "GNDD" H 950 4300 50  0000 C CNN
F 2 "" H 950 4450 50  0000 C CNN
F 3 "" H 950 4450 50  0000 C CNN
	1    950  4450
	1    0    0    -1  
$EndComp
$Comp
L GNDD #PWR?
U 1 1 56B496C5
P 2650 7050
F 0 "#PWR?" H 2650 6800 50  0001 C CNN
F 1 "GNDD" H 2650 6900 50  0000 C CNN
F 2 "" H 2650 7050 50  0000 C CNN
F 3 "" H 2650 7050 50  0000 C CNN
	1    2650 7050
	1    0    0    -1  
$EndComp
$Comp
L +5VD #PWR?
U 1 1 56B4975E
P 2650 2650
F 0 "#PWR?" H 2650 2500 50  0001 C CNN
F 1 "+5VD" H 2650 2790 50  0000 C CNN
F 2 "" H 2650 2650 50  0000 C CNN
F 3 "" H 2650 2650 50  0000 C CNN
	1    2650 2650
	1    0    0    -1  
$EndComp
$Comp
L C C?
U 1 1 56B497CB
P 1600 4700
F 0 "C?" H 1625 4800 50  0000 L CNN
F 1 "100n" H 1625 4600 50  0000 L CNN
F 2 "" H 1638 4550 50  0000 C CNN
F 3 "" H 1600 4700 50  0000 C CNN
	1    1600 4700
	1    0    0    -1  
$EndComp
$Comp
L GNDA #PWR?
U 1 1 56B49879
P 1600 4950
F 0 "#PWR?" H 1600 4700 50  0001 C CNN
F 1 "GNDA" H 1600 4800 50  0000 C CNN
F 2 "" H 1600 4950 50  0000 C CNN
F 3 "" H 1600 4950 50  0000 C CNN
	1    1600 4950
	1    0    0    -1  
$EndComp
$Comp
L SW_PUSH SW?
U 1 1 56B49AAB
P 1000 1550
F 0 "SW?" H 1150 1660 50  0000 C CNN
F 1 "SW_PUSH" H 1000 1470 50  0000 C CNN
F 2 "" H 1000 1550 50  0000 C CNN
F 3 "" H 1000 1550 50  0000 C CNN
	1    1000 1550
	0    -1   -1   0   
$EndComp
$Comp
L R R?
U 1 1 56B49B2E
P 1650 950
F 0 "R?" V 1730 950 50  0000 C CNN
F 1 "1k" V 1650 950 50  0000 C CNN
F 2 "" V 1580 950 50  0000 C CNN
F 3 "" H 1650 950 50  0000 C CNN
	1    1650 950 
	1    0    0    -1  
$EndComp
$Comp
L C C?
U 1 1 56B49B80
P 1650 1850
F 0 "C?" H 1675 1950 50  0000 L CNN
F 1 "100n" H 1675 1750 50  0000 L CNN
F 2 "" H 1688 1700 50  0000 C CNN
F 3 "" H 1650 1850 50  0000 C CNN
	1    1650 1850
	1    0    0    -1  
$EndComp
$Comp
L GNDD #PWR?
U 1 1 56B49DF0
P 1650 2050
F 0 "#PWR?" H 1650 1800 50  0001 C CNN
F 1 "GNDD" H 1650 1900 50  0000 C CNN
F 2 "" H 1650 2050 50  0000 C CNN
F 3 "" H 1650 2050 50  0000 C CNN
	1    1650 2050
	1    0    0    -1  
$EndComp
$Comp
L +5VD #PWR?
U 1 1 56B49F57
P 1650 750
F 0 "#PWR?" H 1650 600 50  0001 C CNN
F 1 "+5VD" H 1650 890 50  0000 C CNN
F 2 "" H 1650 750 50  0000 C CNN
F 3 "" H 1650 750 50  0000 C CNN
	1    1650 750 
	1    0    0    -1  
$EndComp
$Comp
L R R?
U 1 1 56B49FD1
P 1650 1350
F 0 "R?" V 1730 1350 50  0000 C CNN
F 1 "10k" V 1650 1350 50  0000 C CNN
F 2 "" V 1580 1350 50  0000 C CNN
F 3 "" H 1650 1350 50  0000 C CNN
	1    1650 1350
	-1   0    0    1   
$EndComp
$Comp
L GNDD #PWR?
U 1 1 56B4A046
P 1000 2050
F 0 "#PWR?" H 1000 1800 50  0001 C CNN
F 1 "GNDD" H 1000 1900 50  0000 C CNN
F 2 "" H 1000 2050 50  0000 C CNN
F 3 "" H 1000 2050 50  0000 C CNN
	1    1000 2050
	1    0    0    -1  
$EndComp
Text GLabel 1900 1600 2    50   Input ~ 0
~uc_rst
Text GLabel 1600 3150 0    50   Input ~ 0
~uc_rst
Text Notes 2300 2250 1    50   ~ 0
RESET switch
$Comp
L C C?
U 1 1 56B4A978
P 850 6200
F 0 "C?" H 875 6300 50  0000 L CNN
F 1 "100n" H 875 6100 50  0000 L CNN
F 2 "" H 888 6050 50  0000 C CNN
F 3 "" H 850 6200 50  0000 C CNN
	1    850  6200
	1    0    0    -1  
$EndComp
$Comp
L +5VA #PWR?
U 1 1 56B4AB64
P 850 5950
F 0 "#PWR?" H 850 5800 50  0001 C CNN
F 1 "+5VA" H 850 6090 50  0000 C CNN
F 2 "" H 850 5950 50  0000 C CNN
F 3 "" H 850 5950 50  0000 C CNN
	1    850  5950
	1    0    0    -1  
$EndComp
$Comp
L GNDA #PWR?
U 1 1 56B4AB8D
P 850 6450
F 0 "#PWR?" H 850 6200 50  0001 C CNN
F 1 "GNDA" H 850 6300 50  0000 C CNN
F 2 "" H 850 6450 50  0000 C CNN
F 3 "" H 850 6450 50  0000 C CNN
	1    850  6450
	1    0    0    -1  
$EndComp
$Comp
L C C?
U 1 1 56B4ABB6
P 2650 1250
F 0 "C?" H 2675 1350 50  0000 L CNN
F 1 "100n" H 2675 1150 50  0000 L CNN
F 2 "" H 2688 1100 50  0000 C CNN
F 3 "" H 2650 1250 50  0000 C CNN
	1    2650 1250
	1    0    0    -1  
$EndComp
$Comp
L C C?
U 1 1 56B4AC08
P 3350 1250
F 0 "C?" H 3375 1350 50  0000 L CNN
F 1 "100n" H 3375 1150 50  0000 L CNN
F 2 "" H 3388 1100 50  0000 C CNN
F 3 "" H 3350 1250 50  0000 C CNN
	1    3350 1250
	1    0    0    -1  
$EndComp
$Comp
L +5VD #PWR?
U 1 1 56B4AC41
P 2650 1000
F 0 "#PWR?" H 2650 850 50  0001 C CNN
F 1 "+5VD" H 2650 1140 50  0000 C CNN
F 2 "" H 2650 1000 50  0000 C CNN
F 3 "" H 2650 1000 50  0000 C CNN
	1    2650 1000
	1    0    0    -1  
$EndComp
$Comp
L +5VD #PWR?
U 1 1 56B4AC70
P 3350 1000
F 0 "#PWR?" H 3350 850 50  0001 C CNN
F 1 "+5VD" H 3350 1140 50  0000 C CNN
F 2 "" H 3350 1000 50  0000 C CNN
F 3 "" H 3350 1000 50  0000 C CNN
	1    3350 1000
	1    0    0    -1  
$EndComp
$Comp
L GNDD #PWR?
U 1 1 56B4AC9F
P 2650 1500
F 0 "#PWR?" H 2650 1250 50  0001 C CNN
F 1 "GNDD" H 2650 1350 50  0000 C CNN
F 2 "" H 2650 1500 50  0000 C CNN
F 3 "" H 2650 1500 50  0000 C CNN
	1    2650 1500
	1    0    0    -1  
$EndComp
$Comp
L GNDD #PWR?
U 1 1 56B4ACCE
P 3350 1500
F 0 "#PWR?" H 3350 1250 50  0001 C CNN
F 1 "GNDD" H 3350 1350 50  0000 C CNN
F 2 "" H 3350 1500 50  0000 C CNN
F 3 "" H 3350 1500 50  0000 C CNN
	1    3350 1500
	1    0    0    -1  
$EndComp
Text Notes 1150 6900 1    50   ~ 0
Analog decoupling for uC
Text Notes 3650 1950 1    50   ~ 0
Digital decoupling for uC
$Comp
L ATMEGA16-A IC?
U 1 1 56B4B293
P 2850 4850
F 0 "IC?" H 1900 6730 50  0000 L BNN
F 1 "ATMEGA16-A" H 3350 2900 50  0000 L BNN
F 2 "TQFP44" H 2850 4850 50  0000 C CIN
F 3 "" H 2850 4850 50  0000 C CNN
	1    2850 4850
	1    0    0    -1  
$EndComp
$Comp
L C C?
U 1 1 56B4B4DB
P 3000 1250
F 0 "C?" H 3025 1350 50  0000 L CNN
F 1 "100n" H 3025 1150 50  0000 L CNN
F 2 "" H 3038 1100 50  0000 C CNN
F 3 "" H 3000 1250 50  0000 C CNN
	1    3000 1250
	1    0    0    -1  
$EndComp
$Comp
L +5VD #PWR?
U 1 1 56B4B4E1
P 3000 1000
F 0 "#PWR?" H 3000 850 50  0001 C CNN
F 1 "+5VD" H 3000 1140 50  0000 C CNN
F 2 "" H 3000 1000 50  0000 C CNN
F 3 "" H 3000 1000 50  0000 C CNN
	1    3000 1000
	1    0    0    -1  
$EndComp
$Comp
L GNDD #PWR?
U 1 1 56B4B4E7
P 3000 1500
F 0 "#PWR?" H 3000 1250 50  0001 C CNN
F 1 "GNDD" H 3000 1350 50  0000 C CNN
F 2 "" H 3000 1500 50  0000 C CNN
F 3 "" H 3000 1500 50  0000 C CNN
	1    3000 1500
	1    0    0    -1  
$EndComp
Wire Wire Line
	950  3550 1750 3550
Wire Wire Line
	1250 3950 1750 3950
Wire Wire Line
	1250 3950 1250 4050
Wire Wire Line
	950  3550 950  4050
Wire Wire Line
	950  4350 950  4450
Wire Wire Line
	1250 4350 1250 4450
Wire Wire Line
	2550 6850 2550 6950
Wire Wire Line
	2550 6950 2650 6950
Wire Wire Line
	2650 6850 2650 7050
Connection ~ 2650 6950
Wire Wire Line
	2550 2850 2550 2750
Wire Wire Line
	2550 2750 2650 2750
Wire Wire Line
	2650 2650 2650 2850
Connection ~ 2650 2750
Wire Wire Line
	1600 4850 1600 4950
Wire Wire Line
	1600 4350 1600 4550
Wire Wire Line
	1650 2000 1650 2050
Wire Wire Line
	1650 1600 1900 1600
Connection ~ 1650 1600
Wire Wire Line
	1650 750  1650 800 
Wire Wire Line
	1000 1850 1000 2050
Wire Wire Line
	1600 3150 1750 3150
Wire Notes Line
	2350 550  600  550 
Wire Notes Line
	600  550  600  2300
Wire Notes Line
	2350 550  2350 2300
Wire Wire Line
	850  5950 850  6050
Wire Wire Line
	850  6350 850  6450
Wire Wire Line
	2650 1500 2650 1400
Wire Wire Line
	3350 1500 3350 1400
Wire Wire Line
	3350 1000 3350 1100
Wire Wire Line
	2650 1000 2650 1100
Wire Notes Line
	600  5500 600  6950
Wire Notes Line
	600  6950 1200 6950
Wire Notes Line
	1200 6950 1200 5500
Wire Notes Line
	1200 5500 600  5500
Wire Notes Line
	2450 550  2450 2000
Wire Notes Line
	2450 2000 3700 2000
Wire Notes Line
	2450 550  3700 550 
Wire Wire Line
	3000 1500 3000 1400
Wire Wire Line
	3000 1000 3000 1100
Wire Notes Line
	3700 550  3700 2000
Wire Wire Line
	2750 2850 2750 2700
Wire Wire Line
	2750 2700 2650 2700
Connection ~ 2650 2700
$Comp
L +5VA #PWR?
U 1 1 56B4B93A
P 2950 2650
F 0 "#PWR?" H 2950 2500 50  0001 C CNN
F 1 "+5VA" H 2950 2790 50  0000 C CNN
F 2 "" H 2950 2650 50  0000 C CNN
F 3 "" H 2950 2650 50  0000 C CNN
	1    2950 2650
	1    0    0    -1  
$EndComp
Wire Wire Line
	2950 2650 2950 2850
Wire Wire Line
	2750 6850 2750 7000
Wire Wire Line
	2750 7000 2650 7000
Connection ~ 2650 7000
$Comp
L GNDA #PWR?
U 1 1 56B4BB6F
P 2950 7050
F 0 "#PWR?" H 2950 6800 50  0001 C CNN
F 1 "GNDA" H 2950 6900 50  0000 C CNN
F 2 "" H 2950 7050 50  0000 C CNN
F 3 "" H 2950 7050 50  0000 C CNN
	1    2950 7050
	1    0    0    -1  
$EndComp
Wire Wire Line
	2950 6850 2950 7050
Wire Wire Line
	1750 4350 1600 4350
$Comp
L Crystal Y?
U 1 1 56B4BFFA
P 1500 3750
F 0 "Y?" H 1500 3900 50  0000 C CNN
F 1 "16M" H 1500 3600 50  0000 C CNN
F 2 "" H 1500 3750 50  0000 C CNN
F 3 "" H 1500 3750 50  0000 C CNN
	1    1500 3750
	0    1    1    0   
$EndComp
Wire Wire Line
	1500 3600 1500 3550
Connection ~ 1500 3550
Wire Wire Line
	1500 3900 1500 3950
Connection ~ 1500 3950
$Comp
L CONN_02X07 P?
U 1 1 56B4EA18
P 4550 1300
F 0 "P?" H 4550 1700 50  0000 C CNN
F 1 "CONN_02X07" V 4550 1300 50  0000 C CNN
F 2 "" H 4550 100 50  0000 C CNN
F 3 "" H 4550 100 50  0000 C CNN
	1    4550 1300
	1    0    0    -1  
$EndComp
Wire Wire Line
	4100 1000 4300 1000
Wire Wire Line
	4300 1100 4200 1100
Wire Wire Line
	4200 1200 4300 1200
Wire Wire Line
	4300 1300 4200 1300
Wire Wire Line
	4200 1400 4300 1400
Wire Wire Line
	4300 1500 4200 1500
Wire Wire Line
	4200 1600 4300 1600
Wire Wire Line
	4800 1600 4900 1600
Wire Wire Line
	4900 1500 4800 1500
Wire Wire Line
	4800 1400 4900 1400
Wire Wire Line
	4800 1300 4900 1300
Wire Wire Line
	4800 1200 4900 1200
Wire Wire Line
	4900 1100 4800 1100
Wire Wire Line
	4800 1000 5400 1000
$Comp
L +5VD #PWR?
U 1 1 56B4F238
P 4100 850
F 0 "#PWR?" H 4100 700 50  0001 C CNN
F 1 "+5VD" H 4100 990 50  0000 C CNN
F 2 "" H 4100 850 50  0000 C CNN
F 3 "" H 4100 850 50  0000 C CNN
	1    4100 850 
	1    0    0    -1  
$EndComp
Wire Wire Line
	4100 850  4100 1000
$Comp
L GNDD #PWR?
U 1 1 56B4F2C7
P 5400 1100
F 0 "#PWR?" H 5400 850 50  0001 C CNN
F 1 "GNDD" H 5400 950 50  0000 C CNN
F 2 "" H 5400 1100 50  0000 C CNN
F 3 "" H 5400 1100 50  0000 C CNN
	1    5400 1100
	1    0    0    -1  
$EndComp
Wire Wire Line
	5400 1000 5400 1100
$Comp
L C C?
U 1 1 56B4F3A5
P 5650 1250
F 0 "C?" H 5675 1350 50  0000 L CNN
F 1 "100n" H 5675 1150 50  0000 L CNN
F 2 "" H 5688 1100 50  0000 C CNN
F 3 "" H 5650 1250 50  0000 C CNN
	1    5650 1250
	1    0    0    -1  
$EndComp
$Comp
L +5VD #PWR?
U 1 1 56B4F3AB
P 5650 1000
F 0 "#PWR?" H 5650 850 50  0001 C CNN
F 1 "+5VD" H 5650 1140 50  0000 C CNN
F 2 "" H 5650 1000 50  0000 C CNN
F 3 "" H 5650 1000 50  0000 C CNN
	1    5650 1000
	1    0    0    -1  
$EndComp
$Comp
L GNDD #PWR?
U 1 1 56B4F3B1
P 5650 1500
F 0 "#PWR?" H 5650 1250 50  0001 C CNN
F 1 "GNDD" H 5650 1350 50  0000 C CNN
F 2 "" H 5650 1500 50  0000 C CNN
F 3 "" H 5650 1500 50  0000 C CNN
	1    5650 1500
	1    0    0    -1  
$EndComp
Wire Wire Line
	5650 1500 5650 1400
Wire Wire Line
	5650 1000 5650 1100
Text GLabel 4200 1100 0    50   Input ~ 0
hd_con
Text GLabel 4200 1200 0    50   Input ~ 0
~hd_rw
Text GLabel 4200 1300 0    50   Input ~ 0
hd_db0
Text GLabel 4200 1400 0    50   Input ~ 0
hd_db2
Text GLabel 4200 1500 0    50   Input ~ 0
hd_db4
Text GLabel 4200 1600 0    50   Input ~ 0
hd_db6
Text GLabel 4900 1300 2    50   Input ~ 0
hd_db1
Text GLabel 4900 1400 2    50   Input ~ 0
hd_db3
Text GLabel 4900 1500 2    50   Input ~ 0
hd_db5
Text GLabel 4900 1600 2    50   Input ~ 0
hd_db7
Text GLabel 4900 1200 2    50   Input ~ 0
hd_en
Text GLabel 4900 1100 2    50   Input ~ 0
hd_rs
Wire Notes Line
	3800 550  3800 2000
Wire Notes Line
	3800 2000 5950 2000
Wire Notes Line
	5950 2000 5950 550 
Wire Notes Line
	5950 550  3800 550 
Text Notes 5900 1950 2    50   ~ 0
HD44780 display digital data connector
$Comp
L CONN_01X02 P?
U 1 1 56B4F66C
P 6550 1050
F 0 "P?" H 6550 1200 50  0000 C CNN
F 1 "CONN_01X02" V 6650 1050 50  0000 C CNN
F 2 "" H 6550 1050 50  0000 C CNN
F 3 "" H 6550 1050 50  0000 C CNN
	1    6550 1050
	1    0    0    -1  
$EndComp
$Comp
L CONN_01X02 P?
U 1 1 56B4F6F5
P 7300 850
F 0 "P?" H 7300 1000 50  0000 C CNN
F 1 "CONN_01X02" V 7400 850 50  0000 C CNN
F 2 "" H 7300 850 50  0000 C CNN
F 3 "" H 7300 850 50  0000 C CNN
	1    7300 850 
	1    0    0    -1  
$EndComp
$Comp
L +5VD #PWR?
U 1 1 56B4F7F2
P 6200 800
F 0 "#PWR?" H 6200 650 50  0001 C CNN
F 1 "+5VD" H 6200 940 50  0000 C CNN
F 2 "" H 6200 800 50  0000 C CNN
F 3 "" H 6200 800 50  0000 C CNN
	1    6200 800 
	1    0    0    -1  
$EndComp
Wire Wire Line
	6350 1000 6200 1000
Wire Wire Line
	6200 800  6200 1250
Wire Wire Line
	6200 1100 6350 1100
Connection ~ 6200 1000
Wire Wire Line
	7100 900  6950 900 
Wire Wire Line
	6950 800  6950 1050
Wire Wire Line
	7100 800  6950 800 
Connection ~ 6950 900 
$Comp
L POT RV?
U 1 1 56B4FA8A
P 6950 1200
AR Path="/56B4FA8A" Ref="RV?"  Part="1" 
AR Path="/56B493A8/56B4FA8A" Ref="RV?"  Part="1" 
F 0 "RV?" H 6950 1120 50  0000 C CNN
F 1 "100" H 6950 1200 50  0000 C CNN
F 2 "" H 6950 1200 50  0000 C CNN
F 3 "" H 6950 1200 50  0000 C CNN
	1    6950 1200
	0    1    1    0   
$EndComp
Wire Wire Line
	7100 1200 7150 1200
Wire Wire Line
	7150 1200 7150 1000
Wire Wire Line
	7150 1000 6950 1000
Connection ~ 6950 1000
$Comp
L R R?
U 1 1 56B4FC09
P 6950 1550
F 0 "R?" V 7030 1550 50  0000 C CNN
F 1 "27" V 6950 1550 50  0000 C CNN
F 2 "" V 6880 1550 50  0000 C CNN
F 3 "" H 6950 1550 50  0000 C CNN
	1    6950 1550
	1    0    0    -1  
$EndComp
$Comp
L GNDD #PWR?
U 1 1 56B4FDC6
P 6950 1750
F 0 "#PWR?" H 6950 1500 50  0001 C CNN
F 1 "GNDD" H 6950 1600 50  0000 C CNN
F 2 "" H 6950 1750 50  0000 C CNN
F 3 "" H 6950 1750 50  0000 C CNN
	1    6950 1750
	1    0    0    -1  
$EndComp
Wire Wire Line
	6950 1750 6950 1700
Wire Wire Line
	6950 1400 6950 1350
Wire Notes Line
	6050 550  6050 2000
Wire Notes Line
	6050 2000 8600 2000
$Comp
L CP C?
U 1 1 56B505E6
P 6200 1400
F 0 "C?" H 6225 1500 50  0000 L CNN
F 1 "10u" H 6225 1300 50  0000 L CNN
F 2 "" H 6238 1250 50  0000 C CNN
F 3 "" H 6200 1400 50  0000 C CNN
	1    6200 1400
	1    0    0    -1  
$EndComp
Connection ~ 6200 1100
$Comp
L GNDD #PWR?
U 1 1 56B5070A
P 6200 1750
F 0 "#PWR?" H 6200 1500 50  0001 C CNN
F 1 "GNDD" H 6200 1600 50  0000 C CNN
F 2 "" H 6200 1750 50  0000 C CNN
F 3 "" H 6200 1750 50  0000 C CNN
	1    6200 1750
	1    0    0    -1  
$EndComp
Wire Wire Line
	6200 1550 6200 1750
Wire Notes Line
	6100 550  8600 550 
Text Notes 8550 1950 1    50   ~ 0
HD44780 backlight brightness \nand contrast adjustment and supply
$Comp
L POT RV?
U 1 1 56B511D0
P 7750 1250
AR Path="/56B511D0" Ref="RV?"  Part="1" 
AR Path="/56B493A8/56B511D0" Ref="RV?"  Part="1" 
F 0 "RV?" H 7750 1170 50  0000 C CNN
F 1 "100" H 7750 1250 50  0000 C CNN
F 2 "" H 7750 1250 50  0000 C CNN
F 3 "" H 7750 1250 50  0000 C CNN
	1    7750 1250
	0    1    1    0   
$EndComp
$Comp
L GNDD #PWR?
U 1 1 56B51295
P 7750 1750
F 0 "#PWR?" H 7750 1500 50  0001 C CNN
F 1 "GNDD" H 7750 1600 50  0000 C CNN
F 2 "" H 7750 1750 50  0000 C CNN
F 3 "" H 7750 1750 50  0000 C CNN
	1    7750 1750
	1    0    0    -1  
$EndComp
$Comp
L +5VD #PWR?
U 1 1 56B512DF
P 7750 800
F 0 "#PWR?" H 7750 650 50  0001 C CNN
F 1 "+5VD" H 7750 940 50  0000 C CNN
F 2 "" H 7750 800 50  0000 C CNN
F 3 "" H 7750 800 50  0000 C CNN
	1    7750 800 
	1    0    0    -1  
$EndComp
Wire Wire Line
	7750 1750 7750 1400
Wire Wire Line
	7750 800  7750 1100
Wire Wire Line
	7900 1250 8000 1250
Text GLabel 8000 1250 2    50   Input ~ 0
hd_con
Wire Notes Line
	8600 550  8600 2000
$Comp
L 23LCV1024 U?
U 1 1 56B527ED
P 9600 1100
F 0 "U?" H 9650 1450 50  0000 L CNN
F 1 "23LCV1024" H 9650 750 50  0000 L CNN
F 2 "" H 9600 1100 50  0000 C CNN
F 3 "" H 9600 1100 50  0000 C CNN
	1    9600 1100
	1    0    0    -1  
$EndComp
$Comp
L +5VD #PWR?
U 1 1 56B52928
P 9100 800
F 0 "#PWR?" H 9100 650 50  0001 C CNN
F 1 "+5VD" H 9100 940 50  0000 C CNN
F 2 "" H 9100 800 50  0000 C CNN
F 3 "" H 9100 800 50  0000 C CNN
	1    9100 800 
	1    0    0    -1  
$EndComp
NoConn ~ 9200 1000
$Comp
L GNDD #PWR?
U 1 1 56B529A5
P 9100 1400
F 0 "#PWR?" H 9100 1150 50  0001 C CNN
F 1 "GNDD" H 9100 1250 50  0000 C CNN
F 2 "" H 9100 1400 50  0000 C CNN
F 3 "" H 9100 1400 50  0000 C CNN
	1    9100 1400
	1    0    0    -1  
$EndComp
Wire Wire Line
	9200 1300 9100 1300
Wire Wire Line
	9100 1300 9100 1400
Wire Wire Line
	9200 900  9100 900 
Wire Wire Line
	9100 900  9100 800 
$Comp
L C C?
U 1 1 56B52EB4
P 8850 1100
F 0 "C?" H 8875 1200 50  0000 L CNN
F 1 "100n" H 8875 1000 50  0000 L CNN
F 2 "" H 8888 950 50  0000 C CNN
F 3 "" H 8850 1100 50  0000 C CNN
	1    8850 1100
	1    0    0    -1  
$EndComp
$Comp
L +5VD #PWR?
U 1 1 56B52EBA
P 8850 800
F 0 "#PWR?" H 8850 650 50  0001 C CNN
F 1 "+5VD" H 8850 940 50  0000 C CNN
F 2 "" H 8850 800 50  0000 C CNN
F 3 "" H 8850 800 50  0000 C CNN
	1    8850 800 
	1    0    0    -1  
$EndComp
$Comp
L GNDD #PWR?
U 1 1 56B52EC0
P 8850 1400
F 0 "#PWR?" H 8850 1150 50  0001 C CNN
F 1 "GNDD" H 8850 1250 50  0000 C CNN
F 2 "" H 8850 1400 50  0000 C CNN
F 3 "" H 8850 1400 50  0000 C CNN
	1    8850 1400
	1    0    0    -1  
$EndComp
Wire Wire Line
	8850 1400 8850 1250
Wire Wire Line
	8850 800  8850 950 
Wire Notes Line
	8700 550  10800 550 
Wire Notes Line
	8700 550  8700 2000
Wire Notes Line
	8700 2000 10800 2000
Wire Wire Line
	10000 900  10050 900 
Wire Wire Line
	10000 1100 10050 1100
Wire Wire Line
	10000 1200 10050 1200
Wire Wire Line
	10000 1300 10050 1300
$Comp
L R R?
U 1 1 56B53FC7
P 10600 1000
F 0 "R?" V 10680 1000 50  0000 C CNN
F 1 "10k" V 10600 1000 50  0000 C CNN
F 2 "" V 10530 1000 50  0000 C CNN
F 3 "" H 10600 1000 50  0000 C CNN
	1    10600 1000
	1    0    0    -1  
$EndComp
$Comp
L +5VD #PWR?
U 1 1 56B5404E
P 10600 800
F 0 "#PWR?" H 10600 650 50  0001 C CNN
F 1 "+5VD" H 10600 940 50  0000 C CNN
F 2 "" H 10600 800 50  0000 C CNN
F 3 "" H 10600 800 50  0000 C CNN
	1    10600 800 
	1    0    0    -1  
$EndComp
Wire Wire Line
	10600 800  10600 850 
Text GLabel 10050 900  2    50   Input ~ 0
~uc_cs
Text GLabel 10050 1100 2    50   Input ~ 0
uc_miso
Text GLabel 10050 1200 2    50   Input ~ 0
uc_mosi
Text GLabel 10050 1300 2    50   Input ~ 0
uc_sck
Wire Wire Line
	10600 1150 10600 1250
Text GLabel 10600 1250 3    50   Input ~ 0
~uc_cs
Wire Notes Line
	10800 2000 10800 550 
Text Notes 10750 1950 2    50   ~ 0
128 kB SPI SRAM for sample storage
Text GLabel 4800 4550 2    50   Input ~ 0
uc_mosi
Text GLabel 4800 4650 2    50   Input ~ 0
uc_miso
Text GLabel 4800 4750 2    50   Input ~ 0
uc_sck
Text GLabel 4800 4450 2    50   Input ~ 0
~uc_cs
$Comp
L R R?
U 1 1 56B59854
P 4200 4450
F 0 "R?" V 4280 4450 50  0000 C CNN
F 1 "27" V 4200 4450 50  0000 C CNN
F 2 "" V 4130 4450 50  0000 C CNN
F 3 "" H 4200 4450 50  0000 C CNN
	1    4200 4450
	0    1    1    0   
$EndComp
$Comp
L R R?
U 1 1 56B59A4D
P 4500 4550
F 0 "R?" V 4580 4550 50  0000 C CNN
F 1 "27" V 4500 4550 50  0000 C CNN
F 2 "" V 4430 4550 50  0000 C CNN
F 3 "" H 4500 4550 50  0000 C CNN
	1    4500 4550
	0    1    1    0   
$EndComp
$Comp
L R R?
U 1 1 56B59A9D
P 4200 4650
F 0 "R?" V 4280 4650 50  0000 C CNN
F 1 "27" V 4200 4650 50  0000 C CNN
F 2 "" V 4130 4650 50  0000 C CNN
F 3 "" H 4200 4650 50  0000 C CNN
	1    4200 4650
	0    1    1    0   
$EndComp
$Comp
L R R?
U 1 1 56B59AEC
P 4500 4750
F 0 "R?" V 4580 4750 50  0000 C CNN
F 1 "27" V 4500 4750 50  0000 C CNN
F 2 "" V 4430 4750 50  0000 C CNN
F 3 "" H 4500 4750 50  0000 C CNN
	1    4500 4750
	0    1    1    0   
$EndComp
Wire Wire Line
	3950 4450 4050 4450
Wire Wire Line
	4350 4450 4800 4450
Wire Wire Line
	4800 4550 4650 4550
Wire Wire Line
	4350 4550 3950 4550
Wire Wire Line
	3950 4650 4050 4650
Wire Wire Line
	4350 4650 4800 4650
Wire Wire Line
	4800 4750 4650 4750
Wire Wire Line
	4350 4750 3950 4750
Wire Wire Line
	3950 5850 4000 5850
Wire Wire Line
	3950 5950 4000 5950
Text GLabel 4000 5850 2    50   Input ~ 0
uart_rxd
Text GLabel 4000 5950 2    50   Input ~ 0
uart_txd
Wire Wire Line
	3950 3150 4000 3150
Text GLabel 4000 3150 2    50   Input ~ 0
adc_in
$Comp
L R R?
U 1 1 56B5C6A2
P 4200 4950
F 0 "R?" V 4280 4950 50  0000 C CNN
F 1 "27" V 4200 4950 50  0000 C CNN
F 2 "" V 4130 4950 50  0000 C CNN
F 3 "" H 4200 4950 50  0000 C CNN
	1    4200 4950
	0    1    1    0   
$EndComp
$Comp
L R R?
U 1 1 56B5C700
P 4500 5050
F 0 "R?" V 4580 5050 50  0000 C CNN
F 1 "27" V 4500 5050 50  0000 C CNN
F 2 "" V 4430 5050 50  0000 C CNN
F 3 "" H 4500 5050 50  0000 C CNN
	1    4500 5050
	0    1    1    0   
$EndComp
$Comp
L R R?
U 1 1 56B5C757
P 4200 5150
F 0 "R?" V 4280 5150 50  0000 C CNN
F 1 "27" V 4200 5150 50  0000 C CNN
F 2 "" V 4130 5150 50  0000 C CNN
F 3 "" H 4200 5150 50  0000 C CNN
	1    4200 5150
	0    1    1    0   
$EndComp
$Comp
L R R?
U 1 1 56B5C7AA
P 4500 5250
F 0 "R?" V 4580 5250 50  0000 C CNN
F 1 "27" V 4500 5250 50  0000 C CNN
F 2 "" V 4430 5250 50  0000 C CNN
F 3 "" H 4500 5250 50  0000 C CNN
	1    4500 5250
	0    1    1    0   
$EndComp
$Comp
L R R?
U 1 1 56B5C7FD
P 4200 5350
F 0 "R?" V 4280 5350 50  0000 C CNN
F 1 "27" V 4200 5350 50  0000 C CNN
F 2 "" V 4130 5350 50  0000 C CNN
F 3 "" H 4200 5350 50  0000 C CNN
	1    4200 5350
	0    1    1    0   
$EndComp
$Comp
L R R?
U 1 1 56B5C854
P 4500 5450
F 0 "R?" V 4580 5450 50  0000 C CNN
F 1 "27" V 4500 5450 50  0000 C CNN
F 2 "" V 4430 5450 50  0000 C CNN
F 3 "" H 4500 5450 50  0000 C CNN
	1    4500 5450
	0    1    1    0   
$EndComp
$Comp
L R R?
U 1 1 56B5C8AB
P 4200 5550
F 0 "R?" V 4280 5550 50  0000 C CNN
F 1 "27" V 4200 5550 50  0000 C CNN
F 2 "" V 4130 5550 50  0000 C CNN
F 3 "" H 4200 5550 50  0000 C CNN
	1    4200 5550
	0    1    1    0   
$EndComp
$Comp
L R R?
U 1 1 56B5C906
P 4500 5650
F 0 "R?" V 4580 5650 50  0000 C CNN
F 1 "27" V 4500 5650 50  0000 C CNN
F 2 "" V 4430 5650 50  0000 C CNN
F 3 "" H 4500 5650 50  0000 C CNN
	1    4500 5650
	0    1    1    0   
$EndComp
Text GLabel 4800 4950 2    50   Input ~ 0
hd_db0
Text GLabel 4800 5050 2    50   Input ~ 0
hd_db1
Text GLabel 4800 5150 2    50   Input ~ 0
hd_db2
Text GLabel 4800 5250 2    50   Input ~ 0
hd_db3
Text GLabel 4800 5350 2    50   Input ~ 0
hd_db4
Text GLabel 4800 5450 2    50   Input ~ 0
hd_db5
Text GLabel 4800 5550 2    50   Input ~ 0
hd_db6
Text GLabel 4800 5650 2    50   Input ~ 0
hd_db7
Wire Wire Line
	4050 4950 3950 4950
Wire Wire Line
	3950 5050 4350 5050
Wire Wire Line
	4050 5150 3950 5150
Wire Wire Line
	3950 5350 4050 5350
Wire Wire Line
	4050 5550 3950 5550
Wire Wire Line
	3950 5650 4350 5650
Wire Wire Line
	4350 5450 3950 5450
Wire Wire Line
	3950 5250 4350 5250
Wire Wire Line
	4650 5650 4800 5650
Wire Wire Line
	4800 5450 4650 5450
Wire Wire Line
	4650 5250 4800 5250
Wire Wire Line
	4800 5050 4650 5050
Wire Wire Line
	4350 5150 4800 5150
Wire Wire Line
	4800 5350 4350 5350
Wire Wire Line
	4350 5550 4800 5550
Wire Wire Line
	4350 4950 4800 4950
Wire Wire Line
	3950 6250 4000 6250
Wire Wire Line
	3950 6350 4000 6350
Text GLabel 4000 6250 2    50   Input ~ 0
servo_pwm2
Text GLabel 4000 6350 2    50   Input ~ 0
servo_pwm1
$Comp
L R R?
U 1 1 56B60827
P 4200 4050
F 0 "R?" V 4280 4050 50  0000 C CNN
F 1 "27" V 4200 4050 50  0000 C CNN
F 2 "" V 4130 4050 50  0000 C CNN
F 3 "" H 4200 4050 50  0000 C CNN
	1    4200 4050
	0    1    1    0   
$EndComp
$Comp
L R R?
U 1 1 56B60895
P 4500 4150
F 0 "R?" V 4580 4150 50  0000 C CNN
F 1 "27" V 4500 4150 50  0000 C CNN
F 2 "" V 4430 4150 50  0000 C CNN
F 3 "" H 4500 4150 50  0000 C CNN
	1    4500 4150
	0    1    1    0   
$EndComp
$Comp
L R R?
U 1 1 56B608F8
P 4200 4250
F 0 "R?" V 4280 4250 50  0000 C CNN
F 1 "27" V 4200 4250 50  0000 C CNN
F 2 "" V 4130 4250 50  0000 C CNN
F 3 "" H 4200 4250 50  0000 C CNN
	1    4200 4250
	0    1    1    0   
$EndComp
Wire Wire Line
	3950 4050 4050 4050
Wire Wire Line
	3950 4150 4350 4150
Wire Wire Line
	4050 4250 3950 4250
Wire Wire Line
	4350 4050 4800 4050
Wire Wire Line
	4650 4150 4800 4150
Wire Wire Line
	4800 4250 4350 4250
Text GLabel 4800 4050 2    50   Input ~ 0
~hd_rw
Text GLabel 4800 4150 2    50   Input ~ 0
hd_rs
Text GLabel 4800 4250 2    50   Input ~ 0
hd_en
$Comp
L SW_PUSH SW?
U 1 1 56B6127E
P 8650 2800
F 0 "SW?" H 8800 2910 50  0000 C CNN
F 1 "SW_PUSH" H 8650 2720 50  0000 C CNN
F 2 "" H 8650 2800 50  0000 C CNN
F 3 "" H 8650 2800 50  0000 C CNN
	1    8650 2800
	1    0    0    -1  
$EndComp
$Comp
L R R?
U 1 1 56B61524
P 8300 3000
F 0 "R?" V 8380 3000 50  0000 C CNN
F 1 "10k" V 8300 3000 50  0000 C CNN
F 2 "" V 8230 3000 50  0000 C CNN
F 3 "" H 8300 3000 50  0000 C CNN
	1    8300 3000
	1    0    0    -1  
$EndComp
$Comp
L R R?
U 1 1 56B6170C
P 8300 2600
F 0 "R?" V 8380 2600 50  0000 C CNN
F 1 "1k" V 8300 2600 50  0000 C CNN
F 2 "" V 8230 2600 50  0000 C CNN
F 3 "" H 8300 2600 50  0000 C CNN
	1    8300 2600
	1    0    0    -1  
$EndComp
$Comp
L C C?
U 1 1 56B61801
P 8300 3400
F 0 "C?" H 8325 3500 50  0000 L CNN
F 1 "100n" H 8325 3300 50  0000 L CNN
F 2 "" H 8338 3250 50  0000 C CNN
F 3 "" H 8300 3400 50  0000 C CNN
	1    8300 3400
	1    0    0    -1  
$EndComp
$Comp
L GNDD #PWR?
U 1 1 56B619B1
P 8300 3600
F 0 "#PWR?" H 8300 3350 50  0001 C CNN
F 1 "GNDD" H 8300 3450 50  0000 C CNN
F 2 "" H 8300 3600 50  0000 C CNN
F 3 "" H 8300 3600 50  0000 C CNN
	1    8300 3600
	1    0    0    -1  
$EndComp
$Comp
L +5VD #PWR?
U 1 1 56B61AF7
P 8300 2400
F 0 "#PWR?" H 8300 2250 50  0001 C CNN
F 1 "+5VD" H 8300 2540 50  0000 C CNN
F 2 "" H 8300 2400 50  0000 C CNN
F 3 "" H 8300 2400 50  0000 C CNN
	1    8300 2400
	1    0    0    -1  
$EndComp
Wire Wire Line
	8300 2400 8300 2450
Wire Wire Line
	8300 2750 8300 2850
Wire Wire Line
	8300 3150 8300 3250
Wire Wire Line
	8300 3550 8300 3600
Wire Wire Line
	8350 2800 8300 2800
Connection ~ 8300 2800
$Comp
L GNDD #PWR?
U 1 1 56B6203E
P 9000 2950
F 0 "#PWR?" H 9000 2700 50  0001 C CNN
F 1 "GNDD" H 9000 2800 50  0000 C CNN
F 2 "" H 9000 2950 50  0000 C CNN
F 3 "" H 9000 2950 50  0000 C CNN
	1    9000 2950
	1    0    0    -1  
$EndComp
Wire Wire Line
	8950 2800 9000 2800
Wire Wire Line
	9000 2800 9000 2950
Wire Wire Line
	8300 3200 8400 3200
Connection ~ 8300 3200
Text GLabel 8400 3200 2    50   Input ~ 0
~but1
$Comp
L SW_PUSH SW?
U 1 1 56B62926
P 7700 2800
F 0 "SW?" H 7850 2910 50  0000 C CNN
F 1 "SW_PUSH" H 7700 2720 50  0000 C CNN
F 2 "" H 7700 2800 50  0000 C CNN
F 3 "" H 7700 2800 50  0000 C CNN
	1    7700 2800
	1    0    0    -1  
$EndComp
$Comp
L R R?
U 1 1 56B6292C
P 7350 3000
F 0 "R?" V 7430 3000 50  0000 C CNN
F 1 "10k" V 7350 3000 50  0000 C CNN
F 2 "" V 7280 3000 50  0000 C CNN
F 3 "" H 7350 3000 50  0000 C CNN
	1    7350 3000
	1    0    0    -1  
$EndComp
$Comp
L R R?
U 1 1 56B62932
P 7350 2600
F 0 "R?" V 7430 2600 50  0000 C CNN
F 1 "1k" V 7350 2600 50  0000 C CNN
F 2 "" V 7280 2600 50  0000 C CNN
F 3 "" H 7350 2600 50  0000 C CNN
	1    7350 2600
	1    0    0    -1  
$EndComp
$Comp
L C C?
U 1 1 56B62938
P 7350 3400
F 0 "C?" H 7375 3500 50  0000 L CNN
F 1 "100n" H 7375 3300 50  0000 L CNN
F 2 "" H 7388 3250 50  0000 C CNN
F 3 "" H 7350 3400 50  0000 C CNN
	1    7350 3400
	1    0    0    -1  
$EndComp
$Comp
L GNDD #PWR?
U 1 1 56B6293E
P 7350 3600
F 0 "#PWR?" H 7350 3350 50  0001 C CNN
F 1 "GNDD" H 7350 3450 50  0000 C CNN
F 2 "" H 7350 3600 50  0000 C CNN
F 3 "" H 7350 3600 50  0000 C CNN
	1    7350 3600
	1    0    0    -1  
$EndComp
$Comp
L +5VD #PWR?
U 1 1 56B62944
P 7350 2400
F 0 "#PWR?" H 7350 2250 50  0001 C CNN
F 1 "+5VD" H 7350 2540 50  0000 C CNN
F 2 "" H 7350 2400 50  0000 C CNN
F 3 "" H 7350 2400 50  0000 C CNN
	1    7350 2400
	1    0    0    -1  
$EndComp
Wire Wire Line
	7350 2400 7350 2450
Wire Wire Line
	7350 2750 7350 2850
Wire Wire Line
	7350 3150 7350 3250
Wire Wire Line
	7350 3550 7350 3600
Wire Wire Line
	7400 2800 7350 2800
Connection ~ 7350 2800
$Comp
L GNDD #PWR?
U 1 1 56B62950
P 8050 2950
F 0 "#PWR?" H 8050 2700 50  0001 C CNN
F 1 "GNDD" H 8050 2800 50  0000 C CNN
F 2 "" H 8050 2950 50  0000 C CNN
F 3 "" H 8050 2950 50  0000 C CNN
	1    8050 2950
	1    0    0    -1  
$EndComp
Wire Wire Line
	8000 2800 8050 2800
Wire Wire Line
	8050 2800 8050 2950
Wire Wire Line
	7350 3200 7450 3200
Connection ~ 7350 3200
Text GLabel 7450 3200 2    50   Input ~ 0
~but0
$Comp
L SW_PUSH SW?
U 1 1 56B63021
P 10550 2800
F 0 "SW?" H 10700 2910 50  0000 C CNN
F 1 "SW_PUSH" H 10550 2720 50  0000 C CNN
F 2 "" H 10550 2800 50  0000 C CNN
F 3 "" H 10550 2800 50  0000 C CNN
	1    10550 2800
	1    0    0    -1  
$EndComp
$Comp
L R R?
U 1 1 56B63027
P 10200 3000
F 0 "R?" V 10280 3000 50  0000 C CNN
F 1 "10k" V 10200 3000 50  0000 C CNN
F 2 "" V 10130 3000 50  0000 C CNN
F 3 "" H 10200 3000 50  0000 C CNN
	1    10200 3000
	1    0    0    -1  
$EndComp
$Comp
L R R?
U 1 1 56B6302D
P 10200 2600
F 0 "R?" V 10280 2600 50  0000 C CNN
F 1 "1k" V 10200 2600 50  0000 C CNN
F 2 "" V 10130 2600 50  0000 C CNN
F 3 "" H 10200 2600 50  0000 C CNN
	1    10200 2600
	1    0    0    -1  
$EndComp
$Comp
L C C?
U 1 1 56B63033
P 10200 3400
F 0 "C?" H 10225 3500 50  0000 L CNN
F 1 "100n" H 10225 3300 50  0000 L CNN
F 2 "" H 10238 3250 50  0000 C CNN
F 3 "" H 10200 3400 50  0000 C CNN
	1    10200 3400
	1    0    0    -1  
$EndComp
$Comp
L GNDD #PWR?
U 1 1 56B63039
P 10200 3600
F 0 "#PWR?" H 10200 3350 50  0001 C CNN
F 1 "GNDD" H 10200 3450 50  0000 C CNN
F 2 "" H 10200 3600 50  0000 C CNN
F 3 "" H 10200 3600 50  0000 C CNN
	1    10200 3600
	1    0    0    -1  
$EndComp
$Comp
L +5VD #PWR?
U 1 1 56B6303F
P 10200 2400
F 0 "#PWR?" H 10200 2250 50  0001 C CNN
F 1 "+5VD" H 10200 2540 50  0000 C CNN
F 2 "" H 10200 2400 50  0000 C CNN
F 3 "" H 10200 2400 50  0000 C CNN
	1    10200 2400
	1    0    0    -1  
$EndComp
Wire Wire Line
	10200 2400 10200 2450
Wire Wire Line
	10200 2750 10200 2850
Wire Wire Line
	10200 3150 10200 3250
Wire Wire Line
	10200 3550 10200 3600
Wire Wire Line
	10250 2800 10200 2800
Connection ~ 10200 2800
$Comp
L GNDD #PWR?
U 1 1 56B6304B
P 10900 2950
F 0 "#PWR?" H 10900 2700 50  0001 C CNN
F 1 "GNDD" H 10900 2800 50  0000 C CNN
F 2 "" H 10900 2950 50  0000 C CNN
F 3 "" H 10900 2950 50  0000 C CNN
	1    10900 2950
	1    0    0    -1  
$EndComp
Wire Wire Line
	10850 2800 10900 2800
Wire Wire Line
	10900 2800 10900 2950
Wire Wire Line
	10200 3200 10300 3200
Connection ~ 10200 3200
Text GLabel 10300 3200 2    50   Input ~ 0
~but3
$Comp
L SW_PUSH SW?
U 1 1 56B63056
P 9600 2800
F 0 "SW?" H 9750 2910 50  0000 C CNN
F 1 "SW_PUSH" H 9600 2720 50  0000 C CNN
F 2 "" H 9600 2800 50  0000 C CNN
F 3 "" H 9600 2800 50  0000 C CNN
	1    9600 2800
	1    0    0    -1  
$EndComp
$Comp
L R R?
U 1 1 56B6305C
P 9250 3000
F 0 "R?" V 9330 3000 50  0000 C CNN
F 1 "10k" V 9250 3000 50  0000 C CNN
F 2 "" V 9180 3000 50  0000 C CNN
F 3 "" H 9250 3000 50  0000 C CNN
	1    9250 3000
	1    0    0    -1  
$EndComp
$Comp
L R R?
U 1 1 56B63062
P 9250 2600
F 0 "R?" V 9330 2600 50  0000 C CNN
F 1 "1k" V 9250 2600 50  0000 C CNN
F 2 "" V 9180 2600 50  0000 C CNN
F 3 "" H 9250 2600 50  0000 C CNN
	1    9250 2600
	1    0    0    -1  
$EndComp
$Comp
L C C?
U 1 1 56B63068
P 9250 3400
F 0 "C?" H 9275 3500 50  0000 L CNN
F 1 "100n" H 9275 3300 50  0000 L CNN
F 2 "" H 9288 3250 50  0000 C CNN
F 3 "" H 9250 3400 50  0000 C CNN
	1    9250 3400
	1    0    0    -1  
$EndComp
$Comp
L GNDD #PWR?
U 1 1 56B6306E
P 9250 3600
F 0 "#PWR?" H 9250 3350 50  0001 C CNN
F 1 "GNDD" H 9250 3450 50  0000 C CNN
F 2 "" H 9250 3600 50  0000 C CNN
F 3 "" H 9250 3600 50  0000 C CNN
	1    9250 3600
	1    0    0    -1  
$EndComp
$Comp
L +5VD #PWR?
U 1 1 56B63074
P 9250 2400
F 0 "#PWR?" H 9250 2250 50  0001 C CNN
F 1 "+5VD" H 9250 2540 50  0000 C CNN
F 2 "" H 9250 2400 50  0000 C CNN
F 3 "" H 9250 2400 50  0000 C CNN
	1    9250 2400
	1    0    0    -1  
$EndComp
Wire Wire Line
	9250 2400 9250 2450
Wire Wire Line
	9250 2750 9250 2850
Wire Wire Line
	9250 3150 9250 3250
Wire Wire Line
	9250 3550 9250 3600
Wire Wire Line
	9300 2800 9250 2800
Connection ~ 9250 2800
$Comp
L GNDD #PWR?
U 1 1 56B63080
P 9950 2950
F 0 "#PWR?" H 9950 2700 50  0001 C CNN
F 1 "GNDD" H 9950 2800 50  0000 C CNN
F 2 "" H 9950 2950 50  0000 C CNN
F 3 "" H 9950 2950 50  0000 C CNN
	1    9950 2950
	1    0    0    -1  
$EndComp
Wire Wire Line
	9900 2800 9950 2800
Wire Wire Line
	9950 2800 9950 2950
Wire Wire Line
	9250 3200 9350 3200
Connection ~ 9250 3200
Text GLabel 9350 3200 2    50   Input ~ 0
~but2
Wire Notes Line
	7100 2100 7100 4000
Wire Notes Line
	7100 4000 11100 4000
Wire Notes Line
	11100 4000 11100 2100
Wire Notes Line
	11100 2100 7100 2100
Wire Wire Line
	3950 6550 4000 6550
Wire Wire Line
	4000 6450 3950 6450
Wire Wire Line
	3950 6150 4000 6150
Wire Wire Line
	4000 6050 3950 6050
Text GLabel 4000 6050 2    50   Input ~ 0
~but0
Text GLabel 4000 6150 2    50   Input ~ 0
~but1
Text GLabel 4000 6450 2    50   Input ~ 0
~but2
Text GLabel 4000 6550 2    50   Input ~ 0
~but3
Wire Wire Line
	1000 1150 1000 1250
Wire Wire Line
	1650 1100 1650 1200
Wire Wire Line
	1650 1500 1650 1700
Wire Wire Line
	1650 1150 1000 1150
Connection ~ 1650 1150
Wire Notes Line
	2350 2300 600  2300
$Comp
L LED D?
U 1 1 56B4D7FD
P 5000 2900
F 0 "D?" H 5000 3000 50  0000 C CNN
F 1 "LED" H 5000 2800 50  0000 C CNN
F 2 "" H 5000 2900 50  0000 C CNN
F 3 "" H 5000 2900 50  0000 C CNN
	1    5000 2900
	0    -1   -1   0   
$EndComp
$Comp
L R R?
U 1 1 56B4DEE0
P 5000 3350
F 0 "R?" V 5080 3350 50  0000 C CNN
F 1 "1k4" V 5000 3350 50  0000 C CNN
F 2 "" V 4930 3350 50  0000 C CNN
F 3 "" H 5000 3350 50  0000 C CNN
	1    5000 3350
	1    0    0    -1  
$EndComp
$Comp
L GNDD #PWR?
U 1 1 56B4E140
P 5000 3600
F 0 "#PWR?" H 5000 3350 50  0001 C CNN
F 1 "GNDD" H 5000 3450 50  0000 C CNN
F 2 "" H 5000 3600 50  0000 C CNN
F 3 "" H 5000 3600 50  0000 C CNN
	1    5000 3600
	1    0    0    -1  
$EndComp
Wire Wire Line
	5000 3500 5000 3600
Wire Wire Line
	5000 3200 5000 3100
Wire Wire Line
	5000 2700 5000 2650
$Comp
L LED D?
U 1 1 56B4EFFD
P 5300 2900
F 0 "D?" H 5300 3000 50  0000 C CNN
F 1 "LED" H 5300 2800 50  0000 C CNN
F 2 "" H 5300 2900 50  0000 C CNN
F 3 "" H 5300 2900 50  0000 C CNN
	1    5300 2900
	0    -1   -1   0   
$EndComp
$Comp
L R R?
U 1 1 56B4F003
P 5300 3350
F 0 "R?" V 5380 3350 50  0000 C CNN
F 1 "1k4" V 5300 3350 50  0000 C CNN
F 2 "" V 5230 3350 50  0000 C CNN
F 3 "" H 5300 3350 50  0000 C CNN
	1    5300 3350
	1    0    0    -1  
$EndComp
$Comp
L GNDD #PWR?
U 1 1 56B4F00F
P 5300 3600
F 0 "#PWR?" H 5300 3350 50  0001 C CNN
F 1 "GNDD" H 5300 3450 50  0000 C CNN
F 2 "" H 5300 3600 50  0000 C CNN
F 3 "" H 5300 3600 50  0000 C CNN
	1    5300 3600
	1    0    0    -1  
$EndComp
Wire Wire Line
	5300 3500 5300 3600
Wire Wire Line
	5300 3200 5300 3100
Wire Wire Line
	5300 2700 5300 2650
Text GLabel 5000 2650 1    50   Input ~ 0
uc_prgrs0
Text GLabel 5300 2650 1    50   Input ~ 0
uc_prgrs1
$Comp
L LED D?
U 1 1 56B503FB
P 5600 2900
F 0 "D?" H 5600 3000 50  0000 C CNN
F 1 "LED" H 5600 2800 50  0000 C CNN
F 2 "" H 5600 2900 50  0000 C CNN
F 3 "" H 5600 2900 50  0000 C CNN
	1    5600 2900
	0    -1   -1   0   
$EndComp
$Comp
L R R?
U 1 1 56B50401
P 5600 3350
F 0 "R?" V 5680 3350 50  0000 C CNN
F 1 "1k4" V 5600 3350 50  0000 C CNN
F 2 "" V 5530 3350 50  0000 C CNN
F 3 "" H 5600 3350 50  0000 C CNN
	1    5600 3350
	1    0    0    -1  
$EndComp
$Comp
L GNDD #PWR?
U 1 1 56B50407
P 5600 3600
F 0 "#PWR?" H 5600 3350 50  0001 C CNN
F 1 "GNDD" H 5600 3450 50  0000 C CNN
F 2 "" H 5600 3600 50  0000 C CNN
F 3 "" H 5600 3600 50  0000 C CNN
	1    5600 3600
	1    0    0    -1  
$EndComp
Wire Wire Line
	5600 3500 5600 3600
Wire Wire Line
	5600 3200 5600 3100
Wire Wire Line
	5600 2700 5600 2650
$Comp
L LED D?
U 1 1 56B50410
P 5900 2900
F 0 "D?" H 5900 3000 50  0000 C CNN
F 1 "LED" H 5900 2800 50  0000 C CNN
F 2 "" H 5900 2900 50  0000 C CNN
F 3 "" H 5900 2900 50  0000 C CNN
	1    5900 2900
	0    -1   -1   0   
$EndComp
$Comp
L R R?
U 1 1 56B50416
P 5900 3350
F 0 "R?" V 5980 3350 50  0000 C CNN
F 1 "1k4" V 5900 3350 50  0000 C CNN
F 2 "" V 5830 3350 50  0000 C CNN
F 3 "" H 5900 3350 50  0000 C CNN
	1    5900 3350
	1    0    0    -1  
$EndComp
$Comp
L GNDD #PWR?
U 1 1 56B5041C
P 5900 3600
F 0 "#PWR?" H 5900 3350 50  0001 C CNN
F 1 "GNDD" H 5900 3450 50  0000 C CNN
F 2 "" H 5900 3600 50  0000 C CNN
F 3 "" H 5900 3600 50  0000 C CNN
	1    5900 3600
	1    0    0    -1  
$EndComp
Wire Wire Line
	5900 3500 5900 3600
Wire Wire Line
	5900 3200 5900 3100
Wire Wire Line
	5900 2700 5900 2650
$Comp
L LED D?
U 1 1 56B5058D
P 6200 2900
F 0 "D?" H 6200 3000 50  0000 C CNN
F 1 "LED" H 6200 2800 50  0000 C CNN
F 2 "" H 6200 2900 50  0000 C CNN
F 3 "" H 6200 2900 50  0000 C CNN
	1    6200 2900
	0    -1   -1   0   
$EndComp
$Comp
L R R?
U 1 1 56B50593
P 6200 3350
F 0 "R?" V 6280 3350 50  0000 C CNN
F 1 "1k4" V 6200 3350 50  0000 C CNN
F 2 "" V 6130 3350 50  0000 C CNN
F 3 "" H 6200 3350 50  0000 C CNN
	1    6200 3350
	1    0    0    -1  
$EndComp
$Comp
L GNDD #PWR?
U 1 1 56B50599
P 6200 3600
F 0 "#PWR?" H 6200 3350 50  0001 C CNN
F 1 "GNDD" H 6200 3450 50  0000 C CNN
F 2 "" H 6200 3600 50  0000 C CNN
F 3 "" H 6200 3600 50  0000 C CNN
	1    6200 3600
	1    0    0    -1  
$EndComp
Wire Wire Line
	6200 3500 6200 3600
Wire Wire Line
	6200 3200 6200 3100
Wire Wire Line
	6200 2700 6200 2650
$Comp
L LED D?
U 1 1 56B505A2
P 6500 2900
F 0 "D?" H 6500 3000 50  0000 C CNN
F 1 "LED" H 6500 2800 50  0000 C CNN
F 2 "" H 6500 2900 50  0000 C CNN
F 3 "" H 6500 2900 50  0000 C CNN
	1    6500 2900
	0    -1   -1   0   
$EndComp
$Comp
L R R?
U 1 1 56B505A8
P 6500 3350
F 0 "R?" V 6580 3350 50  0000 C CNN
F 1 "1k4" V 6500 3350 50  0000 C CNN
F 2 "" V 6430 3350 50  0000 C CNN
F 3 "" H 6500 3350 50  0000 C CNN
	1    6500 3350
	1    0    0    -1  
$EndComp
$Comp
L GNDD #PWR?
U 1 1 56B505AE
P 6500 3600
F 0 "#PWR?" H 6500 3350 50  0001 C CNN
F 1 "GNDD" H 6500 3450 50  0000 C CNN
F 2 "" H 6500 3600 50  0000 C CNN
F 3 "" H 6500 3600 50  0000 C CNN
	1    6500 3600
	1    0    0    -1  
$EndComp
Wire Wire Line
	6500 3500 6500 3600
Wire Wire Line
	6500 3200 6500 3100
Wire Wire Line
	6500 2700 6500 2650
$Comp
L LED D?
U 1 1 56B505B7
P 6800 2900
F 0 "D?" H 6800 3000 50  0000 C CNN
F 1 "LED" H 6800 2800 50  0000 C CNN
F 2 "" H 6800 2900 50  0000 C CNN
F 3 "" H 6800 2900 50  0000 C CNN
	1    6800 2900
	0    -1   -1   0   
$EndComp
$Comp
L R R?
U 1 1 56B505BD
P 6800 3350
F 0 "R?" V 6880 3350 50  0000 C CNN
F 1 "1k4" V 6800 3350 50  0000 C CNN
F 2 "" V 6730 3350 50  0000 C CNN
F 3 "" H 6800 3350 50  0000 C CNN
	1    6800 3350
	1    0    0    -1  
$EndComp
$Comp
L GNDD #PWR?
U 1 1 56B505C3
P 6800 3600
F 0 "#PWR?" H 6800 3350 50  0001 C CNN
F 1 "GNDD" H 6800 3450 50  0000 C CNN
F 2 "" H 6800 3600 50  0000 C CNN
F 3 "" H 6800 3600 50  0000 C CNN
	1    6800 3600
	1    0    0    -1  
$EndComp
Wire Wire Line
	6800 3500 6800 3600
Wire Wire Line
	6800 3200 6800 3100
Wire Wire Line
	6800 2700 6800 2650
Text GLabel 5600 2650 1    50   Input ~ 0
uc_prgrs2
Text GLabel 5900 2650 1    50   Input ~ 0
uc_prgrs3
Text GLabel 6200 2650 1    50   Input ~ 0
uc_prgrs4
Text GLabel 6500 2650 1    50   Input ~ 0
uc_prgrs5
Text GLabel 6800 2650 1    50   Input ~ 0
uc_prgrs6
Wire Notes Line
	7000 2100 7000 3950
Wire Notes Line
	7000 2100 4800 2100
Wire Notes Line
	4800 2100 4800 3950
Wire Notes Line
	4800 3950 7000 3950
Text Notes 6950 3900 2    50   ~ 0
Progressbar
Wire Wire Line
	3950 3250 4000 3250
Wire Wire Line
	3950 3350 4000 3350
Wire Wire Line
	3950 3450 4000 3450
Wire Wire Line
	3950 3550 4000 3550
Wire Wire Line
	3950 3650 4000 3650
Wire Wire Line
	3950 3750 4000 3750
Wire Wire Line
	3950 3850 4000 3850
Text GLabel 4000 3250 2    50   Input ~ 0
uc_prgrs0
Text GLabel 4000 3350 2    50   Input ~ 0
uc_prgrs1
Text GLabel 4000 3450 2    50   Input ~ 0
uc_prgrs2
Text GLabel 4000 3550 2    50   Input ~ 0
uc_prgrs3
Text GLabel 4000 3650 2    50   Input ~ 0
uc_prgrs4
Text GLabel 4000 3750 2    50   Input ~ 0
uc_prgrs5
Text GLabel 4000 3850 2    50   Input ~ 0
uc_prgrs6
NoConn ~ 3950 4350
$EndSCHEMATC
