EESchema Schematic File Version 2
LIBS:74xgxx
LIBS:74xx
LIBS:ac-dc
LIBS:actel
LIBS:adc-dac
LIBS:Altera
LIBS:analog_devices
LIBS:analog_switches
LIBS:atmel
LIBS:audio
LIBS:brooktre
LIBS:cmos4000
LIBS:cmos_ieee
LIBS:conn
LIBS:contrib
LIBS:cypress
LIBS:dc-dc
LIBS:device
LIBS:digital-audio
LIBS:diode
LIBS:display
LIBS:dsp
LIBS:elec-unifil
LIBS:ESD_Protection
LIBS:ftdi
LIBS:gennum
LIBS:graphic
LIBS:hc11
LIBS:intel
LIBS:interface
LIBS:ir
LIBS:Lattice
LIBS:linear
LIBS:logo
LIBS:maxim
LIBS:memory
LIBS:microchip
LIBS:microchip_dspic33dsc
LIBS:microchip_pic10mcu
LIBS:microchip_pic12mcu
LIBS:microchip_pic16mcu
LIBS:microchip_pic18mcu
LIBS:microchip_pic32mcu
LIBS:microcontrollers
LIBS:motor_drivers
LIBS:motorola
LIBS:msp430
LIBS:nordicsemi
LIBS:nxp_armmcu
LIBS:onsemi
LIBS:opto
LIBS:Oscillators
LIBS:philips
LIBS:power
LIBS:powerint
LIBS:Power_Management
LIBS:pspice
LIBS:references
LIBS:regul
LIBS:relays
LIBS:rfcom
LIBS:sensors
LIBS:silabs
LIBS:siliconi
LIBS:stm8
LIBS:stm32
LIBS:supertex
LIBS:switches
LIBS:texas
LIBS:transf
LIBS:transistors
LIBS:ttl_ieee
LIBS:valves
LIBS:video
LIBS:Xicor
LIBS:xilinx
LIBS:Zilog
LIBS:szpejo_revB-cache
EELAYER 25 0
EELAYER END
$Descr A4 11693 8268
encoding utf-8
Sheet 3 3
Title "Szpejo 3000"
Date "2016-02-13"
Rev "B"
Comp ""
Comment1 ""
Comment2 ""
Comment3 ""
Comment4 ""
$EndDescr
$Comp
L C C302
U 1 1 56B4956B
P 950 4200
F 0 "C302" H 975 4300 50  0000 L CNN
F 1 "22p" H 975 4100 50  0000 L CNN
F 2 "Capacitors_SMD:C_0603" H 988 4050 50  0001 C CNN
F 3 "" H 950 4200 50  0000 C CNN
	1    950  4200
	1    0    0    -1  
$EndComp
$Comp
L C C303
U 1 1 56B495B6
P 1250 4200
F 0 "C303" H 1275 4300 50  0000 L CNN
F 1 "22p" H 1275 4100 50  0000 L CNN
F 2 "Capacitors_SMD:C_0603" H 1288 4050 50  0001 C CNN
F 3 "" H 1250 4200 50  0000 C CNN
	1    1250 4200
	1    0    0    -1  
$EndComp
$Comp
L GNDD #PWR092
U 1 1 56B49625
P 1250 4450
F 0 "#PWR092" H 1250 4200 50  0001 C CNN
F 1 "GNDD" H 1250 4300 50  0000 C CNN
F 2 "" H 1250 4450 50  0000 C CNN
F 3 "" H 1250 4450 50  0000 C CNN
	1    1250 4450
	1    0    0    -1  
$EndComp
$Comp
L GNDD #PWR093
U 1 1 56B4963F
P 950 4450
F 0 "#PWR093" H 950 4200 50  0001 C CNN
F 1 "GNDD" H 950 4300 50  0000 C CNN
F 2 "" H 950 4450 50  0000 C CNN
F 3 "" H 950 4450 50  0000 C CNN
	1    950  4450
	1    0    0    -1  
$EndComp
$Comp
L GNDD #PWR094
U 1 1 56B496C5
P 2650 7050
F 0 "#PWR094" H 2650 6800 50  0001 C CNN
F 1 "GNDD" H 2650 6900 50  0000 C CNN
F 2 "" H 2650 7050 50  0000 C CNN
F 3 "" H 2650 7050 50  0000 C CNN
	1    2650 7050
	1    0    0    -1  
$EndComp
$Comp
L +5VD #PWR095
U 1 1 56B4975E
P 2650 2650
F 0 "#PWR095" H 2650 2500 50  0001 C CNN
F 1 "+5VD" H 2650 2790 50  0000 C CNN
F 2 "" H 2650 2650 50  0000 C CNN
F 3 "" H 2650 2650 50  0000 C CNN
	1    2650 2650
	1    0    0    -1  
$EndComp
$Comp
L C C304
U 1 1 56B497CB
P 1600 4700
F 0 "C304" H 1625 4800 50  0000 L CNN
F 1 "100n" H 1625 4600 50  0000 L CNN
F 2 "Capacitors_SMD:C_0603" H 1638 4550 50  0001 C CNN
F 3 "" H 1600 4700 50  0000 C CNN
	1    1600 4700
	1    0    0    -1  
$EndComp
$Comp
L GNDA #PWR096
U 1 1 56B49879
P 1600 4950
F 0 "#PWR096" H 1600 4700 50  0001 C CNN
F 1 "GNDA" H 1600 4800 50  0000 C CNN
F 2 "" H 1600 4950 50  0000 C CNN
F 3 "" H 1600 4950 50  0000 C CNN
	1    1600 4950
	1    0    0    -1  
$EndComp
$Comp
L SW_PUSH SW301
U 1 1 56B49AAB
P 1300 1550
F 0 "SW301" H 1450 1660 50  0000 C CNN
F 1 "SW_PUSH" H 1300 1470 50  0000 C CNN
F 2 "Buttons_Switches_SMD:SW_SPST_EVPBF" H 1300 1550 50  0001 C CNN
F 3 "" H 1300 1550 50  0000 C CNN
	1    1300 1550
	0    -1   -1   0   
$EndComp
$Comp
L R R301
U 1 1 56B49B2E
P 1950 950
F 0 "R301" V 2030 950 50  0000 C CNN
F 1 "1k" V 1950 950 50  0000 C CNN
F 2 "Resistors_SMD:R_0603" V 1880 950 50  0001 C CNN
F 3 "" H 1950 950 50  0000 C CNN
	1    1950 950 
	1    0    0    -1  
$EndComp
$Comp
L C C305
U 1 1 56B49B80
P 1950 1850
F 0 "C305" H 1975 1950 50  0000 L CNN
F 1 "100n" H 1975 1750 50  0000 L CNN
F 2 "Capacitors_SMD:C_0603" H 1988 1700 50  0001 C CNN
F 3 "" H 1950 1850 50  0000 C CNN
	1    1950 1850
	1    0    0    -1  
$EndComp
$Comp
L GNDD #PWR097
U 1 1 56B49DF0
P 1950 2050
F 0 "#PWR097" H 1950 1800 50  0001 C CNN
F 1 "GNDD" H 1950 1900 50  0000 C CNN
F 2 "" H 1950 2050 50  0000 C CNN
F 3 "" H 1950 2050 50  0000 C CNN
	1    1950 2050
	1    0    0    -1  
$EndComp
$Comp
L +5VD #PWR098
U 1 1 56B49F57
P 1950 750
F 0 "#PWR098" H 1950 600 50  0001 C CNN
F 1 "+5VD" H 1950 890 50  0000 C CNN
F 2 "" H 1950 750 50  0000 C CNN
F 3 "" H 1950 750 50  0000 C CNN
	1    1950 750 
	1    0    0    -1  
$EndComp
$Comp
L R R302
U 1 1 56B49FD1
P 1950 1350
F 0 "R302" V 2030 1350 50  0000 C CNN
F 1 "10k" V 1950 1350 50  0000 C CNN
F 2 "Resistors_SMD:R_0603" V 1880 1350 50  0001 C CNN
F 3 "" H 1950 1350 50  0000 C CNN
	1    1950 1350
	-1   0    0    1   
$EndComp
$Comp
L GNDD #PWR099
U 1 1 56B4A046
P 1300 2050
F 0 "#PWR099" H 1300 1800 50  0001 C CNN
F 1 "GNDD" H 1300 1900 50  0000 C CNN
F 2 "" H 1300 2050 50  0000 C CNN
F 3 "" H 1300 2050 50  0000 C CNN
	1    1300 2050
	1    0    0    -1  
$EndComp
Text GLabel 2200 1600 2    50   Input ~ 0
~uc_rst
Text GLabel 1600 3150 0    50   Input ~ 0
~uc_rst
Text Notes 2600 2250 1    50   ~ 0
RESET switch
$Comp
L C C301
U 1 1 56B4A978
P 6650 2800
F 0 "C301" H 6675 2900 50  0000 L CNN
F 1 "100n" H 6675 2700 50  0000 L CNN
F 2 "Capacitors_SMD:C_0603" H 6688 2650 50  0001 C CNN
F 3 "" H 6650 2800 50  0000 C CNN
	1    6650 2800
	1    0    0    -1  
$EndComp
$Comp
L +5VA #PWR0100
U 1 1 56B4AB64
P 6650 2550
F 0 "#PWR0100" H 6650 2400 50  0001 C CNN
F 1 "+5VA" H 6650 2690 50  0000 C CNN
F 2 "" H 6650 2550 50  0000 C CNN
F 3 "" H 6650 2550 50  0000 C CNN
	1    6650 2550
	1    0    0    -1  
$EndComp
$Comp
L GNDA #PWR0101
U 1 1 56B4AB8D
P 6650 3050
F 0 "#PWR0101" H 6650 2800 50  0001 C CNN
F 1 "GNDA" H 6650 2900 50  0000 C CNN
F 2 "" H 6650 3050 50  0000 C CNN
F 3 "" H 6650 3050 50  0000 C CNN
	1    6650 3050
	1    0    0    -1  
$EndComp
$Comp
L C C306
U 1 1 56B4ABB6
P 2950 1250
F 0 "C306" H 2975 1350 50  0000 L CNN
F 1 "100n" H 2975 1150 50  0000 L CNN
F 2 "Capacitors_SMD:C_0603" H 2988 1100 50  0001 C CNN
F 3 "" H 2950 1250 50  0000 C CNN
	1    2950 1250
	1    0    0    -1  
$EndComp
$Comp
L C C308
U 1 1 56B4AC08
P 3650 1250
F 0 "C308" H 3675 1350 50  0000 L CNN
F 1 "100n" H 3675 1150 50  0000 L CNN
F 2 "Capacitors_SMD:C_0603" H 3688 1100 50  0001 C CNN
F 3 "" H 3650 1250 50  0000 C CNN
	1    3650 1250
	1    0    0    -1  
$EndComp
$Comp
L +5VD #PWR0102
U 1 1 56B4AC41
P 2950 1000
F 0 "#PWR0102" H 2950 850 50  0001 C CNN
F 1 "+5VD" H 2950 1140 50  0000 C CNN
F 2 "" H 2950 1000 50  0000 C CNN
F 3 "" H 2950 1000 50  0000 C CNN
	1    2950 1000
	1    0    0    -1  
$EndComp
$Comp
L +5VD #PWR0103
U 1 1 56B4AC70
P 3650 1000
F 0 "#PWR0103" H 3650 850 50  0001 C CNN
F 1 "+5VD" H 3650 1140 50  0000 C CNN
F 2 "" H 3650 1000 50  0000 C CNN
F 3 "" H 3650 1000 50  0000 C CNN
	1    3650 1000
	1    0    0    -1  
$EndComp
$Comp
L GNDD #PWR0104
U 1 1 56B4AC9F
P 2950 1500
F 0 "#PWR0104" H 2950 1250 50  0001 C CNN
F 1 "GNDD" H 2950 1350 50  0000 C CNN
F 2 "" H 2950 1500 50  0000 C CNN
F 3 "" H 2950 1500 50  0000 C CNN
	1    2950 1500
	1    0    0    -1  
$EndComp
$Comp
L GNDD #PWR0105
U 1 1 56B4ACCE
P 3650 1500
F 0 "#PWR0105" H 3650 1250 50  0001 C CNN
F 1 "GNDD" H 3650 1350 50  0000 C CNN
F 2 "" H 3650 1500 50  0000 C CNN
F 3 "" H 3650 1500 50  0000 C CNN
	1    3650 1500
	1    0    0    -1  
$EndComp
Text Notes 6950 3500 1    50   ~ 0
Analog decoupling for uC
Text Notes 3950 1950 1    50   ~ 0
Digital decoupling for uC
$Comp
L ATMEGA16-A IC301
U 1 1 56B4B293
P 2850 4850
F 0 "IC301" H 1900 6730 50  0000 L BNN
F 1 "ATMEGA16-A" H 3350 2900 50  0000 L BNN
F 2 "Housings_QFP:TQFP-44_10x10mm_Pitch0.8mm" H 2850 4850 50  0000 C CIN
F 3 "" H 2850 4850 50  0000 C CNN
	1    2850 4850
	1    0    0    -1  
$EndComp
$Comp
L C C307
U 1 1 56B4B4DB
P 3300 1250
F 0 "C307" H 3325 1350 50  0000 L CNN
F 1 "100n" H 3325 1150 50  0000 L CNN
F 2 "Capacitors_SMD:C_0603" H 3338 1100 50  0001 C CNN
F 3 "" H 3300 1250 50  0000 C CNN
	1    3300 1250
	1    0    0    -1  
$EndComp
$Comp
L +5VD #PWR0106
U 1 1 56B4B4E1
P 3300 1000
F 0 "#PWR0106" H 3300 850 50  0001 C CNN
F 1 "+5VD" H 3300 1140 50  0000 C CNN
F 2 "" H 3300 1000 50  0000 C CNN
F 3 "" H 3300 1000 50  0000 C CNN
	1    3300 1000
	1    0    0    -1  
$EndComp
$Comp
L GNDD #PWR0107
U 1 1 56B4B4E7
P 3300 1500
F 0 "#PWR0107" H 3300 1250 50  0001 C CNN
F 1 "GNDD" H 3300 1350 50  0000 C CNN
F 2 "" H 3300 1500 50  0000 C CNN
F 3 "" H 3300 1500 50  0000 C CNN
	1    3300 1500
	1    0    0    -1  
$EndComp
Wire Wire Line
	950  3550 1750 3550
Wire Wire Line
	1250 3950 1750 3950
Wire Wire Line
	1250 3950 1250 4050
Wire Wire Line
	950  3550 950  4050
Wire Wire Line
	950  4350 950  4450
Wire Wire Line
	1250 4350 1250 4450
Wire Wire Line
	2550 6850 2550 6950
Wire Wire Line
	2550 6950 2650 6950
Wire Wire Line
	2650 6850 2650 7050
Connection ~ 2650 6950
Wire Wire Line
	2550 2850 2550 2750
Wire Wire Line
	2550 2750 2650 2750
Wire Wire Line
	2650 2650 2650 2850
Connection ~ 2650 2750
Wire Wire Line
	1600 4850 1600 4950
Wire Wire Line
	1600 4350 1600 4550
Wire Wire Line
	1950 2000 1950 2050
Wire Wire Line
	1950 1600 2200 1600
Connection ~ 1950 1600
Wire Wire Line
	1950 750  1950 800 
Wire Wire Line
	1300 1850 1300 2050
Wire Wire Line
	1600 3150 1750 3150
Wire Notes Line
	2650 550  900  550 
Wire Notes Line
	900  550  900  2300
Wire Notes Line
	2650 550  2650 2300
Wire Wire Line
	6650 2550 6650 2650
Wire Wire Line
	6650 2950 6650 3050
Wire Wire Line
	2950 1500 2950 1400
Wire Wire Line
	3650 1500 3650 1400
Wire Wire Line
	3650 1000 3650 1100
Wire Wire Line
	2950 1000 2950 1100
Wire Notes Line
	6400 2100 6400 3550
Wire Notes Line
	6400 3550 7000 3550
Wire Notes Line
	7000 3550 7000 2100
Wire Notes Line
	7000 2100 6400 2100
Wire Notes Line
	2750 550  2750 2000
Wire Notes Line
	2750 2000 4000 2000
Wire Notes Line
	2750 550  4000 550 
Wire Wire Line
	3300 1500 3300 1400
Wire Wire Line
	3300 1000 3300 1100
Wire Notes Line
	4000 550  4000 2000
Wire Wire Line
	2750 2850 2750 2700
Wire Wire Line
	2750 2700 2650 2700
Connection ~ 2650 2700
$Comp
L +5VA #PWR0108
U 1 1 56B4B93A
P 2950 2650
F 0 "#PWR0108" H 2950 2500 50  0001 C CNN
F 1 "+5VA" H 2950 2790 50  0000 C CNN
F 2 "" H 2950 2650 50  0000 C CNN
F 3 "" H 2950 2650 50  0000 C CNN
	1    2950 2650
	1    0    0    -1  
$EndComp
Wire Wire Line
	2950 2650 2950 2850
Wire Wire Line
	2750 6850 2750 7000
Wire Wire Line
	2750 7000 2650 7000
Connection ~ 2650 7000
$Comp
L GNDA #PWR0109
U 1 1 56B4BB6F
P 2950 7050
F 0 "#PWR0109" H 2950 6800 50  0001 C CNN
F 1 "GNDA" H 2950 6900 50  0000 C CNN
F 2 "" H 2950 7050 50  0000 C CNN
F 3 "" H 2950 7050 50  0000 C CNN
	1    2950 7050
	1    0    0    -1  
$EndComp
Wire Wire Line
	2950 6850 2950 7050
Wire Wire Line
	1750 4350 1600 4350
Wire Wire Line
	1500 3600 1500 3550
Connection ~ 1500 3550
Wire Wire Line
	1500 3900 1500 3950
Connection ~ 1500 3950
$Comp
L CONN_02X07 P301
U 1 1 56B4EA18
P 4850 1300
F 0 "P301" H 4850 1700 50  0000 C CNN
F 1 "CONN_02X07" V 4850 1300 50  0000 C CNN
F 2 "Connect:IDC_Header_Straight_14pins" H 4850 100 50  0001 C CNN
F 3 "" H 4850 100 50  0000 C CNN
	1    4850 1300
	1    0    0    -1  
$EndComp
Wire Wire Line
	4550 1000 4600 1000
Wire Wire Line
	4600 1100 4500 1100
Wire Wire Line
	4500 1200 4600 1200
Wire Wire Line
	4600 1300 4500 1300
Wire Wire Line
	4500 1400 4600 1400
Wire Wire Line
	4600 1500 4500 1500
Wire Wire Line
	4500 1600 4600 1600
Wire Wire Line
	5100 1600 5200 1600
Wire Wire Line
	5200 1500 5100 1500
Wire Wire Line
	5100 1400 5200 1400
Wire Wire Line
	5100 1300 5200 1300
Wire Wire Line
	5100 1200 5200 1200
Wire Wire Line
	5200 1100 5100 1100
$Comp
L +5VD #PWR0110
U 1 1 56B4F238
P 5350 850
F 0 "#PWR0110" H 5350 700 50  0001 C CNN
F 1 "+5VD" H 5350 990 50  0000 C CNN
F 2 "" H 5350 850 50  0000 C CNN
F 3 "" H 5350 850 50  0000 C CNN
	1    5350 850 
	1    0    0    -1  
$EndComp
Wire Wire Line
	4550 750  4550 1000
$Comp
L C C309
U 1 1 56B4F3A5
P 5950 1250
F 0 "C309" H 5975 1350 50  0000 L CNN
F 1 "100n" H 5975 1150 50  0000 L CNN
F 2 "Capacitors_SMD:C_0603" H 5988 1100 50  0001 C CNN
F 3 "" H 5950 1250 50  0000 C CNN
	1    5950 1250
	1    0    0    -1  
$EndComp
$Comp
L +5VD #PWR0111
U 1 1 56B4F3AB
P 5950 1000
F 0 "#PWR0111" H 5950 850 50  0001 C CNN
F 1 "+5VD" H 5950 1140 50  0000 C CNN
F 2 "" H 5950 1000 50  0000 C CNN
F 3 "" H 5950 1000 50  0000 C CNN
	1    5950 1000
	1    0    0    -1  
$EndComp
$Comp
L GNDD #PWR0112
U 1 1 56B4F3B1
P 5950 1500
F 0 "#PWR0112" H 5950 1250 50  0001 C CNN
F 1 "GNDD" H 5950 1350 50  0000 C CNN
F 2 "" H 5950 1500 50  0000 C CNN
F 3 "" H 5950 1500 50  0000 C CNN
	1    5950 1500
	1    0    0    -1  
$EndComp
Wire Wire Line
	5950 1500 5950 1400
Wire Wire Line
	5950 1000 5950 1100
Text GLabel 4500 1100 0    50   Input ~ 0
hd_con
Text GLabel 4500 1200 0    50   Input ~ 0
~hd_rw
Text GLabel 4500 1300 0    50   Input ~ 0
hd_db0
Text GLabel 4500 1400 0    50   Input ~ 0
hd_db2
Text GLabel 4500 1500 0    50   Input ~ 0
hd_db4
Text GLabel 4500 1600 0    50   Input ~ 0
hd_db6
Text GLabel 5200 1300 2    50   Input ~ 0
hd_db1
Text GLabel 5200 1400 2    50   Input ~ 0
hd_db3
Text GLabel 5200 1500 2    50   Input ~ 0
hd_db5
Text GLabel 5200 1600 2    50   Input ~ 0
hd_db7
Text GLabel 5200 1200 2    50   Input ~ 0
hd_en
Text GLabel 5200 1100 2    50   Input ~ 0
hd_rs
Wire Notes Line
	4100 550  4100 2000
Wire Notes Line
	4100 2000 6250 2000
Wire Notes Line
	6250 2000 6250 550 
Wire Notes Line
	6250 550  4100 550 
Text Notes 6200 1950 2    50   ~ 0
HD44780 display digital data connector
$Comp
L CONN_01X02 P302
U 1 1 56B4F66C
P 6850 1050
F 0 "P302" H 6850 1200 50  0000 C CNN
F 1 "CONN_01X02" V 6950 900 50  0000 C CNN
F 2 "Pin_Headers:Pin_Header_Straight_1x02" H 6850 1050 50  0001 C CNN
F 3 "" H 6850 1050 50  0000 C CNN
	1    6850 1050
	1    0    0    -1  
$EndComp
$Comp
L CONN_01X02 P303
U 1 1 56B4F6F5
P 7600 850
F 0 "P303" H 7600 1000 50  0000 C CNN
F 1 "CONN_01X02" V 7700 700 50  0000 C CNN
F 2 "Pin_Headers:Pin_Header_Straight_1x02" H 7600 850 50  0001 C CNN
F 3 "" H 7600 850 50  0000 C CNN
	1    7600 850 
	1    0    0    -1  
$EndComp
$Comp
L +5VD #PWR0113
U 1 1 56B4F7F2
P 6500 800
F 0 "#PWR0113" H 6500 650 50  0001 C CNN
F 1 "+5VD" H 6500 940 50  0000 C CNN
F 2 "" H 6500 800 50  0000 C CNN
F 3 "" H 6500 800 50  0000 C CNN
	1    6500 800 
	1    0    0    -1  
$EndComp
Wire Wire Line
	6650 1000 6500 1000
Wire Wire Line
	6500 800  6500 1250
Wire Wire Line
	6500 1100 6650 1100
Connection ~ 6500 1000
Wire Wire Line
	7400 900  7250 900 
Wire Wire Line
	7250 800  7250 1050
Wire Wire Line
	7400 800  7250 800 
Connection ~ 7250 900 
$Comp
L POT RV301
U 1 1 56B4FA8A
P 7250 1200
F 0 "RV301" H 7250 1120 50  0000 C CNN
F 1 "1k" H 7250 1200 50  0000 C CNN
F 2 "Potentiometers:Potentiometer_Alps-RK16-single" H 7250 1200 50  0001 C CNN
F 3 "" H 7250 1200 50  0000 C CNN
	1    7250 1200
	0    1    1    0   
$EndComp
Wire Wire Line
	7400 1200 7450 1200
Wire Wire Line
	7450 1200 7450 1000
Wire Wire Line
	7450 1000 7250 1000
Connection ~ 7250 1000
$Comp
L R R325
U 1 1 56B4FC09
P 7250 1550
F 0 "R325" V 7330 1550 50  0000 C CNN
F 1 "75" V 7250 1550 50  0000 C CNN
F 2 "Resistors_SMD:R_0603" V 7180 1550 50  0001 C CNN
F 3 "" H 7250 1550 50  0000 C CNN
	1    7250 1550
	1    0    0    -1  
$EndComp
$Comp
L GNDD #PWR0114
U 1 1 56B4FDC6
P 7250 1750
F 0 "#PWR0114" H 7250 1500 50  0001 C CNN
F 1 "GNDD" H 7250 1600 50  0000 C CNN
F 2 "" H 7250 1750 50  0000 C CNN
F 3 "" H 7250 1750 50  0000 C CNN
	1    7250 1750
	1    0    0    -1  
$EndComp
Wire Wire Line
	7250 1750 7250 1700
Wire Wire Line
	7250 1400 7250 1350
Wire Notes Line
	6350 550  6350 2000
Wire Notes Line
	6350 2000 8900 2000
$Comp
L CP C310
U 1 1 56B505E6
P 6500 1400
F 0 "C310" H 6525 1500 50  0000 L CNN
F 1 "10u" H 6525 1300 50  0000 L CNN
F 2 "Capacitors_SMD:c_elec_5x5.7" H 6538 1250 50  0001 C CNN
F 3 "" H 6500 1400 50  0000 C CNN
	1    6500 1400
	1    0    0    -1  
$EndComp
Connection ~ 6500 1100
$Comp
L GNDD #PWR0115
U 1 1 56B5070A
P 6500 1750
F 0 "#PWR0115" H 6500 1500 50  0001 C CNN
F 1 "GNDD" H 6500 1600 50  0000 C CNN
F 2 "" H 6500 1750 50  0000 C CNN
F 3 "" H 6500 1750 50  0000 C CNN
	1    6500 1750
	1    0    0    -1  
$EndComp
Wire Wire Line
	6500 1550 6500 1750
Wire Notes Line
	6400 550  8900 550 
Text Notes 8850 1950 1    50   ~ 0
HD44780 backlight brightness \nand contrast adjustment and supply
$Comp
L POT RV302
U 1 1 56B511D0
P 8050 1250
F 0 "RV302" H 8050 1170 50  0000 C CNN
F 1 "10k" H 8050 1250 50  0000 C CNN
F 2 "Potentiometers:Potentiometer_Alps-RK16-single" H 8050 1250 50  0001 C CNN
F 3 "" H 8050 1250 50  0000 C CNN
	1    8050 1250
	0    1    1    0   
$EndComp
$Comp
L GNDD #PWR0116
U 1 1 56B51295
P 8050 1750
F 0 "#PWR0116" H 8050 1500 50  0001 C CNN
F 1 "GNDD" H 8050 1600 50  0000 C CNN
F 2 "" H 8050 1750 50  0000 C CNN
F 3 "" H 8050 1750 50  0000 C CNN
	1    8050 1750
	1    0    0    -1  
$EndComp
$Comp
L +5VD #PWR0117
U 1 1 56B512DF
P 8050 800
F 0 "#PWR0117" H 8050 650 50  0001 C CNN
F 1 "+5VD" H 8050 940 50  0000 C CNN
F 2 "" H 8050 800 50  0000 C CNN
F 3 "" H 8050 800 50  0000 C CNN
	1    8050 800 
	1    0    0    -1  
$EndComp
Wire Wire Line
	8050 1750 8050 1400
Wire Wire Line
	8050 800  8050 1100
Wire Wire Line
	8200 1250 8300 1250
Text GLabel 8300 1250 2    50   Input ~ 0
hd_con
Wire Notes Line
	8900 550  8900 2000
$Comp
L 23LCV1024 U301
U 1 1 56B527ED
P 9900 1100
F 0 "U301" H 9950 1450 50  0000 L CNN
F 1 "23LCV1024" H 9950 750 50  0000 L CNN
F 2 "Housings_SOIC:SOIC-8_3.9x4.9mm_Pitch1.27mm" H 9900 1100 50  0001 C CNN
F 3 "" H 9900 1100 50  0000 C CNN
	1    9900 1100
	1    0    0    -1  
$EndComp
$Comp
L +5VD #PWR0118
U 1 1 56B52928
P 9400 800
F 0 "#PWR0118" H 9400 650 50  0001 C CNN
F 1 "+5VD" H 9400 940 50  0000 C CNN
F 2 "" H 9400 800 50  0000 C CNN
F 3 "" H 9400 800 50  0000 C CNN
	1    9400 800 
	1    0    0    -1  
$EndComp
NoConn ~ 9500 1000
$Comp
L GNDD #PWR0119
U 1 1 56B529A5
P 9400 1400
F 0 "#PWR0119" H 9400 1150 50  0001 C CNN
F 1 "GNDD" H 9400 1250 50  0000 C CNN
F 2 "" H 9400 1400 50  0000 C CNN
F 3 "" H 9400 1400 50  0000 C CNN
	1    9400 1400
	1    0    0    -1  
$EndComp
Wire Wire Line
	9500 1300 9400 1300
Wire Wire Line
	9400 1300 9400 1400
Wire Wire Line
	9500 900  9400 900 
Wire Wire Line
	9400 900  9400 800 
$Comp
L C C313
U 1 1 56B52EB4
P 9150 1100
F 0 "C313" H 9175 1200 50  0000 L CNN
F 1 "100n" H 9175 1000 50  0000 L CNN
F 2 "Capacitors_SMD:C_0603" H 9188 950 50  0001 C CNN
F 3 "" H 9150 1100 50  0000 C CNN
	1    9150 1100
	1    0    0    -1  
$EndComp
$Comp
L +5VD #PWR0120
U 1 1 56B52EBA
P 9150 800
F 0 "#PWR0120" H 9150 650 50  0001 C CNN
F 1 "+5VD" H 9150 940 50  0000 C CNN
F 2 "" H 9150 800 50  0000 C CNN
F 3 "" H 9150 800 50  0000 C CNN
	1    9150 800 
	1    0    0    -1  
$EndComp
$Comp
L GNDD #PWR0121
U 1 1 56B52EC0
P 9150 1400
F 0 "#PWR0121" H 9150 1150 50  0001 C CNN
F 1 "GNDD" H 9150 1250 50  0000 C CNN
F 2 "" H 9150 1400 50  0000 C CNN
F 3 "" H 9150 1400 50  0000 C CNN
	1    9150 1400
	1    0    0    -1  
$EndComp
Wire Wire Line
	9150 1400 9150 1250
Wire Wire Line
	9150 800  9150 950 
Wire Notes Line
	9000 550  11100 550 
Wire Notes Line
	9000 550  9000 2000
Wire Notes Line
	9000 2000 11100 2000
Wire Wire Line
	10300 900  10350 900 
Wire Wire Line
	10300 1100 10350 1100
Wire Wire Line
	10300 1200 10350 1200
Wire Wire Line
	10300 1300 10350 1300
$Comp
L R R334
U 1 1 56B53FC7
P 10900 1000
F 0 "R334" V 10980 1000 50  0000 C CNN
F 1 "10k" V 10900 1000 50  0000 C CNN
F 2 "Resistors_SMD:R_0603" V 10830 1000 50  0001 C CNN
F 3 "" H 10900 1000 50  0000 C CNN
	1    10900 1000
	1    0    0    -1  
$EndComp
$Comp
L +5VD #PWR0122
U 1 1 56B5404E
P 10900 800
F 0 "#PWR0122" H 10900 650 50  0001 C CNN
F 1 "+5VD" H 10900 940 50  0000 C CNN
F 2 "" H 10900 800 50  0000 C CNN
F 3 "" H 10900 800 50  0000 C CNN
	1    10900 800 
	1    0    0    -1  
$EndComp
Wire Wire Line
	10900 800  10900 850 
Text GLabel 10350 900  2    50   Input ~ 0
~uc_cs
Text GLabel 10350 1100 2    50   Input ~ 0
uc_miso
Text GLabel 10350 1200 2    50   Input ~ 0
uc_mosi
Text GLabel 10350 1300 2    50   Input ~ 0
uc_sck
Wire Wire Line
	10900 1150 10900 1250
Text GLabel 10900 1250 3    50   Input ~ 0
~uc_cs
Wire Notes Line
	11100 2000 11100 550 
Text Notes 11050 1950 2    50   ~ 0
128 kB SPI SRAM for sample storage
Text GLabel 4800 4550 2    50   Input ~ 0
uc_mosi
Text GLabel 4800 4650 2    50   Input ~ 0
uc_miso
Text GLabel 4800 4750 2    50   Input ~ 0
uc_sck
Text GLabel 4800 4450 2    50   Input ~ 0
~uc_cs
$Comp
L R R305
U 1 1 56B59854
P 4200 4450
F 0 "R305" V 4280 4450 50  0000 C CNN
F 1 "27" V 4200 4450 50  0000 C CNN
F 2 "Resistors_SMD:R_0603" V 4130 4450 50  0001 C CNN
F 3 "" H 4200 4450 50  0000 C CNN
	1    4200 4450
	0    1    1    0   
$EndComp
$Comp
L R R312
U 1 1 56B59A4D
P 4500 4550
F 0 "R312" V 4580 4550 50  0000 C CNN
F 1 "27" V 4500 4550 50  0000 C CNN
F 2 "Resistors_SMD:R_0603" V 4430 4550 50  0001 C CNN
F 3 "" H 4500 4550 50  0000 C CNN
	1    4500 4550
	0    1    1    0   
$EndComp
$Comp
L R R306
U 1 1 56B59A9D
P 4200 4650
F 0 "R306" V 4280 4650 50  0000 C CNN
F 1 "27" V 4200 4650 50  0000 C CNN
F 2 "Resistors_SMD:R_0603" V 4130 4650 50  0001 C CNN
F 3 "" H 4200 4650 50  0000 C CNN
	1    4200 4650
	0    1    1    0   
$EndComp
$Comp
L R R313
U 1 1 56B59AEC
P 4500 4750
F 0 "R313" V 4580 4750 50  0000 C CNN
F 1 "27" V 4500 4750 50  0000 C CNN
F 2 "Resistors_SMD:R_0603" V 4430 4750 50  0001 C CNN
F 3 "" H 4500 4750 50  0000 C CNN
	1    4500 4750
	0    1    1    0   
$EndComp
Wire Wire Line
	3950 4450 4050 4450
Wire Wire Line
	4350 4450 4800 4450
Wire Wire Line
	4800 4550 4650 4550
Wire Wire Line
	4350 4550 3950 4550
Wire Wire Line
	3950 4650 4050 4650
Wire Wire Line
	4350 4650 4800 4650
Wire Wire Line
	4800 4750 4650 4750
Wire Wire Line
	4350 4750 3950 4750
Wire Wire Line
	3950 5850 4000 5850
Wire Wire Line
	3950 5950 4000 5950
Text GLabel 4000 5850 2    50   Input ~ 0
uart_rxd
Text GLabel 4000 5950 2    50   Input ~ 0
uart_txd
Wire Wire Line
	3950 3150 4000 3150
Text GLabel 4000 3150 2    50   Input ~ 0
adc_in
$Comp
L R R307
U 1 1 56B5C6A2
P 4200 4950
F 0 "R307" V 4280 4950 50  0000 C CNN
F 1 "27" V 4200 4950 50  0000 C CNN
F 2 "Resistors_SMD:R_0603" V 4130 4950 50  0001 C CNN
F 3 "" H 4200 4950 50  0000 C CNN
	1    4200 4950
	0    1    1    0   
$EndComp
$Comp
L R R314
U 1 1 56B5C700
P 4500 5050
F 0 "R314" V 4580 5050 50  0000 C CNN
F 1 "27" V 4500 5050 50  0000 C CNN
F 2 "Resistors_SMD:R_0603" V 4430 5050 50  0001 C CNN
F 3 "" H 4500 5050 50  0000 C CNN
	1    4500 5050
	0    1    1    0   
$EndComp
$Comp
L R R308
U 1 1 56B5C757
P 4200 5150
F 0 "R308" V 4280 5150 50  0000 C CNN
F 1 "27" V 4200 5150 50  0000 C CNN
F 2 "Resistors_SMD:R_0603" V 4130 5150 50  0001 C CNN
F 3 "" H 4200 5150 50  0000 C CNN
	1    4200 5150
	0    1    1    0   
$EndComp
$Comp
L R R315
U 1 1 56B5C7AA
P 4500 5250
F 0 "R315" V 4580 5250 50  0000 C CNN
F 1 "27" V 4500 5250 50  0000 C CNN
F 2 "Resistors_SMD:R_0603" V 4430 5250 50  0001 C CNN
F 3 "" H 4500 5250 50  0000 C CNN
	1    4500 5250
	0    1    1    0   
$EndComp
$Comp
L R R309
U 1 1 56B5C7FD
P 4200 5350
F 0 "R309" V 4280 5350 50  0000 C CNN
F 1 "27" V 4200 5350 50  0000 C CNN
F 2 "Resistors_SMD:R_0603" V 4130 5350 50  0001 C CNN
F 3 "" H 4200 5350 50  0000 C CNN
	1    4200 5350
	0    1    1    0   
$EndComp
$Comp
L R R316
U 1 1 56B5C854
P 4500 5450
F 0 "R316" V 4580 5450 50  0000 C CNN
F 1 "27" V 4500 5450 50  0000 C CNN
F 2 "Resistors_SMD:R_0603" V 4430 5450 50  0001 C CNN
F 3 "" H 4500 5450 50  0000 C CNN
	1    4500 5450
	0    1    1    0   
$EndComp
$Comp
L R R310
U 1 1 56B5C8AB
P 4200 5550
F 0 "R310" V 4280 5550 50  0000 C CNN
F 1 "27" V 4200 5550 50  0000 C CNN
F 2 "Resistors_SMD:R_0603" V 4130 5550 50  0001 C CNN
F 3 "" H 4200 5550 50  0000 C CNN
	1    4200 5550
	0    1    1    0   
$EndComp
$Comp
L R R317
U 1 1 56B5C906
P 4500 5650
F 0 "R317" V 4580 5650 50  0000 C CNN
F 1 "27" V 4500 5650 50  0000 C CNN
F 2 "Resistors_SMD:R_0603" V 4430 5650 50  0001 C CNN
F 3 "" H 4500 5650 50  0000 C CNN
	1    4500 5650
	0    1    1    0   
$EndComp
Text GLabel 4800 4950 2    50   Input ~ 0
hd_db0
Text GLabel 4800 5050 2    50   Input ~ 0
hd_db1
Text GLabel 4800 5150 2    50   Input ~ 0
hd_db2
Text GLabel 4800 5250 2    50   Input ~ 0
hd_db3
Text GLabel 4800 5350 2    50   Input ~ 0
hd_db4
Text GLabel 4800 5450 2    50   Input ~ 0
hd_db5
Text GLabel 4800 5550 2    50   Input ~ 0
hd_db6
Text GLabel 4800 5650 2    50   Input ~ 0
hd_db7
Wire Wire Line
	4050 4950 3950 4950
Wire Wire Line
	3950 5050 4350 5050
Wire Wire Line
	4050 5150 3950 5150
Wire Wire Line
	3950 5350 4050 5350
Wire Wire Line
	4050 5550 3950 5550
Wire Wire Line
	3950 5650 4350 5650
Wire Wire Line
	4350 5450 3950 5450
Wire Wire Line
	3950 5250 4350 5250
Wire Wire Line
	4650 5650 4800 5650
Wire Wire Line
	4800 5450 4650 5450
Wire Wire Line
	4650 5250 4800 5250
Wire Wire Line
	4800 5050 4650 5050
Wire Wire Line
	4350 5150 4800 5150
Wire Wire Line
	4800 5350 4350 5350
Wire Wire Line
	4350 5550 4800 5550
Wire Wire Line
	4350 4950 4800 4950
Wire Wire Line
	3950 6250 4000 6250
Wire Wire Line
	3950 6350 4000 6350
Text GLabel 4000 6250 2    50   Input ~ 0
servo_pwm2
Text GLabel 4000 6350 2    50   Input ~ 0
servo_pwm1
$Comp
L R R303
U 1 1 56B60827
P 4200 4050
F 0 "R303" V 4280 4050 50  0000 C CNN
F 1 "27" V 4200 4050 50  0000 C CNN
F 2 "Resistors_SMD:R_0603" V 4130 4050 50  0001 C CNN
F 3 "" H 4200 4050 50  0000 C CNN
	1    4200 4050
	0    1    1    0   
$EndComp
$Comp
L R R311
U 1 1 56B60895
P 4500 4150
F 0 "R311" V 4580 4150 50  0000 C CNN
F 1 "27" V 4500 4150 50  0000 C CNN
F 2 "Resistors_SMD:R_0603" V 4430 4150 50  0001 C CNN
F 3 "" H 4500 4150 50  0000 C CNN
	1    4500 4150
	0    1    1    0   
$EndComp
$Comp
L R R304
U 1 1 56B608F8
P 4200 4250
F 0 "R304" V 4280 4250 50  0000 C CNN
F 1 "27" V 4200 4250 50  0000 C CNN
F 2 "Resistors_SMD:R_0603" V 4130 4250 50  0001 C CNN
F 3 "" H 4200 4250 50  0000 C CNN
	1    4200 4250
	0    1    1    0   
$EndComp
Wire Wire Line
	3950 4050 4050 4050
Wire Wire Line
	3950 4150 4350 4150
Wire Wire Line
	4050 4250 3950 4250
Wire Wire Line
	4350 4050 4800 4050
Wire Wire Line
	4650 4150 4800 4150
Wire Wire Line
	4800 4250 4350 4250
Text GLabel 4800 4050 2    50   Input ~ 0
~hd_rw
Text GLabel 4800 4150 2    50   Input ~ 0
hd_rs
Text GLabel 4800 4250 2    50   Input ~ 0
hd_en
$Comp
L SW_PUSH SW303
U 1 1 56B6127E
P 8650 2800
F 0 "SW303" H 8800 2910 50  0000 C CNN
F 1 "SW_PUSH" H 8650 2720 50  0000 C CNN
F 2 "Buttons_Switches_SMD:SW_SPST_EVPBF" H 8650 2800 50  0001 C CNN
F 3 "" H 8650 2800 50  0000 C CNN
	1    8650 2800
	1    0    0    -1  
$EndComp
$Comp
L R R329
U 1 1 56B61524
P 8300 3000
F 0 "R329" V 8380 3000 50  0000 C CNN
F 1 "10k" V 8300 3000 50  0000 C CNN
F 2 "Resistors_SMD:R_0603" V 8230 3000 50  0001 C CNN
F 3 "" H 8300 3000 50  0000 C CNN
	1    8300 3000
	1    0    0    -1  
$EndComp
$Comp
L R R328
U 1 1 56B6170C
P 8300 2600
F 0 "R328" V 8380 2600 50  0000 C CNN
F 1 "1k" V 8300 2600 50  0000 C CNN
F 2 "Resistors_SMD:R_0603" V 8230 2600 50  0001 C CNN
F 3 "" H 8300 2600 50  0000 C CNN
	1    8300 2600
	1    0    0    -1  
$EndComp
$Comp
L C C312
U 1 1 56B61801
P 8300 3400
F 0 "C312" H 8325 3500 50  0000 L CNN
F 1 "100n" H 8325 3300 50  0000 L CNN
F 2 "Capacitors_SMD:C_0603" H 8338 3250 50  0001 C CNN
F 3 "" H 8300 3400 50  0000 C CNN
	1    8300 3400
	1    0    0    -1  
$EndComp
$Comp
L GNDD #PWR0123
U 1 1 56B619B1
P 8300 3600
F 0 "#PWR0123" H 8300 3350 50  0001 C CNN
F 1 "GNDD" H 8300 3450 50  0000 C CNN
F 2 "" H 8300 3600 50  0000 C CNN
F 3 "" H 8300 3600 50  0000 C CNN
	1    8300 3600
	1    0    0    -1  
$EndComp
$Comp
L +5VD #PWR0124
U 1 1 56B61AF7
P 8300 2400
F 0 "#PWR0124" H 8300 2250 50  0001 C CNN
F 1 "+5VD" H 8300 2540 50  0000 C CNN
F 2 "" H 8300 2400 50  0000 C CNN
F 3 "" H 8300 2400 50  0000 C CNN
	1    8300 2400
	1    0    0    -1  
$EndComp
Wire Wire Line
	8300 2400 8300 2450
Wire Wire Line
	8300 2750 8300 2850
Wire Wire Line
	8300 3150 8300 3250
Wire Wire Line
	8300 3550 8300 3600
Wire Wire Line
	8350 2800 8300 2800
Connection ~ 8300 2800
$Comp
L GNDD #PWR0125
U 1 1 56B6203E
P 9000 2950
F 0 "#PWR0125" H 9000 2700 50  0001 C CNN
F 1 "GNDD" H 9000 2800 50  0000 C CNN
F 2 "" H 9000 2950 50  0000 C CNN
F 3 "" H 9000 2950 50  0000 C CNN
	1    9000 2950
	1    0    0    -1  
$EndComp
Wire Wire Line
	8950 2800 9000 2800
Wire Wire Line
	9000 2800 9000 2950
Wire Wire Line
	8300 3200 8400 3200
Connection ~ 8300 3200
Text GLabel 8400 3200 2    50   Input ~ 0
~but1
$Comp
L SW_PUSH SW302
U 1 1 56B62926
P 7700 2800
F 0 "SW302" H 7850 2910 50  0000 C CNN
F 1 "SW_PUSH" H 7700 2720 50  0000 C CNN
F 2 "Buttons_Switches_SMD:SW_SPST_EVPBF" H 7700 2800 50  0001 C CNN
F 3 "" H 7700 2800 50  0000 C CNN
	1    7700 2800
	1    0    0    -1  
$EndComp
$Comp
L R R327
U 1 1 56B6292C
P 7350 3000
F 0 "R327" V 7430 3000 50  0000 C CNN
F 1 "10k" V 7350 3000 50  0000 C CNN
F 2 "Resistors_SMD:R_0603" V 7280 3000 50  0001 C CNN
F 3 "" H 7350 3000 50  0000 C CNN
	1    7350 3000
	1    0    0    -1  
$EndComp
$Comp
L R R326
U 1 1 56B62932
P 7350 2600
F 0 "R326" V 7430 2600 50  0000 C CNN
F 1 "1k" V 7350 2600 50  0000 C CNN
F 2 "Resistors_SMD:R_0603" V 7280 2600 50  0001 C CNN
F 3 "" H 7350 2600 50  0000 C CNN
	1    7350 2600
	1    0    0    -1  
$EndComp
$Comp
L C C311
U 1 1 56B62938
P 7350 3400
F 0 "C311" H 7375 3500 50  0000 L CNN
F 1 "100n" H 7375 3300 50  0000 L CNN
F 2 "Capacitors_SMD:C_0603" H 7388 3250 50  0001 C CNN
F 3 "" H 7350 3400 50  0000 C CNN
	1    7350 3400
	1    0    0    -1  
$EndComp
$Comp
L GNDD #PWR0126
U 1 1 56B6293E
P 7350 3600
F 0 "#PWR0126" H 7350 3350 50  0001 C CNN
F 1 "GNDD" H 7350 3450 50  0000 C CNN
F 2 "" H 7350 3600 50  0000 C CNN
F 3 "" H 7350 3600 50  0000 C CNN
	1    7350 3600
	1    0    0    -1  
$EndComp
$Comp
L +5VD #PWR0127
U 1 1 56B62944
P 7350 2400
F 0 "#PWR0127" H 7350 2250 50  0001 C CNN
F 1 "+5VD" H 7350 2540 50  0000 C CNN
F 2 "" H 7350 2400 50  0000 C CNN
F 3 "" H 7350 2400 50  0000 C CNN
	1    7350 2400
	1    0    0    -1  
$EndComp
Wire Wire Line
	7350 2400 7350 2450
Wire Wire Line
	7350 2750 7350 2850
Wire Wire Line
	7350 3150 7350 3250
Wire Wire Line
	7350 3550 7350 3600
Wire Wire Line
	7400 2800 7350 2800
Connection ~ 7350 2800
$Comp
L GNDD #PWR0128
U 1 1 56B62950
P 8050 2950
F 0 "#PWR0128" H 8050 2700 50  0001 C CNN
F 1 "GNDD" H 8050 2800 50  0000 C CNN
F 2 "" H 8050 2950 50  0000 C CNN
F 3 "" H 8050 2950 50  0000 C CNN
	1    8050 2950
	1    0    0    -1  
$EndComp
Wire Wire Line
	8000 2800 8050 2800
Wire Wire Line
	8050 2800 8050 2950
Wire Wire Line
	7350 3200 7450 3200
Connection ~ 7350 3200
Text GLabel 7450 3200 2    50   Input ~ 0
~but0
$Comp
L SW_PUSH SW305
U 1 1 56B63021
P 10550 2800
F 0 "SW305" H 10700 2910 50  0000 C CNN
F 1 "SW_PUSH" H 10550 2720 50  0000 C CNN
F 2 "Buttons_Switches_SMD:SW_SPST_EVPBF" H 10550 2800 50  0001 C CNN
F 3 "" H 10550 2800 50  0000 C CNN
	1    10550 2800
	1    0    0    -1  
$EndComp
$Comp
L R R333
U 1 1 56B63027
P 10200 3000
F 0 "R333" V 10280 3000 50  0000 C CNN
F 1 "10k" V 10200 3000 50  0000 C CNN
F 2 "Resistors_SMD:R_0603" V 10130 3000 50  0001 C CNN
F 3 "" H 10200 3000 50  0000 C CNN
	1    10200 3000
	1    0    0    -1  
$EndComp
$Comp
L R R332
U 1 1 56B6302D
P 10200 2600
F 0 "R332" V 10280 2600 50  0000 C CNN
F 1 "1k" V 10200 2600 50  0000 C CNN
F 2 "Resistors_SMD:R_0603" V 10130 2600 50  0001 C CNN
F 3 "" H 10200 2600 50  0000 C CNN
	1    10200 2600
	1    0    0    -1  
$EndComp
$Comp
L C C315
U 1 1 56B63033
P 10200 3400
F 0 "C315" H 10225 3500 50  0000 L CNN
F 1 "100n" H 10225 3300 50  0000 L CNN
F 2 "Capacitors_SMD:C_0603" H 10238 3250 50  0001 C CNN
F 3 "" H 10200 3400 50  0000 C CNN
	1    10200 3400
	1    0    0    -1  
$EndComp
$Comp
L GNDD #PWR0129
U 1 1 56B63039
P 10200 3600
F 0 "#PWR0129" H 10200 3350 50  0001 C CNN
F 1 "GNDD" H 10200 3450 50  0000 C CNN
F 2 "" H 10200 3600 50  0000 C CNN
F 3 "" H 10200 3600 50  0000 C CNN
	1    10200 3600
	1    0    0    -1  
$EndComp
$Comp
L +5VD #PWR0130
U 1 1 56B6303F
P 10200 2400
F 0 "#PWR0130" H 10200 2250 50  0001 C CNN
F 1 "+5VD" H 10200 2540 50  0000 C CNN
F 2 "" H 10200 2400 50  0000 C CNN
F 3 "" H 10200 2400 50  0000 C CNN
	1    10200 2400
	1    0    0    -1  
$EndComp
Wire Wire Line
	10200 2400 10200 2450
Wire Wire Line
	10200 2750 10200 2850
Wire Wire Line
	10200 3150 10200 3250
Wire Wire Line
	10200 3550 10200 3600
Wire Wire Line
	10250 2800 10200 2800
Connection ~ 10200 2800
$Comp
L GNDD #PWR0131
U 1 1 56B6304B
P 10900 2950
F 0 "#PWR0131" H 10900 2700 50  0001 C CNN
F 1 "GNDD" H 10900 2800 50  0000 C CNN
F 2 "" H 10900 2950 50  0000 C CNN
F 3 "" H 10900 2950 50  0000 C CNN
	1    10900 2950
	1    0    0    -1  
$EndComp
Wire Wire Line
	10850 2800 10900 2800
Wire Wire Line
	10900 2800 10900 2950
Wire Wire Line
	10200 3200 10300 3200
Connection ~ 10200 3200
Text GLabel 10300 3200 2    50   Input ~ 0
~but3
$Comp
L SW_PUSH SW304
U 1 1 56B63056
P 9600 2800
F 0 "SW304" H 9750 2910 50  0000 C CNN
F 1 "SW_PUSH" H 9600 2720 50  0000 C CNN
F 2 "Buttons_Switches_SMD:SW_SPST_EVPBF" H 9600 2800 50  0001 C CNN
F 3 "" H 9600 2800 50  0000 C CNN
	1    9600 2800
	1    0    0    -1  
$EndComp
$Comp
L R R331
U 1 1 56B6305C
P 9250 3000
F 0 "R331" V 9330 3000 50  0000 C CNN
F 1 "10k" V 9250 3000 50  0000 C CNN
F 2 "Resistors_SMD:R_0603" V 9180 3000 50  0001 C CNN
F 3 "" H 9250 3000 50  0000 C CNN
	1    9250 3000
	1    0    0    -1  
$EndComp
$Comp
L R R330
U 1 1 56B63062
P 9250 2600
F 0 "R330" V 9330 2600 50  0000 C CNN
F 1 "1k" V 9250 2600 50  0000 C CNN
F 2 "Resistors_SMD:R_0603" V 9180 2600 50  0001 C CNN
F 3 "" H 9250 2600 50  0000 C CNN
	1    9250 2600
	1    0    0    -1  
$EndComp
$Comp
L C C314
U 1 1 56B63068
P 9250 3400
F 0 "C314" H 9275 3500 50  0000 L CNN
F 1 "100n" H 9275 3300 50  0000 L CNN
F 2 "Capacitors_SMD:C_0603" H 9288 3250 50  0001 C CNN
F 3 "" H 9250 3400 50  0000 C CNN
	1    9250 3400
	1    0    0    -1  
$EndComp
$Comp
L GNDD #PWR0132
U 1 1 56B6306E
P 9250 3600
F 0 "#PWR0132" H 9250 3350 50  0001 C CNN
F 1 "GNDD" H 9250 3450 50  0000 C CNN
F 2 "" H 9250 3600 50  0000 C CNN
F 3 "" H 9250 3600 50  0000 C CNN
	1    9250 3600
	1    0    0    -1  
$EndComp
$Comp
L +5VD #PWR0133
U 1 1 56B63074
P 9250 2400
F 0 "#PWR0133" H 9250 2250 50  0001 C CNN
F 1 "+5VD" H 9250 2540 50  0000 C CNN
F 2 "" H 9250 2400 50  0000 C CNN
F 3 "" H 9250 2400 50  0000 C CNN
	1    9250 2400
	1    0    0    -1  
$EndComp
Wire Wire Line
	9250 2400 9250 2450
Wire Wire Line
	9250 2750 9250 2850
Wire Wire Line
	9250 3150 9250 3250
Wire Wire Line
	9250 3550 9250 3600
Wire Wire Line
	9300 2800 9250 2800
Connection ~ 9250 2800
$Comp
L GNDD #PWR0134
U 1 1 56B63080
P 9950 2950
F 0 "#PWR0134" H 9950 2700 50  0001 C CNN
F 1 "GNDD" H 9950 2800 50  0000 C CNN
F 2 "" H 9950 2950 50  0000 C CNN
F 3 "" H 9950 2950 50  0000 C CNN
	1    9950 2950
	1    0    0    -1  
$EndComp
Wire Wire Line
	9900 2800 9950 2800
Wire Wire Line
	9950 2800 9950 2950
Wire Wire Line
	9250 3200 9350 3200
Connection ~ 9250 3200
Text GLabel 9350 3200 2    50   Input ~ 0
~but2
Wire Notes Line
	7100 2100 7100 4000
Wire Notes Line
	7100 4000 11100 4000
Wire Notes Line
	11100 4000 11100 2100
Wire Notes Line
	11100 2100 7100 2100
Wire Wire Line
	3950 6550 4000 6550
Wire Wire Line
	4000 6450 3950 6450
Wire Wire Line
	3950 6150 4000 6150
Wire Wire Line
	4000 6050 3950 6050
Text GLabel 4000 6050 2    50   Input ~ 0
~but0
Text GLabel 4000 6150 2    50   Input ~ 0
~but1
Text GLabel 4000 6450 2    50   Input ~ 0
~but2
Text GLabel 4000 6550 2    50   Input ~ 0
~but3
Wire Wire Line
	1300 1150 1300 1250
Wire Wire Line
	1950 1100 1950 1200
Wire Wire Line
	1950 1500 1950 1700
Wire Wire Line
	1950 1150 1300 1150
Connection ~ 1950 1150
Wire Notes Line
	2650 2300 900  2300
$Comp
L LED D301
U 1 1 56B4D7FD
P 5850 4650
F 0 "D301" H 5850 4750 50  0000 C CNN
F 1 "LED" H 5850 4550 50  0000 C CNN
F 2 "LEDs:LED-1206" H 5850 4650 50  0001 C CNN
F 3 "" H 5850 4650 50  0000 C CNN
	1    5850 4650
	0    -1   -1   0   
$EndComp
$Comp
L R R318
U 1 1 56B4DEE0
P 5850 5100
F 0 "R318" V 5930 5100 50  0000 C CNN
F 1 "1k4" V 5850 5100 50  0000 C CNN
F 2 "Resistors_SMD:R_0603" V 5780 5100 50  0001 C CNN
F 3 "" H 5850 5100 50  0000 C CNN
	1    5850 5100
	1    0    0    -1  
$EndComp
$Comp
L GNDD #PWR0135
U 1 1 56B4E140
P 5850 6000
F 0 "#PWR0135" H 5850 5750 50  0001 C CNN
F 1 "GNDD" H 5850 5850 50  0000 C CNN
F 2 "" H 5850 6000 50  0000 C CNN
F 3 "" H 5850 6000 50  0000 C CNN
	1    5850 6000
	1    0    0    -1  
$EndComp
Wire Wire Line
	5850 5250 5850 5350
Wire Wire Line
	5850 4950 5850 4850
Wire Wire Line
	5850 4450 5850 4400
$Comp
L LED D302
U 1 1 56B4EFFD
P 6650 4650
F 0 "D302" H 6650 4750 50  0000 C CNN
F 1 "LED" H 6650 4550 50  0000 C CNN
F 2 "LEDs:LED-1206" H 6650 4650 50  0001 C CNN
F 3 "" H 6650 4650 50  0000 C CNN
	1    6650 4650
	0    -1   -1   0   
$EndComp
$Comp
L R R319
U 1 1 56B4F003
P 6650 5100
F 0 "R319" V 6730 5100 50  0000 C CNN
F 1 "1k4" V 6650 5100 50  0000 C CNN
F 2 "Resistors_SMD:R_0603" V 6580 5100 50  0001 C CNN
F 3 "" H 6650 5100 50  0000 C CNN
	1    6650 5100
	1    0    0    -1  
$EndComp
$Comp
L GNDD #PWR0136
U 1 1 56B4F00F
P 6650 6000
F 0 "#PWR0136" H 6650 5750 50  0001 C CNN
F 1 "GNDD" H 6650 5850 50  0000 C CNN
F 2 "" H 6650 6000 50  0000 C CNN
F 3 "" H 6650 6000 50  0000 C CNN
	1    6650 6000
	1    0    0    -1  
$EndComp
Wire Wire Line
	6650 5250 6650 5350
Wire Wire Line
	6650 4950 6650 4850
Wire Wire Line
	6650 4450 6650 4400
Text GLabel 5450 5500 1    50   Input ~ 0
uc_prgrs0
Text GLabel 6250 5500 1    50   Input ~ 0
uc_prgrs1
$Comp
L LED D303
U 1 1 56B503FB
P 7450 4650
F 0 "D303" H 7450 4750 50  0000 C CNN
F 1 "LED" H 7450 4550 50  0000 C CNN
F 2 "LEDs:LED-1206" H 7450 4650 50  0001 C CNN
F 3 "" H 7450 4650 50  0000 C CNN
	1    7450 4650
	0    -1   -1   0   
$EndComp
$Comp
L R R320
U 1 1 56B50401
P 7450 5100
F 0 "R320" V 7530 5100 50  0000 C CNN
F 1 "1k4" V 7450 5100 50  0000 C CNN
F 2 "Resistors_SMD:R_0603" V 7380 5100 50  0001 C CNN
F 3 "" H 7450 5100 50  0000 C CNN
	1    7450 5100
	1    0    0    -1  
$EndComp
$Comp
L GNDD #PWR0137
U 1 1 56B50407
P 7450 6000
F 0 "#PWR0137" H 7450 5750 50  0001 C CNN
F 1 "GNDD" H 7450 5850 50  0000 C CNN
F 2 "" H 7450 6000 50  0000 C CNN
F 3 "" H 7450 6000 50  0000 C CNN
	1    7450 6000
	1    0    0    -1  
$EndComp
Wire Wire Line
	7450 5250 7450 5350
Wire Wire Line
	7450 4950 7450 4850
Wire Wire Line
	7450 4450 7450 4400
$Comp
L LED D304
U 1 1 56B50410
P 8250 4650
F 0 "D304" H 8250 4750 50  0000 C CNN
F 1 "LED" H 8250 4550 50  0000 C CNN
F 2 "LEDs:LED-1206" H 8250 4650 50  0001 C CNN
F 3 "" H 8250 4650 50  0000 C CNN
	1    8250 4650
	0    -1   -1   0   
$EndComp
$Comp
L R R321
U 1 1 56B50416
P 8250 5100
F 0 "R321" V 8330 5100 50  0000 C CNN
F 1 "1k4" V 8250 5100 50  0000 C CNN
F 2 "Resistors_SMD:R_0603" V 8180 5100 50  0001 C CNN
F 3 "" H 8250 5100 50  0000 C CNN
	1    8250 5100
	1    0    0    -1  
$EndComp
$Comp
L GNDD #PWR0138
U 1 1 56B5041C
P 8250 6000
F 0 "#PWR0138" H 8250 5750 50  0001 C CNN
F 1 "GNDD" H 8250 5850 50  0000 C CNN
F 2 "" H 8250 6000 50  0000 C CNN
F 3 "" H 8250 6000 50  0000 C CNN
	1    8250 6000
	1    0    0    -1  
$EndComp
Wire Wire Line
	8250 5250 8250 5350
Wire Wire Line
	8250 4950 8250 4850
Wire Wire Line
	8250 4450 8250 4400
$Comp
L LED D305
U 1 1 56B5058D
P 9050 4650
F 0 "D305" H 9050 4750 50  0000 C CNN
F 1 "LED" H 9050 4550 50  0000 C CNN
F 2 "LEDs:LED-1206" H 9050 4650 50  0001 C CNN
F 3 "" H 9050 4650 50  0000 C CNN
	1    9050 4650
	0    -1   -1   0   
$EndComp
$Comp
L R R322
U 1 1 56B50593
P 9050 5100
F 0 "R322" V 9130 5100 50  0000 C CNN
F 1 "1k4" V 9050 5100 50  0000 C CNN
F 2 "Resistors_SMD:R_0603" V 8980 5100 50  0001 C CNN
F 3 "" H 9050 5100 50  0000 C CNN
	1    9050 5100
	1    0    0    -1  
$EndComp
$Comp
L GNDD #PWR0139
U 1 1 56B50599
P 9050 6000
F 0 "#PWR0139" H 9050 5750 50  0001 C CNN
F 1 "GNDD" H 9050 5850 50  0000 C CNN
F 2 "" H 9050 6000 50  0000 C CNN
F 3 "" H 9050 6000 50  0000 C CNN
	1    9050 6000
	1    0    0    -1  
$EndComp
Wire Wire Line
	9050 5250 9050 5350
Wire Wire Line
	9050 4950 9050 4850
Wire Wire Line
	9050 4450 9050 4400
$Comp
L LED D306
U 1 1 56B505A2
P 9850 4650
F 0 "D306" H 9850 4750 50  0000 C CNN
F 1 "LED" H 9850 4550 50  0000 C CNN
F 2 "LEDs:LED-1206" H 9850 4650 50  0001 C CNN
F 3 "" H 9850 4650 50  0000 C CNN
	1    9850 4650
	0    -1   -1   0   
$EndComp
$Comp
L R R323
U 1 1 56B505A8
P 9850 5100
F 0 "R323" V 9930 5100 50  0000 C CNN
F 1 "1k4" V 9850 5100 50  0000 C CNN
F 2 "Resistors_SMD:R_0603" V 9780 5100 50  0001 C CNN
F 3 "" H 9850 5100 50  0000 C CNN
	1    9850 5100
	1    0    0    -1  
$EndComp
$Comp
L GNDD #PWR0140
U 1 1 56B505AE
P 9850 6000
F 0 "#PWR0140" H 9850 5750 50  0001 C CNN
F 1 "GNDD" H 9850 5850 50  0000 C CNN
F 2 "" H 9850 6000 50  0000 C CNN
F 3 "" H 9850 6000 50  0000 C CNN
	1    9850 6000
	1    0    0    -1  
$EndComp
Wire Wire Line
	9850 5250 9850 5350
Wire Wire Line
	9850 4950 9850 4850
Wire Wire Line
	9850 4450 9850 4400
$Comp
L LED D307
U 1 1 56B505B7
P 10650 4650
F 0 "D307" H 10650 4750 50  0000 C CNN
F 1 "LED" H 10650 4550 50  0000 C CNN
F 2 "LEDs:LED-1206" H 10650 4650 50  0001 C CNN
F 3 "" H 10650 4650 50  0000 C CNN
	1    10650 4650
	0    -1   -1   0   
$EndComp
$Comp
L R R324
U 1 1 56B505BD
P 10650 5100
F 0 "R324" V 10730 5100 50  0000 C CNN
F 1 "1k4" V 10650 5100 50  0000 C CNN
F 2 "Resistors_SMD:R_0603" V 10580 5100 50  0001 C CNN
F 3 "" H 10650 5100 50  0000 C CNN
	1    10650 5100
	1    0    0    -1  
$EndComp
$Comp
L GNDD #PWR0141
U 1 1 56B505C3
P 10650 6000
F 0 "#PWR0141" H 10650 5750 50  0001 C CNN
F 1 "GNDD" H 10650 5850 50  0000 C CNN
F 2 "" H 10650 6000 50  0000 C CNN
F 3 "" H 10650 6000 50  0000 C CNN
	1    10650 6000
	1    0    0    -1  
$EndComp
Wire Wire Line
	10650 5250 10650 5350
Wire Wire Line
	10650 4950 10650 4850
Wire Wire Line
	10650 4450 10650 4400
Text GLabel 7050 5500 1    50   Input ~ 0
uc_prgrs2
Text GLabel 7850 5500 1    50   Input ~ 0
uc_prgrs3
Text GLabel 8650 5500 1    50   Input ~ 0
uc_prgrs4
Text GLabel 9450 5500 1    50   Input ~ 0
uc_prgrs5
Text GLabel 10250 5500 1    50   Input ~ 0
uc_prgrs6
Wire Notes Line
	11100 4100 11100 6300
Wire Notes Line
	5600 4100 11100 4100
Text Notes 11000 6250 2    50   ~ 0
Progressbar
Wire Wire Line
	3950 3250 4000 3250
Wire Wire Line
	3950 3350 4000 3350
Wire Wire Line
	3950 3450 4000 3450
Wire Wire Line
	3950 3550 4000 3550
Wire Wire Line
	3950 3650 4000 3650
Wire Wire Line
	3950 3750 4000 3750
Wire Wire Line
	3950 3850 4000 3850
Text GLabel 4000 3250 2    50   Input ~ 0
uc_prgrs0
Text GLabel 4000 3350 2    50   Input ~ 0
uc_prgrs1
Text GLabel 4000 3450 2    50   Input ~ 0
uc_prgrs2
Text GLabel 4000 3550 2    50   Input ~ 0
uc_prgrs3
Text GLabel 4000 3650 2    50   Input ~ 0
uc_prgrs4
Text GLabel 4000 3750 2    50   Input ~ 0
uc_prgrs5
Text GLabel 4000 3850 2    50   Input ~ 0
uc_prgrs6
Wire Wire Line
	3950 4350 4800 4350
Text GLabel 4800 4350 2    50   Input ~ 0
servos_power_on
Wire Wire Line
	5100 1000 5350 1000
Wire Wire Line
	5350 1000 5350 850 
$Comp
L GNDD #PWR0142
U 1 1 56B77C86
P 4250 850
F 0 "#PWR0142" H 4250 600 50  0001 C CNN
F 1 "GNDD" H 4250 700 50  0000 C CNN
F 2 "" H 4250 850 50  0000 C CNN
F 3 "" H 4250 850 50  0000 C CNN
	1    4250 850 
	1    0    0    -1  
$EndComp
Wire Wire Line
	4550 750  4250 750 
Wire Wire Line
	4250 750  4250 850 
$Comp
L Crystal Y301
U 1 1 56BA5014
P 1500 3750
F 0 "Y301" H 1500 3900 50  0000 C CNN
F 1 "Crystal" H 1500 3600 50  0000 C CNN
F 2 "Crystals:Crystal_HC49-SD_SMD" H 1500 3750 50  0001 C CNN
F 3 "" H 1500 3750 50  0000 C CNN
	1    1500 3750
	0    1    1    0   
$EndComp
$Comp
L +5VD #PWR0143
U 1 1 56BF734D
P 5850 4400
F 0 "#PWR0143" H 5850 4250 50  0001 C CNN
F 1 "+5VD" H 5850 4540 50  0000 C CNN
F 2 "" H 5850 4400 50  0000 C CNN
F 3 "" H 5850 4400 50  0000 C CNN
	1    5850 4400
	1    0    0    -1  
$EndComp
$Comp
L +5VD #PWR0144
U 1 1 56BF7832
P 6650 4400
F 0 "#PWR0144" H 6650 4250 50  0001 C CNN
F 1 "+5VD" H 6650 4540 50  0000 C CNN
F 2 "" H 6650 4400 50  0000 C CNN
F 3 "" H 6650 4400 50  0000 C CNN
	1    6650 4400
	1    0    0    -1  
$EndComp
$Comp
L +5VD #PWR0145
U 1 1 56BF790C
P 7450 4400
F 0 "#PWR0145" H 7450 4250 50  0001 C CNN
F 1 "+5VD" H 7450 4540 50  0000 C CNN
F 2 "" H 7450 4400 50  0000 C CNN
F 3 "" H 7450 4400 50  0000 C CNN
	1    7450 4400
	1    0    0    -1  
$EndComp
$Comp
L +5VD #PWR0146
U 1 1 56BF7A2B
P 8250 4400
F 0 "#PWR0146" H 8250 4250 50  0001 C CNN
F 1 "+5VD" H 8250 4540 50  0000 C CNN
F 2 "" H 8250 4400 50  0000 C CNN
F 3 "" H 8250 4400 50  0000 C CNN
	1    8250 4400
	1    0    0    -1  
$EndComp
$Comp
L +5VD #PWR0147
U 1 1 56BF8508
P 9050 4400
F 0 "#PWR0147" H 9050 4250 50  0001 C CNN
F 1 "+5VD" H 9050 4540 50  0000 C CNN
F 2 "" H 9050 4400 50  0000 C CNN
F 3 "" H 9050 4400 50  0000 C CNN
	1    9050 4400
	1    0    0    -1  
$EndComp
$Comp
L +5VD #PWR0148
U 1 1 56BF85E2
P 9850 4400
F 0 "#PWR0148" H 9850 4250 50  0001 C CNN
F 1 "+5VD" H 9850 4540 50  0000 C CNN
F 2 "" H 9850 4400 50  0000 C CNN
F 3 "" H 9850 4400 50  0000 C CNN
	1    9850 4400
	1    0    0    -1  
$EndComp
$Comp
L +5VD #PWR0149
U 1 1 56BF86BC
P 10650 4400
F 0 "#PWR0149" H 10650 4250 50  0001 C CNN
F 1 "+5VD" H 10650 4540 50  0000 C CNN
F 2 "" H 10650 4400 50  0000 C CNN
F 3 "" H 10650 4400 50  0000 C CNN
	1    10650 4400
	1    0    0    -1  
$EndComp
$Comp
L Q_NMOS_GSD Q301
U 1 1 56BF9630
P 5750 5550
F 0 "Q301" H 5950 5600 50  0000 L CNN
F 1 "BST82" H 5950 5500 50  0000 L CNN
F 2 "TO_SOT_Packages_SMD:SOT-23" H 5950 5650 50  0001 C CNN
F 3 "" H 5750 5550 50  0000 C CNN
	1    5750 5550
	1    0    0    -1  
$EndComp
Wire Wire Line
	5850 6000 5850 5750
$Comp
L Q_NMOS_GSD Q302
U 1 1 56BFB3DE
P 6550 5550
F 0 "Q302" H 6750 5600 50  0000 L CNN
F 1 "BST82" H 6750 5500 50  0000 L CNN
F 2 "TO_SOT_Packages_SMD:SOT-23" H 6750 5650 50  0001 C CNN
F 3 "" H 6550 5550 50  0000 C CNN
	1    6550 5550
	1    0    0    -1  
$EndComp
Wire Wire Line
	6650 5750 6650 6000
Wire Wire Line
	6350 5550 6250 5550
Wire Wire Line
	5550 5550 5450 5550
$Comp
L Q_NMOS_GSD Q303
U 1 1 56BFB97F
P 7350 5550
F 0 "Q303" H 7550 5600 50  0000 L CNN
F 1 "BST82" H 7550 5500 50  0000 L CNN
F 2 "TO_SOT_Packages_SMD:SOT-23" H 7550 5650 50  0001 C CNN
F 3 "" H 7350 5550 50  0000 C CNN
	1    7350 5550
	1    0    0    -1  
$EndComp
Wire Wire Line
	7450 5750 7450 6000
Wire Wire Line
	7050 5550 7150 5550
Wire Wire Line
	6250 5500 6250 5600
Wire Wire Line
	5450 5500 5450 5600
Wire Wire Line
	7050 5500 7050 5600
$Comp
L Q_NMOS_GSD Q304
U 1 1 56BFD987
P 8150 5550
F 0 "Q304" H 8350 5600 50  0000 L CNN
F 1 "BST82" H 8350 5500 50  0000 L CNN
F 2 "TO_SOT_Packages_SMD:SOT-23" H 8350 5650 50  0001 C CNN
F 3 "" H 8150 5550 50  0000 C CNN
	1    8150 5550
	1    0    0    -1  
$EndComp
Wire Wire Line
	7950 5550 7850 5550
Wire Wire Line
	7850 5500 7850 5600
Wire Wire Line
	8250 6000 8250 5750
$Comp
L Q_NMOS_GSD Q305
U 1 1 56BFE357
P 8950 5550
F 0 "Q305" H 9150 5600 50  0000 L CNN
F 1 "BST82" H 9150 5500 50  0000 L CNN
F 2 "TO_SOT_Packages_SMD:SOT-23" H 9150 5650 50  0001 C CNN
F 3 "" H 8950 5550 50  0000 C CNN
	1    8950 5550
	1    0    0    -1  
$EndComp
Wire Wire Line
	9050 6000 9050 5750
Wire Wire Line
	8750 5550 8650 5550
Wire Wire Line
	8650 5500 8650 5600
$Comp
L Q_NMOS_GSD Q306
U 1 1 56BFF071
P 9750 5550
F 0 "Q306" H 9950 5600 50  0000 L CNN
F 1 "BST82" H 9950 5500 50  0000 L CNN
F 2 "TO_SOT_Packages_SMD:SOT-23" H 9950 5650 50  0001 C CNN
F 3 "" H 9750 5550 50  0000 C CNN
	1    9750 5550
	1    0    0    -1  
$EndComp
Wire Wire Line
	9850 5750 9850 6000
Wire Wire Line
	9550 5550 9450 5550
Wire Wire Line
	9450 5500 9450 5600
$Comp
L Q_NMOS_GSD Q307
U 1 1 56BFFAA1
P 10550 5550
F 0 "Q307" H 10750 5600 50  0000 L CNN
F 1 "BST82" H 10750 5500 50  0000 L CNN
F 2 "TO_SOT_Packages_SMD:SOT-23" H 10750 5650 50  0001 C CNN
F 3 "" H 10550 5550 50  0000 C CNN
	1    10550 5550
	1    0    0    -1  
$EndComp
Wire Wire Line
	10650 5750 10650 6000
Wire Wire Line
	10350 5550 10250 5550
Wire Wire Line
	10250 5500 10250 5600
Wire Notes Line
	5600 4100 5600 5000
Wire Notes Line
	5600 5000 5300 5000
Wire Notes Line
	5300 5000 5300 6300
Wire Notes Line
	5300 6300 11100 6300
$Comp
L R R335
U 1 1 56C01CE8
P 5450 5750
F 0 "R335" V 5530 5750 50  0000 C CNN
F 1 "10k" V 5450 5750 50  0000 C CNN
F 2 "Resistors_SMD:R_0603" V 5380 5750 50  0001 C CNN
F 3 "" H 5450 5750 50  0000 C CNN
	1    5450 5750
	1    0    0    -1  
$EndComp
$Comp
L GNDD #PWR0150
U 1 1 56C023CC
P 5450 6000
F 0 "#PWR0150" H 5450 5750 50  0001 C CNN
F 1 "GNDD" H 5450 5850 50  0000 C CNN
F 2 "" H 5450 6000 50  0000 C CNN
F 3 "" H 5450 6000 50  0000 C CNN
	1    5450 6000
	1    0    0    -1  
$EndComp
Wire Wire Line
	5450 5900 5450 6000
Connection ~ 5450 5550
$Comp
L R R336
U 1 1 56C029C5
P 6250 5750
F 0 "R336" V 6330 5750 50  0000 C CNN
F 1 "10k" V 6250 5750 50  0000 C CNN
F 2 "Resistors_SMD:R_0603" V 6180 5750 50  0001 C CNN
F 3 "" H 6250 5750 50  0000 C CNN
	1    6250 5750
	1    0    0    -1  
$EndComp
$Comp
L GNDD #PWR0151
U 1 1 56C029CC
P 6250 6000
F 0 "#PWR0151" H 6250 5750 50  0001 C CNN
F 1 "GNDD" H 6250 5850 50  0000 C CNN
F 2 "" H 6250 6000 50  0000 C CNN
F 3 "" H 6250 6000 50  0000 C CNN
	1    6250 6000
	1    0    0    -1  
$EndComp
Wire Wire Line
	6250 5900 6250 6000
Connection ~ 6250 5550
$Comp
L R R337
U 1 1 56C02BC1
P 7050 5750
F 0 "R337" V 7130 5750 50  0000 C CNN
F 1 "10k" V 7050 5750 50  0000 C CNN
F 2 "Resistors_SMD:R_0603" V 6980 5750 50  0001 C CNN
F 3 "" H 7050 5750 50  0000 C CNN
	1    7050 5750
	1    0    0    -1  
$EndComp
$Comp
L GNDD #PWR0152
U 1 1 56C02BC8
P 7050 6000
F 0 "#PWR0152" H 7050 5750 50  0001 C CNN
F 1 "GNDD" H 7050 5850 50  0000 C CNN
F 2 "" H 7050 6000 50  0000 C CNN
F 3 "" H 7050 6000 50  0000 C CNN
	1    7050 6000
	1    0    0    -1  
$EndComp
Wire Wire Line
	7050 5900 7050 6000
Connection ~ 7050 5550
$Comp
L R R338
U 1 1 56C03783
P 7850 5750
F 0 "R338" V 7930 5750 50  0000 C CNN
F 1 "10k" V 7850 5750 50  0000 C CNN
F 2 "Resistors_SMD:R_0603" V 7780 5750 50  0001 C CNN
F 3 "" H 7850 5750 50  0000 C CNN
	1    7850 5750
	1    0    0    -1  
$EndComp
$Comp
L GNDD #PWR0153
U 1 1 56C0378A
P 7850 6000
F 0 "#PWR0153" H 7850 5750 50  0001 C CNN
F 1 "GNDD" H 7850 5850 50  0000 C CNN
F 2 "" H 7850 6000 50  0000 C CNN
F 3 "" H 7850 6000 50  0000 C CNN
	1    7850 6000
	1    0    0    -1  
$EndComp
Wire Wire Line
	7850 5900 7850 6000
Connection ~ 7850 5550
$Comp
L R R339
U 1 1 56C03973
P 8650 5750
F 0 "R339" V 8730 5750 50  0000 C CNN
F 1 "10k" V 8650 5750 50  0000 C CNN
F 2 "Resistors_SMD:R_0603" V 8580 5750 50  0001 C CNN
F 3 "" H 8650 5750 50  0000 C CNN
	1    8650 5750
	1    0    0    -1  
$EndComp
$Comp
L GNDD #PWR0154
U 1 1 56C0397A
P 8650 6000
F 0 "#PWR0154" H 8650 5750 50  0001 C CNN
F 1 "GNDD" H 8650 5850 50  0000 C CNN
F 2 "" H 8650 6000 50  0000 C CNN
F 3 "" H 8650 6000 50  0000 C CNN
	1    8650 6000
	1    0    0    -1  
$EndComp
Wire Wire Line
	8650 5900 8650 6000
Connection ~ 8650 5550
$Comp
L R R340
U 1 1 56C0443F
P 9450 5750
F 0 "R340" V 9530 5750 50  0000 C CNN
F 1 "10k" V 9450 5750 50  0000 C CNN
F 2 "Resistors_SMD:R_0603" V 9380 5750 50  0001 C CNN
F 3 "" H 9450 5750 50  0000 C CNN
	1    9450 5750
	1    0    0    -1  
$EndComp
$Comp
L GNDD #PWR0155
U 1 1 56C04446
P 9450 6000
F 0 "#PWR0155" H 9450 5750 50  0001 C CNN
F 1 "GNDD" H 9450 5850 50  0000 C CNN
F 2 "" H 9450 6000 50  0000 C CNN
F 3 "" H 9450 6000 50  0000 C CNN
	1    9450 6000
	1    0    0    -1  
$EndComp
Wire Wire Line
	9450 5900 9450 6000
$Comp
L R R341
U 1 1 56C04748
P 10250 5750
F 0 "R341" V 10330 5750 50  0000 C CNN
F 1 "10k" V 10250 5750 50  0000 C CNN
F 2 "Resistors_SMD:R_0603" V 10180 5750 50  0001 C CNN
F 3 "" H 10250 5750 50  0000 C CNN
	1    10250 5750
	1    0    0    -1  
$EndComp
$Comp
L GNDD #PWR0156
U 1 1 56C0474F
P 10250 6000
F 0 "#PWR0156" H 10250 5750 50  0001 C CNN
F 1 "GNDD" H 10250 5850 50  0000 C CNN
F 2 "" H 10250 6000 50  0000 C CNN
F 3 "" H 10250 6000 50  0000 C CNN
	1    10250 6000
	1    0    0    -1  
$EndComp
Wire Wire Line
	10250 5900 10250 6000
Connection ~ 10250 5550
Connection ~ 9450 5550
$EndSCHEMATC
