EESchema Schematic File Version 2
LIBS:74xgxx
LIBS:74xx
LIBS:ac-dc
LIBS:actel
LIBS:adc-dac
LIBS:Altera
LIBS:analog_devices
LIBS:analog_switches
LIBS:atmel
LIBS:audio
LIBS:brooktre
LIBS:cmos4000
LIBS:cmos_ieee
LIBS:conn
LIBS:contrib
LIBS:cypress
LIBS:dc-dc
LIBS:device
LIBS:digital-audio
LIBS:diode
LIBS:display
LIBS:dsp
LIBS:elec-unifil
LIBS:ESD_Protection
LIBS:ftdi
LIBS:gennum
LIBS:graphic
LIBS:hc11
LIBS:intel
LIBS:interface
LIBS:ir
LIBS:Lattice
LIBS:linear
LIBS:logo
LIBS:maxim
LIBS:memory
LIBS:microchip
LIBS:microchip_dspic33dsc
LIBS:microchip_pic10mcu
LIBS:microchip_pic12mcu
LIBS:microchip_pic16mcu
LIBS:microchip_pic18mcu
LIBS:microchip_pic32mcu
LIBS:microcontrollers
LIBS:motor_drivers
LIBS:motorola
LIBS:msp430
LIBS:nordicsemi
LIBS:nxp_armmcu
LIBS:onsemi
LIBS:opto
LIBS:Oscillators
LIBS:philips
LIBS:power
LIBS:powerint
LIBS:Power_Management
LIBS:pspice
LIBS:references
LIBS:regul
LIBS:relays
LIBS:rfcom
LIBS:sensors
LIBS:silabs
LIBS:siliconi
LIBS:stm8
LIBS:stm32
LIBS:supertex
LIBS:switches
LIBS:texas
LIBS:transf
LIBS:transistors
LIBS:ttl_ieee
LIBS:valves
LIBS:video
LIBS:Xicor
LIBS:xilinx
LIBS:Zilog
LIBS:szpejo_revB-cache
EELAYER 25 0
EELAYER END
$Descr A4 11693 8268
encoding utf-8
Sheet 2 3
Title "Szpejo 3000"
Date "2016-02-13"
Rev "B"
Comp ""
Comment1 ""
Comment2 ""
Comment3 ""
Comment4 ""
$EndDescr
Text Notes 2400 2050 2    60   ~ 0
DC power brick jack
$Comp
L +9V #PWR01
U 1 1 56B476DB
P 850 5450
F 0 "#PWR01" H 850 5300 50  0001 C CNN
F 1 "+9V" H 850 5590 50  0000 C CNN
F 2 "" H 850 5450 50  0000 C CNN
F 3 "" H 850 5450 50  0000 C CNN
	1    850  5450
	1    0    0    -1  
$EndComp
Text Notes 5300 6800 2    60   ~ 0
Servos power converter
Text Notes 1900 6800 0    60   ~ 0
90% eff for servo load\nwhich means < 0.3 W\npower dissipation
Text Notes 5550 5650 3    60   ~ 0
10 mA idle load
Text Notes 3000 3400 2    60   ~ 0
Digital power
Text Notes 5300 2050 2    60   ~ 0
Servos control and power
Text Notes 4600 3600 2    60   ~ 0
Power indication LEDs
NoConn ~ 4900 4050
$Comp
L GNDPWR #PWR02
U 1 1 56B478E3
P 5500 4400
F 0 "#PWR02" H 5500 4200 50  0001 C CNN
F 1 "GNDPWR" H 5500 4270 50  0000 C CNN
F 2 "" H 5500 4350 50  0000 C CNN
F 3 "" H 5500 4350 50  0000 C CNN
	1    5500 4400
	1    0    0    -1  
$EndComp
NoConn ~ 8200 1000
Text Notes 10950 3500 2    60   ~ 0
Phototransistor switch and divider selection
$Comp
L GNDA #PWR03
U 1 1 56B47937
P 9850 2600
F 0 "#PWR03" H 9850 2350 50  0001 C CNN
F 1 "GNDA" H 9850 2450 50  0000 C CNN
F 2 "" H 9850 2600 50  0000 C CNN
F 3 "" H 9850 2600 50  0000 C CNN
	1    9850 2600
	1    0    0    -1  
$EndComp
$Comp
L +5VA #PWR04
U 1 1 56B4793D
P 9850 1800
F 0 "#PWR04" H 9850 1650 50  0001 C CNN
F 1 "+5VA" H 9850 1940 50  0000 C CNN
F 2 "" H 9850 1800 50  0000 C CNN
F 3 "" H 9850 1800 50  0000 C CNN
	1    9850 1800
	1    0    0    -1  
$EndComp
NoConn ~ 9250 4700
NoConn ~ 9250 4800
NoConn ~ 9250 4900
NoConn ~ 9250 5000
$Comp
L +5VD #PWR05
U 1 1 56B479CA
P 10600 5150
F 0 "#PWR05" H 10600 5000 50  0001 C CNN
F 1 "+5VD" H 10600 5290 50  0000 C CNN
F 2 "" H 10600 5150 50  0000 C CNN
F 3 "" H 10600 5150 50  0000 C CNN
	1    10600 5150
	1    0    0    -1  
$EndComp
$Comp
L +5VD #PWR06
U 1 1 56B479D0
P 10850 5150
F 0 "#PWR06" H 10850 5000 50  0001 C CNN
F 1 "+5VD" H 10850 5290 50  0000 C CNN
F 2 "" H 10850 5150 50  0000 C CNN
F 3 "" H 10850 5150 50  0000 C CNN
	1    10850 5150
	1    0    0    -1  
$EndComp
NoConn ~ 7650 5200
NoConn ~ 7650 5400
NoConn ~ 9250 5700
NoConn ~ 9250 5600
NoConn ~ 9250 5500
Text Notes 10950 6350 2    50   ~ 0
USB -> RS232 converter (virtual COM port)
Text Notes 7000 3500 2    50   ~ 0
Ground filtering
Text Notes 2400 2050 2    60   ~ 0
DC power brick jack
$Comp
L +9V #PWR07
U 1 1 56B47BC9
P 850 5450
F 0 "#PWR07" H 850 5300 50  0001 C CNN
F 1 "+9V" H 850 5590 50  0000 C CNN
F 2 "" H 850 5450 50  0000 C CNN
F 3 "" H 850 5450 50  0000 C CNN
	1    850  5450
	1    0    0    -1  
$EndComp
Text Notes 5300 6800 2    60   ~ 0
Servos power converter
Text Notes 1900 6800 0    60   ~ 0
90% eff for servo load\nwhich means < 0.3 W\npower dissipation
Text Notes 5550 5650 3    60   ~ 0
10 mA idle load
Text Notes 3000 3400 2    60   ~ 0
Digital power
Text Notes 5300 2050 2    60   ~ 0
Servos control and power
Text Notes 4600 3600 2    60   ~ 0
Power indication LEDs
NoConn ~ 4900 4050
$Comp
L GNDPWR #PWR08
U 1 1 56B47DD1
P 5500 4400
F 0 "#PWR08" H 5500 4200 50  0001 C CNN
F 1 "GNDPWR" H 5500 4270 50  0000 C CNN
F 2 "" H 5500 4350 50  0000 C CNN
F 3 "" H 5500 4350 50  0000 C CNN
	1    5500 4400
	1    0    0    -1  
$EndComp
NoConn ~ 8200 1000
Text Notes 10950 3500 2    60   ~ 0
Phototransistor switch and divider selection
$Comp
L GNDA #PWR09
U 1 1 56B47E25
P 9850 2600
F 0 "#PWR09" H 9850 2350 50  0001 C CNN
F 1 "GNDA" H 9850 2450 50  0000 C CNN
F 2 "" H 9850 2600 50  0000 C CNN
F 3 "" H 9850 2600 50  0000 C CNN
	1    9850 2600
	1    0    0    -1  
$EndComp
$Comp
L +5VA #PWR010
U 1 1 56B47E2B
P 9850 1800
F 0 "#PWR010" H 9850 1650 50  0001 C CNN
F 1 "+5VA" H 9850 1940 50  0000 C CNN
F 2 "" H 9850 1800 50  0000 C CNN
F 3 "" H 9850 1800 50  0000 C CNN
	1    9850 1800
	1    0    0    -1  
$EndComp
NoConn ~ 9250 4700
NoConn ~ 9250 4800
NoConn ~ 9250 4900
NoConn ~ 9250 5000
$Comp
L +5VD #PWR011
U 1 1 56B47EB8
P 10600 5150
F 0 "#PWR011" H 10600 5000 50  0001 C CNN
F 1 "+5VD" H 10600 5290 50  0000 C CNN
F 2 "" H 10600 5150 50  0000 C CNN
F 3 "" H 10600 5150 50  0000 C CNN
	1    10600 5150
	1    0    0    -1  
$EndComp
$Comp
L +5VD #PWR012
U 1 1 56B47EBE
P 10850 5150
F 0 "#PWR012" H 10850 5000 50  0001 C CNN
F 1 "+5VD" H 10850 5290 50  0000 C CNN
F 2 "" H 10850 5150 50  0000 C CNN
F 3 "" H 10850 5150 50  0000 C CNN
	1    10850 5150
	1    0    0    -1  
$EndComp
NoConn ~ 7650 5200
NoConn ~ 7650 5400
NoConn ~ 9250 5700
NoConn ~ 9250 5600
NoConn ~ 9250 5500
Text Notes 10950 6350 2    50   ~ 0
USB -> RS232 converter (virtual COM port)
Text Notes 7000 3500 2    50   ~ 0
Ground filtering
Text Notes 2400 2050 2    60   ~ 0
DC power brick jack
$Comp
L +9V #PWR013
U 1 1 56B47F75
P 850 5450
F 0 "#PWR013" H 850 5300 50  0001 C CNN
F 1 "+9V" H 850 5590 50  0000 C CNN
F 2 "" H 850 5450 50  0000 C CNN
F 3 "" H 850 5450 50  0000 C CNN
	1    850  5450
	1    0    0    -1  
$EndComp
Text Notes 5300 6800 2    60   ~ 0
Servos power converter
Text Notes 1900 6800 0    60   ~ 0
90% eff for servo load\nwhich means < 0.3 W\npower dissipation
Text Notes 5550 5650 3    60   ~ 0
10 mA idle load
Text Notes 3000 3400 2    60   ~ 0
Digital power
Text Notes 5300 2050 2    60   ~ 0
Servos control and power
Text Notes 4600 3600 2    60   ~ 0
Power indication LEDs
NoConn ~ 4900 4050
$Comp
L GNDPWR #PWR014
U 1 1 56B4817D
P 5500 4400
F 0 "#PWR014" H 5500 4200 50  0001 C CNN
F 1 "GNDPWR" H 5500 4270 50  0000 C CNN
F 2 "" H 5500 4350 50  0000 C CNN
F 3 "" H 5500 4350 50  0000 C CNN
	1    5500 4400
	1    0    0    -1  
$EndComp
NoConn ~ 8200 1000
Text Notes 10950 3500 2    60   ~ 0
Phototransistor switch and divider selection
$Comp
L GNDA #PWR015
U 1 1 56B481D1
P 9850 2600
F 0 "#PWR015" H 9850 2350 50  0001 C CNN
F 1 "GNDA" H 9850 2450 50  0000 C CNN
F 2 "" H 9850 2600 50  0000 C CNN
F 3 "" H 9850 2600 50  0000 C CNN
	1    9850 2600
	1    0    0    -1  
$EndComp
$Comp
L +5VA #PWR016
U 1 1 56B481D7
P 9850 1800
F 0 "#PWR016" H 9850 1650 50  0001 C CNN
F 1 "+5VA" H 9850 1940 50  0000 C CNN
F 2 "" H 9850 1800 50  0000 C CNN
F 3 "" H 9850 1800 50  0000 C CNN
	1    9850 1800
	1    0    0    -1  
$EndComp
NoConn ~ 9250 4700
NoConn ~ 9250 4800
NoConn ~ 9250 4900
NoConn ~ 9250 5000
$Comp
L +5VD #PWR017
U 1 1 56B48264
P 10600 5150
F 0 "#PWR017" H 10600 5000 50  0001 C CNN
F 1 "+5VD" H 10600 5290 50  0000 C CNN
F 2 "" H 10600 5150 50  0000 C CNN
F 3 "" H 10600 5150 50  0000 C CNN
	1    10600 5150
	1    0    0    -1  
$EndComp
$Comp
L +5VD #PWR018
U 1 1 56B4826A
P 10850 5150
F 0 "#PWR018" H 10850 5000 50  0001 C CNN
F 1 "+5VD" H 10850 5290 50  0000 C CNN
F 2 "" H 10850 5150 50  0000 C CNN
F 3 "" H 10850 5150 50  0000 C CNN
	1    10850 5150
	1    0    0    -1  
$EndComp
NoConn ~ 7650 5200
NoConn ~ 7650 5400
NoConn ~ 9250 5700
NoConn ~ 9250 5600
NoConn ~ 9250 5500
Text Notes 10950 6350 2    50   ~ 0
USB -> RS232 converter (virtual COM port)
Text Notes 7000 3500 2    50   ~ 0
Ground filtering
Text Notes 2400 2050 2    60   ~ 0
DC power brick jack
$Comp
L +9V #PWR019
U 1 1 56B48314
P 850 5450
F 0 "#PWR019" H 850 5300 50  0001 C CNN
F 1 "+9V" H 850 5590 50  0000 C CNN
F 2 "" H 850 5450 50  0000 C CNN
F 3 "" H 850 5450 50  0000 C CNN
	1    850  5450
	1    0    0    -1  
$EndComp
$Comp
L R R201
U 1 1 56B4831A
P 1700 5800
F 0 "R201" V 1780 5800 50  0000 C CNN
F 1 "10k" V 1700 5800 50  0000 C CNN
F 2 "Resistors_SMD:R_0603" V 1630 5800 50  0001 C CNN
F 3 "" H 1700 5800 50  0000 C CNN
	1    1700 5800
	1    0    0    -1  
$EndComp
$Comp
L GNDPWR #PWR020
U 1 1 56B48321
P 2250 6350
F 0 "#PWR020" H 2250 6150 50  0001 C CNN
F 1 "GNDPWR" H 2250 6220 50  0000 C CNN
F 2 "" H 2250 6300 50  0000 C CNN
F 3 "" H 2250 6300 50  0000 C CNN
	1    2250 6350
	1    0    0    -1  
$EndComp
$Comp
L D_Schottky D202
U 1 1 56B48328
P 3100 5850
F 0 "D202" H 3100 5950 50  0000 C CNN
F 1 "D_Schottky" H 3100 5750 50  0000 C CNN
F 2 "Diodes_SMD:SOD-123" H 3100 5850 50  0001 C CNN
F 3 "" H 3100 5850 50  0000 C CNN
F 4 "40V" H 3100 6050 60  0000 C CNN "Vbrkdn"
	1    3100 5850
	0    1    1    0   
$EndComp
$Comp
L GNDPWR #PWR021
U 1 1 56B4832F
P 3100 6100
F 0 "#PWR021" H 3100 5900 50  0001 C CNN
F 1 "GNDPWR" H 3100 5970 50  0000 C CNN
F 2 "" H 3100 6050 50  0000 C CNN
F 3 "" H 3100 6050 50  0000 C CNN
	1    3100 6100
	1    0    0    -1  
$EndComp
$Comp
L INDUCTOR_SMALL L202
U 1 1 56B48343
P 3450 5600
F 0 "L202" H 3450 5700 50  0000 C CNN
F 1 "22u" H 3450 5550 50  0000 C CNN
F 2 "Choke_SMD:Choke_SMD_12x12mm_h8mm" H 3450 5600 50  0001 C CNN
F 3 "" H 3450 5600 50  0000 C CNN
	1    3450 5600
	1    0    0    -1  
$EndComp
$Comp
L R R204
U 1 1 56B4834A
P 3850 5900
F 0 "R204" V 3930 5900 50  0000 C CNN
F 1 "52k3" V 3850 5900 50  0000 C CNN
F 2 "Resistors_SMD:R_0603" V 3780 5900 50  0001 C CNN
F 3 "" H 3850 5900 50  0000 C CNN
	1    3850 5900
	1    0    0    -1  
$EndComp
$Comp
L R R205
U 1 1 56B48351
P 3850 6300
F 0 "R205" V 3930 6300 50  0000 C CNN
F 1 "10k" V 3850 6300 50  0000 C CNN
F 2 "Resistors_SMD:R_0603" V 3780 6300 50  0001 C CNN
F 3 "" H 3850 6300 50  0000 C CNN
	1    3850 6300
	1    0    0    -1  
$EndComp
$Comp
L GNDPWR #PWR022
U 1 1 56B4835E
P 4500 6050
F 0 "#PWR022" H 4500 5850 50  0001 C CNN
F 1 "GNDPWR" H 4500 5920 50  0000 C CNN
F 2 "" H 4500 6000 50  0000 C CNN
F 3 "" H 4500 6000 50  0000 C CNN
	1    4500 6050
	1    0    0    -1  
$EndComp
$Comp
L +5V #PWR023
U 1 1 56B4836B
P 5300 5400
F 0 "#PWR023" H 5300 5250 50  0001 C CNN
F 1 "+5V" H 5300 5540 50  0000 C CNN
F 2 "" H 5300 5400 50  0000 C CNN
F 3 "" H 5300 5400 50  0000 C CNN
	1    5300 5400
	1    0    0    -1  
$EndComp
Text Notes 5300 6800 2    60   ~ 0
Servos power converter
Text Notes 1900 6800 0    60   ~ 0
90% eff for servo load\nwhich means < 0.3 W\npower dissipation
$Comp
L R R209
U 1 1 56B48373
P 5300 5800
F 0 "R209" V 5380 5800 50  0000 C CNN
F 1 "500" V 5300 5800 50  0000 C CNN
F 2 "Resistors_SMD:R_0603" V 5230 5800 50  0001 C CNN
F 3 "" H 5300 5800 50  0000 C CNN
	1    5300 5800
	1    0    0    -1  
$EndComp
Text Notes 5550 5650 3    60   ~ 0
10 mA idle load
Text Notes 3700 4750 2    60   ~ 0
Analog power
Text Notes 3000 3400 2    60   ~ 0
Digital power
Text Notes 5300 2050 2    60   ~ 0
Servos control and power
$Comp
L LED D203
U 1 1 56B48438
P 3450 2700
F 0 "D203" H 3450 2800 50  0000 C CNN
F 1 "LED" H 3450 2600 50  0000 C CNN
F 2 "LEDs:LED-1206" H 3450 2700 50  0001 C CNN
F 3 "" H 3450 2700 50  0000 C CNN
	1    3450 2700
	0    -1   -1   0   
$EndComp
$Comp
L LED D204
U 1 1 56B4843F
P 3750 2700
F 0 "D204" H 3750 2800 50  0000 C CNN
F 1 "LED" H 3750 2600 50  0000 C CNN
F 2 "LEDs:LED-1206" H 3750 2700 50  0001 C CNN
F 3 "" H 3750 2700 50  0000 C CNN
	1    3750 2700
	0    -1   -1   0   
$EndComp
$Comp
L LED D205
U 1 1 56B48446
P 4050 2700
F 0 "D205" H 4050 2800 50  0000 C CNN
F 1 "LED" H 4050 2600 50  0000 C CNN
F 2 "LEDs:LED-1206" H 4050 2700 50  0001 C CNN
F 3 "" H 4050 2700 50  0000 C CNN
	1    4050 2700
	0    -1   -1   0   
$EndComp
$Comp
L LED D206
U 1 1 56B4844D
P 4350 2700
F 0 "D206" H 4350 2800 50  0000 C CNN
F 1 "LED" H 4350 2600 50  0000 C CNN
F 2 "LEDs:LED-1206" H 4350 2700 50  0001 C CNN
F 3 "" H 4350 2700 50  0000 C CNN
	1    4350 2700
	0    -1   -1   0   
$EndComp
$Comp
L +5V #PWR024
U 1 1 56B48454
P 4350 2450
F 0 "#PWR024" H 4350 2300 50  0001 C CNN
F 1 "+5V" H 4350 2590 50  0000 C CNN
F 2 "" H 4350 2450 50  0000 C CNN
F 3 "" H 4350 2450 50  0000 C CNN
	1    4350 2450
	1    0    0    -1  
$EndComp
$Comp
L +5VA #PWR025
U 1 1 56B4845A
P 4050 2450
F 0 "#PWR025" H 4050 2300 50  0001 C CNN
F 1 "+5VA" H 4050 2590 50  0000 C CNN
F 2 "" H 4050 2450 50  0000 C CNN
F 3 "" H 4050 2450 50  0000 C CNN
	1    4050 2450
	1    0    0    -1  
$EndComp
$Comp
L +5VD #PWR026
U 1 1 56B48460
P 3750 2450
F 0 "#PWR026" H 3750 2300 50  0001 C CNN
F 1 "+5VD" H 3750 2590 50  0000 C CNN
F 2 "" H 3750 2450 50  0000 C CNN
F 3 "" H 3750 2450 50  0000 C CNN
	1    3750 2450
	1    0    0    -1  
$EndComp
$Comp
L +9V #PWR027
U 1 1 56B48466
P 3450 2450
F 0 "#PWR027" H 3450 2300 50  0001 C CNN
F 1 "+9V" H 3450 2590 50  0000 C CNN
F 2 "" H 3450 2450 50  0000 C CNN
F 3 "" H 3450 2450 50  0000 C CNN
	1    3450 2450
	1    0    0    -1  
$EndComp
$Comp
L R R202
U 1 1 56B4846C
P 3450 3100
F 0 "R202" V 3530 3100 50  0000 C CNN
F 1 "1k" V 3450 3100 50  0000 C CNN
F 2 "Resistors_SMD:R_0603" V 3380 3100 50  0001 C CNN
F 3 "" H 3450 3100 50  0000 C CNN
	1    3450 3100
	1    0    0    -1  
$EndComp
$Comp
L GNDD #PWR028
U 1 1 56B48473
P 3750 3300
F 0 "#PWR028" H 3750 3050 50  0001 C CNN
F 1 "GNDD" H 3750 3150 50  0000 C CNN
F 2 "" H 3750 3300 50  0000 C CNN
F 3 "" H 3750 3300 50  0000 C CNN
	1    3750 3300
	1    0    0    -1  
$EndComp
$Comp
L GNDA #PWR029
U 1 1 56B48479
P 4050 3300
F 0 "#PWR029" H 4050 3050 50  0001 C CNN
F 1 "GNDA" H 4050 3150 50  0000 C CNN
F 2 "" H 4050 3300 50  0000 C CNN
F 3 "" H 4050 3300 50  0000 C CNN
	1    4050 3300
	1    0    0    -1  
$EndComp
Text Notes 4600 3600 2    60   ~ 0
Power indication LEDs
$Comp
L CP C203
U 1 1 56B484A1
P 1050 5800
F 0 "C203" H 1075 5900 50  0000 L CNN
F 1 "10u" H 1075 5700 50  0000 L CNN
F 2 "Capacitors_SMD:c_elec_5x5.7" H 1088 5650 50  0001 C CNN
F 3 "" H 1050 5800 50  0000 C CNN
	1    1050 5800
	1    0    0    -1  
$EndComp
$Comp
L GNDPWR #PWR030
U 1 1 56B484A8
P 1400 6300
F 0 "#PWR030" H 1400 6100 50  0001 C CNN
F 1 "GNDPWR" H 1400 6170 50  0000 C CNN
F 2 "" H 1400 6250 50  0000 C CNN
F 3 "" H 1400 6250 50  0000 C CNN
	1    1400 6300
	1    0    0    -1  
$EndComp
$Comp
L CP C214
U 1 1 56B484B4
P 4500 5800
F 0 "C214" H 4525 5900 50  0000 L CNN
F 1 "10u" H 4525 5700 50  0000 L CNN
F 2 "Capacitors_SMD:c_elec_5x5.7" H 4538 5650 50  0001 C CNN
F 3 "" H 4500 5800 50  0000 C CNN
	1    4500 5800
	1    0    0    -1  
$EndComp
$Comp
L CP C215
U 1 1 56B484BB
P 4850 5800
F 0 "C215" H 4875 5900 50  0000 L CNN
F 1 "10u" H 4875 5700 50  0000 L CNN
F 2 "Capacitors_SMD:c_elec_5x5.7" H 4888 5650 50  0001 C CNN
F 3 "" H 4850 5800 50  0000 C CNN
	1    4850 5800
	1    0    0    -1  
$EndComp
$Comp
L C C213
U 1 1 56B484C2
P 4150 5800
F 0 "C213" H 4175 5900 50  0000 L CNN
F 1 "100n" H 4175 5700 50  0000 L CNN
F 2 "Capacitors_SMD:C_0603" H 4188 5650 50  0001 C CNN
F 3 "" H 4150 5800 50  0000 C CNN
	1    4150 5800
	1    0    0    -1  
$EndComp
$Comp
L GNDPWR #PWR031
U 1 1 56B484C9
P 4150 6050
F 0 "#PWR031" H 4150 5850 50  0001 C CNN
F 1 "GNDPWR" H 4150 5920 50  0000 C CNN
F 2 "" H 4150 6000 50  0000 C CNN
F 3 "" H 4150 6000 50  0000 C CNN
	1    4150 6050
	1    0    0    -1  
$EndComp
$Comp
L Switch_SPDT SW202
U 1 1 56B484EC
P 4500 4150
F 0 "SW202" H 4500 4350 60  0000 C CNN
F 1 "Switch_SPDT" H 4500 3950 60  0001 C CNN
F 2 "Buttons_Switches_ThroughHole:Ninigi_SW_SPDT" H 4500 4150 60  0001 C CNN
F 3 "" H 4500 4150 60  0000 C CNN
	1    4500 4150
	1    0    0    -1  
$EndComp
$Comp
L Switch_SPDT SW203
U 1 1 56B484F3
P 7800 1100
F 0 "SW203" H 7800 1300 60  0000 C CNN
F 1 "Switch_SPDT" H 7800 900 60  0001 C CNN
F 2 "Buttons_Switches_ThroughHole:Ninigi_SW_SPDT" H 7800 1100 60  0001 C CNN
F 3 "" H 7800 1100 60  0000 C CNN
	1    7800 1100
	1    0    0    -1  
$EndComp
$Comp
L +9V #PWR032
U 1 1 56B484FA
P 4000 3950
F 0 "#PWR032" H 4000 3800 50  0001 C CNN
F 1 "+9V" H 4000 4090 50  0000 C CNN
F 2 "" H 4000 3950 50  0000 C CNN
F 3 "" H 4000 3950 50  0000 C CNN
	1    4000 3950
	1    0    0    -1  
$EndComp
$Comp
L CONN_01X02 P203
U 1 1 56B48500
P 5800 4150
F 0 "P203" H 5800 4300 50  0000 C CNN
F 1 "CONN_01X02" V 5900 4150 50  0000 C CNN
F 2 "Pin_Headers:Pin_Header_Angled_1x02" H 5800 4150 50  0001 C CNN
F 3 "" H 5800 4150 50  0000 C CNN
	1    5800 4150
	1    0    0    -1  
$EndComp
$Comp
L CP C216
U 1 1 56B4850E
P 5150 4150
F 0 "C216" H 5175 4250 50  0000 L CNN
F 1 "10u" H 5175 4050 50  0000 L CNN
F 2 "Capacitors_SMD:c_elec_5x5.7" H 5188 4000 50  0001 C CNN
F 3 "" H 5150 4150 50  0000 C CNN
	1    5150 4150
	1    0    0    -1  
$EndComp
NoConn ~ 4900 4050
$Comp
L GNDPWR #PWR033
U 1 1 56B48516
P 5150 4400
F 0 "#PWR033" H 5150 4200 50  0001 C CNN
F 1 "GNDPWR" H 5150 4270 50  0000 C CNN
F 2 "" H 5150 4350 50  0000 C CNN
F 3 "" H 5150 4350 50  0000 C CNN
	1    5150 4400
	1    0    0    -1  
$EndComp
$Comp
L GNDPWR #PWR034
U 1 1 56B4851C
P 5500 4400
F 0 "#PWR034" H 5500 4200 50  0001 C CNN
F 1 "GNDPWR" H 5500 4270 50  0000 C CNN
F 2 "" H 5500 4350 50  0000 C CNN
F 3 "" H 5500 4350 50  0000 C CNN
	1    5500 4400
	1    0    0    -1  
$EndComp
Text Notes 4850 4750 0    60   ~ 0
Measurement LEDs switch
$Comp
L +5VA #PWR035
U 1 1 56B48523
P 7300 900
F 0 "#PWR035" H 7300 750 50  0001 C CNN
F 1 "+5VA" H 7300 1040 50  0000 C CNN
F 2 "" H 7300 900 50  0000 C CNN
F 3 "" H 7300 900 50  0000 C CNN
	1    7300 900 
	1    0    0    -1  
$EndComp
NoConn ~ 8200 1000
$Comp
L CONN_01X02 P205
U 1 1 56B4852A
P 8650 1250
F 0 "P205" H 8650 1400 50  0000 C CNN
F 1 "CONN_01X02" V 8800 1250 50  0000 C CNN
F 2 "Pin_Headers:Pin_Header_Angled_1x02" H 8650 1250 50  0001 C CNN
F 3 "" H 8650 1250 50  0000 C CNN
	1    8650 1250
	1    0    0    -1  
$EndComp
$Comp
L R R212
U 1 1 56B48531
P 8200 1700
F 0 "R212" V 8280 1700 50  0000 C CNN
F 1 "2k2" V 8200 1700 50  0000 C CNN
F 2 "Resistors_SMD:R_0603" V 8130 1700 50  0001 C CNN
F 3 "" H 8200 1700 50  0000 C CNN
	1    8200 1700
	1    0    0    -1  
$EndComp
$Comp
L R R213
U 1 1 56B48538
P 8200 2100
F 0 "R213" V 8280 2100 50  0000 C CNN
F 1 "2k2" V 8200 2100 50  0000 C CNN
F 2 "Resistors_SMD:R_0603" V 8130 2100 50  0001 C CNN
F 3 "" H 8200 2100 50  0000 C CNN
	1    8200 2100
	1    0    0    -1  
$EndComp
$Comp
L R R214
U 1 1 56B4853F
P 8200 2500
F 0 "R214" V 8280 2500 50  0000 C CNN
F 1 "2k2" V 8200 2500 50  0000 C CNN
F 2 "Resistors_SMD:R_0603" V 8130 2500 50  0001 C CNN
F 3 "" H 8200 2500 50  0000 C CNN
	1    8200 2500
	1    0    0    -1  
$EndComp
$Comp
L R R215
U 1 1 56B48546
P 8200 2900
F 0 "R215" V 8280 2900 50  0000 C CNN
F 1 "2k2" V 8200 2900 50  0000 C CNN
F 2 "Resistors_SMD:R_0603" V 8130 2900 50  0001 C CNN
F 3 "" H 8200 2900 50  0000 C CNN
	1    8200 2900
	1    0    0    -1  
$EndComp
$Comp
L GNDA #PWR036
U 1 1 56B4854D
P 8200 3150
F 0 "#PWR036" H 8200 2900 50  0001 C CNN
F 1 "GNDA" H 8200 3000 50  0000 C CNN
F 2 "" H 8200 3150 50  0000 C CNN
F 3 "" H 8200 3150 50  0000 C CNN
	1    8200 3150
	1    0    0    -1  
$EndComp
$Comp
L JUMPER3 JP204
U 1 1 56B48553
P 9150 2100
F 0 "JP204" H 9200 2000 50  0000 L CNN
F 1 "down/up" H 9150 2200 50  0000 C BNN
F 2 "Connect:PINHEAD1-3" H 9150 2100 50  0001 C CNN
F 3 "" H 9150 2100 50  0000 C CNN
	1    9150 2100
	0    -1   -1   0   
$EndComp
$Comp
L JUMPER3 JP203
U 1 1 56B48561
P 8600 2600
F 0 "JP203" H 8650 2500 50  0000 L CNN
F 1 "6k6/4k4" H 8600 2700 50  0000 C BNN
F 2 "Connect:PINHEAD1-3" H 8600 2600 50  0001 C CNN
F 3 "" H 8600 2600 50  0000 C CNN
	1    8600 2600
	0    -1   -1   0   
$EndComp
Text Notes 10950 3500 2    60   ~ 0
Phototransistor switch and divider selection
$Comp
L GNDA #PWR037
U 1 1 56B48570
P 9850 2600
F 0 "#PWR037" H 9850 2350 50  0001 C CNN
F 1 "GNDA" H 9850 2450 50  0000 C CNN
F 2 "" H 9850 2600 50  0000 C CNN
F 3 "" H 9850 2600 50  0000 C CNN
	1    9850 2600
	1    0    0    -1  
$EndComp
$Comp
L +5VA #PWR038
U 1 1 56B48576
P 9850 1800
F 0 "#PWR038" H 9850 1650 50  0001 C CNN
F 1 "+5VA" H 9850 1940 50  0000 C CNN
F 2 "" H 9850 1800 50  0000 C CNN
F 3 "" H 9850 1800 50  0000 C CNN
	1    9850 1800
	1    0    0    -1  
$EndComp
$Comp
L C_Small C219
U 1 1 56B4857C
P 10150 1550
F 0 "C219" H 10160 1620 50  0000 L CNN
F 1 "100n" H 10160 1470 50  0000 L CNN
F 2 "Capacitors_SMD:C_0603" H 10150 1550 50  0001 C CNN
F 3 "" H 10150 1550 50  0000 C CNN
	1    10150 1550
	1    0    0    -1  
$EndComp
$Comp
L C_Small C221
U 1 1 56B48583
P 10400 1550
F 0 "C221" H 10410 1620 50  0000 L CNN
F 1 "1u" H 10410 1470 50  0000 L CNN
F 2 "Capacitors_SMD:C_0603" H 10400 1550 50  0001 C CNN
F 3 "" H 10400 1550 50  0000 C CNN
	1    10400 1550
	1    0    0    -1  
$EndComp
$Comp
L GNDA #PWR039
U 1 1 56B4858A
P 10150 1750
F 0 "#PWR039" H 10150 1500 50  0001 C CNN
F 1 "GNDA" H 10150 1600 50  0000 C CNN
F 2 "" H 10150 1750 50  0000 C CNN
F 3 "" H 10150 1750 50  0000 C CNN
	1    10150 1750
	1    0    0    -1  
$EndComp
$Comp
L GNDA #PWR040
U 1 1 56B48590
P 10400 1750
F 0 "#PWR040" H 10400 1500 50  0001 C CNN
F 1 "GNDA" H 10400 1600 50  0000 C CNN
F 2 "" H 10400 1750 50  0000 C CNN
F 3 "" H 10400 1750 50  0000 C CNN
	1    10400 1750
	1    0    0    -1  
$EndComp
$Comp
L +5VA #PWR041
U 1 1 56B4859C
P 10400 1350
F 0 "#PWR041" H 10400 1200 50  0001 C CNN
F 1 "+5VA" H 10400 1490 50  0000 C CNN
F 2 "" H 10400 1350 50  0000 C CNN
F 3 "" H 10400 1350 50  0000 C CNN
	1    10400 1350
	1    0    0    -1  
$EndComp
Text GLabel 10550 2200 2    60   Input ~ 0
adc_in
$Comp
L USB_B P204
U 1 1 56B485CA
P 6650 4700
F 0 "P204" H 6850 4500 50  0000 C CNN
F 1 "USB_B" H 6600 4900 50  0000 C CNN
F 2 "Connect:USB_Micro-B" V 6600 4600 50  0001 C CNN
F 3 "" V 6600 4600 50  0000 C CNN
	1    6650 4700
	0    -1   1    0   
$EndComp
$Comp
L GNDD #PWR042
U 1 1 56B485D7
P 8250 6150
F 0 "#PWR042" H 8250 5900 50  0001 C CNN
F 1 "GNDD" H 8250 6000 50  0000 C CNN
F 2 "" H 8250 6150 50  0000 C CNN
F 3 "" H 8250 6150 50  0000 C CNN
	1    8250 6150
	1    0    0    -1  
$EndComp
NoConn ~ 9250 4700
NoConn ~ 9250 4800
NoConn ~ 9250 4900
NoConn ~ 9250 5000
$Comp
L LED D207
U 1 1 56B485E7
P 9900 5200
F 0 "D207" H 9900 5300 50  0000 C CNN
F 1 "LED" H 9900 5100 50  0000 C CNN
F 2 "LEDs:LED-1206" H 9900 5200 50  0001 C CNN
F 3 "" H 9900 5200 50  0000 C CNN
	1    9900 5200
	1    0    0    -1  
$EndComp
$Comp
L LED D208
U 1 1 56B485EE
P 9900 5500
F 0 "D208" H 9900 5600 50  0000 C CNN
F 1 "LED" H 9900 5400 50  0000 C CNN
F 2 "LEDs:LED-1206" H 9900 5500 50  0001 C CNN
F 3 "" H 9900 5500 50  0000 C CNN
	1    9900 5500
	1    0    0    -1  
$EndComp
$Comp
L R R216
U 1 1 56B485F5
P 10350 5200
F 0 "R216" V 10430 5200 50  0000 C CNN
F 1 "270" V 10350 5200 50  0000 C CNN
F 2 "Resistors_SMD:R_0603" V 10280 5200 50  0001 C CNN
F 3 "" H 10350 5200 50  0000 C CNN
	1    10350 5200
	0    1    1    0   
$EndComp
$Comp
L R R217
U 1 1 56B485FC
P 10350 5500
F 0 "R217" V 10430 5500 50  0000 C CNN
F 1 "270" V 10350 5500 50  0000 C CNN
F 2 "Resistors_SMD:R_0603" V 10280 5500 50  0001 C CNN
F 3 "" H 10350 5500 50  0000 C CNN
	1    10350 5500
	0    1    1    0   
$EndComp
$Comp
L +5VD #PWR043
U 1 1 56B48603
P 10600 5150
F 0 "#PWR043" H 10600 5000 50  0001 C CNN
F 1 "+5VD" H 10600 5290 50  0000 C CNN
F 2 "" H 10600 5150 50  0000 C CNN
F 3 "" H 10600 5150 50  0000 C CNN
	1    10600 5150
	1    0    0    -1  
$EndComp
$Comp
L +5VD #PWR044
U 1 1 56B48609
P 10850 5150
F 0 "#PWR044" H 10850 5000 50  0001 C CNN
F 1 "+5VD" H 10850 5290 50  0000 C CNN
F 2 "" H 10850 5150 50  0000 C CNN
F 3 "" H 10850 5150 50  0000 C CNN
	1    10850 5150
	1    0    0    -1  
$EndComp
$Comp
L GNDD #PWR045
U 1 1 56B4860F
P 6550 5100
F 0 "#PWR045" H 6550 4850 50  0001 C CNN
F 1 "GNDD" H 6550 4950 50  0000 C CNN
F 2 "" H 6550 5100 50  0000 C CNN
F 3 "" H 6550 5100 50  0000 C CNN
	1    6550 5100
	1    0    0    -1  
$EndComp
$Comp
L R R210
U 1 1 56B48615
P 7100 4900
F 0 "R210" V 7180 4900 50  0000 C CNN
F 1 "4k7" V 7100 4900 50  0000 C CNN
F 2 "Resistors_SMD:R_0603" V 7030 4900 50  0001 C CNN
F 3 "" H 7100 4900 50  0000 C CNN
	1    7100 4900
	1    0    0    -1  
$EndComp
$Comp
L R R211
U 1 1 56B4861C
P 7100 5300
F 0 "R211" V 7180 5300 50  0000 C CNN
F 1 "10k" V 7100 5300 50  0000 C CNN
F 2 "Resistors_SMD:R_0603" V 7030 5300 50  0001 C CNN
F 3 "" H 7100 5300 50  0000 C CNN
	1    7100 5300
	1    0    0    -1  
$EndComp
$Comp
L GNDD #PWR046
U 1 1 56B48623
P 7100 5550
F 0 "#PWR046" H 7100 5300 50  0001 C CNN
F 1 "GNDD" H 7100 5400 50  0000 C CNN
F 2 "" H 7100 5550 50  0000 C CNN
F 3 "" H 7100 5550 50  0000 C CNN
	1    7100 5550
	1    0    0    -1  
$EndComp
NoConn ~ 7650 5200
NoConn ~ 7650 5400
$Comp
L C C217
U 1 1 56B4862B
P 7350 5300
F 0 "C217" H 7375 5400 50  0000 L CNN
F 1 "100n" H 7375 5200 50  0000 L CNN
F 2 "Capacitors_SMD:C_0603" H 7388 5150 50  0001 C CNN
F 3 "" H 7350 5300 50  0000 C CNN
	1    7350 5300
	1    0    0    -1  
$EndComp
$Comp
L GNDD #PWR047
U 1 1 56B48632
P 7350 5550
F 0 "#PWR047" H 7350 5300 50  0001 C CNN
F 1 "GNDD" H 7350 5400 50  0000 C CNN
F 2 "" H 7350 5550 50  0000 C CNN
F 3 "" H 7350 5550 50  0000 C CNN
	1    7350 5550
	1    0    0    -1  
$EndComp
NoConn ~ 9250 5700
NoConn ~ 9250 5600
NoConn ~ 9250 5500
$Comp
L C C218
U 1 1 56B4863D
P 9950 4400
F 0 "C218" H 9975 4500 50  0000 L CNN
F 1 "100n" H 9975 4300 50  0000 L CNN
F 2 "Capacitors_SMD:C_0603" H 9988 4250 50  0001 C CNN
F 3 "" H 9950 4400 50  0000 C CNN
	1    9950 4400
	1    0    0    -1  
$EndComp
$Comp
L C C220
U 1 1 56B48644
P 10250 4400
F 0 "C220" H 10275 4500 50  0000 L CNN
F 1 "100n" H 10275 4300 50  0000 L CNN
F 2 "Capacitors_SMD:C_0603" H 10288 4250 50  0001 C CNN
F 3 "" H 10250 4400 50  0000 C CNN
	1    10250 4400
	1    0    0    -1  
$EndComp
$Comp
L +5VD #PWR048
U 1 1 56B4864B
P 9950 4200
F 0 "#PWR048" H 9950 4050 50  0001 C CNN
F 1 "+5VD" H 9950 4340 50  0000 C CNN
F 2 "" H 9950 4200 50  0000 C CNN
F 3 "" H 9950 4200 50  0000 C CNN
	1    9950 4200
	1    0    0    -1  
$EndComp
$Comp
L +5VD #PWR049
U 1 1 56B48651
P 10250 4200
F 0 "#PWR049" H 10250 4050 50  0001 C CNN
F 1 "+5VD" H 10250 4340 50  0000 C CNN
F 2 "" H 10250 4200 50  0000 C CNN
F 3 "" H 10250 4200 50  0000 C CNN
	1    10250 4200
	1    0    0    -1  
$EndComp
$Comp
L +5VD #PWR050
U 1 1 56B48657
P 10550 4200
F 0 "#PWR050" H 10550 4050 50  0001 C CNN
F 1 "+5VD" H 10550 4340 50  0000 C CNN
F 2 "" H 10550 4200 50  0000 C CNN
F 3 "" H 10550 4200 50  0000 C CNN
	1    10550 4200
	1    0    0    -1  
$EndComp
$Comp
L GNDD #PWR051
U 1 1 56B48664
P 9950 4600
F 0 "#PWR051" H 9950 4350 50  0001 C CNN
F 1 "GNDD" H 9950 4450 50  0000 C CNN
F 2 "" H 9950 4600 50  0000 C CNN
F 3 "" H 9950 4600 50  0000 C CNN
	1    9950 4600
	1    0    0    -1  
$EndComp
$Comp
L GNDD #PWR052
U 1 1 56B4866A
P 10250 4600
F 0 "#PWR052" H 10250 4350 50  0001 C CNN
F 1 "GNDD" H 10250 4450 50  0000 C CNN
F 2 "" H 10250 4600 50  0000 C CNN
F 3 "" H 10250 4600 50  0000 C CNN
	1    10250 4600
	1    0    0    -1  
$EndComp
$Comp
L GNDD #PWR053
U 1 1 56B48670
P 10550 4600
F 0 "#PWR053" H 10550 4350 50  0001 C CNN
F 1 "GNDD" H 10550 4450 50  0000 C CNN
F 2 "" H 10550 4600 50  0000 C CNN
F 3 "" H 10550 4600 50  0000 C CNN
	1    10550 4600
	1    0    0    -1  
$EndComp
Text Notes 10950 6350 2    50   ~ 0
USB -> RS232 converter (virtual COM port)
$Comp
L INDUCTOR L203
U 1 1 56B48677
P 5500 2800
F 0 "L203" V 5450 2800 50  0000 C CNN
F 1 "10u" V 5600 2800 50  0000 C CNN
F 2 "Choke_SMD:Choke_SMD_1206_Handsoldering" H 5500 2800 50  0001 C CNN
F 3 "" H 5500 2800 50  0000 C CNN
	1    5500 2800
	0    -1   -1   0   
$EndComp
$Comp
L INDUCTOR L204
U 1 1 56B4867E
P 6300 2800
F 0 "L204" V 6250 2800 50  0000 C CNN
F 1 "10u" V 6400 2800 50  0000 C CNN
F 2 "Choke_SMD:Choke_SMD_1206_Handsoldering" H 6300 2800 50  0001 C CNN
F 3 "" H 6300 2800 50  0000 C CNN
	1    6300 2800
	0    -1   -1   0   
$EndComp
$Comp
L GNDPWR #PWR054
U 1 1 56B48685
P 5100 2950
F 0 "#PWR054" H 5100 2750 50  0001 C CNN
F 1 "GNDPWR" H 5100 2820 50  0000 C CNN
F 2 "" H 5100 2900 50  0000 C CNN
F 3 "" H 5100 2900 50  0000 C CNN
	1    5100 2950
	1    0    0    -1  
$EndComp
$Comp
L GNDD #PWR055
U 1 1 56B4868B
P 5900 2950
F 0 "#PWR055" H 5900 2700 50  0001 C CNN
F 1 "GNDD" H 5900 2800 50  0000 C CNN
F 2 "" H 5900 2950 50  0000 C CNN
F 3 "" H 5900 2950 50  0000 C CNN
	1    5900 2950
	1    0    0    -1  
$EndComp
Text Notes 7000 3500 2    50   ~ 0
Ground filtering
$Comp
L MCP16301 U203
U 1 1 56B486AD
P 2250 5800
F 0 "U203" H 2300 5450 60  0000 L CNN
F 1 "MCP16301" H 2300 5350 60  0000 L CNN
F 2 "TO_SOT_Packages_SMD:SOT-23-6" H 2200 5800 60  0001 C CNN
F 3 "" H 2200 5800 60  0000 C CNN
	1    2250 5800
	1    0    0    -1  
$EndComp
Text Notes 7000 2400 2    50   ~ 0
ATmega ISP
$Comp
L GNDD #PWR056
U 1 1 56B485B7
P 6850 2100
F 0 "#PWR056" H 6850 1850 50  0001 C CNN
F 1 "GNDD" H 6850 1950 50  0000 C CNN
F 2 "" H 6850 2100 50  0000 C CNN
F 3 "" H 6850 2100 50  0000 C CNN
	1    6850 2100
	1    0    0    -1  
$EndComp
Text Notes 7000 2400 2    50   ~ 0
ATmega ISP
$Comp
L GNDD #PWR057
U 1 1 56B48218
P 6850 2100
F 0 "#PWR057" H 6850 1850 50  0001 C CNN
F 1 "GNDD" H 6850 1950 50  0000 C CNN
F 2 "" H 6850 2100 50  0000 C CNN
F 3 "" H 6850 2100 50  0000 C CNN
	1    6850 2100
	1    0    0    -1  
$EndComp
Text Notes 7000 2400 2    50   ~ 0
ATmega ISP
$Comp
L GNDD #PWR058
U 1 1 56B47E6C
P 6850 2100
F 0 "#PWR058" H 6850 1850 50  0001 C CNN
F 1 "GNDD" H 6850 1950 50  0000 C CNN
F 2 "" H 6850 2100 50  0000 C CNN
F 3 "" H 6850 2100 50  0000 C CNN
	1    6850 2100
	1    0    0    -1  
$EndComp
Text Notes 7000 2400 2    50   ~ 0
ATmega ISP
$Comp
L GNDD #PWR059
U 1 1 56B4797E
P 6850 2100
F 0 "#PWR059" H 6850 1850 50  0001 C CNN
F 1 "GNDD" H 6850 1950 50  0000 C CNN
F 2 "" H 6850 2100 50  0000 C CNN
F 3 "" H 6850 2100 50  0000 C CNN
	1    6850 2100
	1    0    0    -1  
$EndComp
Wire Notes Line
	650  600  650  2100
Wire Notes Line
	650  2100 2650 2100
Wire Notes Line
	650  600  2650 600 
Wire Wire Line
	1400 5600 1400 5650
Connection ~ 1400 5600
Wire Wire Line
	1700 5600 1700 5650
Connection ~ 1700 5600
Wire Wire Line
	2250 6200 2250 6350
Wire Wire Line
	3100 6100 3100 6000
Wire Wire Line
	3100 5600 3100 5700
Wire Wire Line
	2650 5600 3200 5600
Wire Wire Line
	2700 5550 2700 5600
Connection ~ 2700 5600
Wire Wire Line
	2250 5200 2900 5200
Wire Wire Line
	2700 5200 2700 5250
Wire Wire Line
	2250 5200 2250 5400
Connection ~ 2700 5200
Connection ~ 3100 5600
Wire Wire Line
	3200 5200 3850 5200
Wire Wire Line
	3850 5200 3850 5750
Wire Wire Line
	3850 5600 3700 5600
Wire Wire Line
	2650 6000 2900 6000
Wire Wire Line
	2900 6000 2900 6400
Wire Wire Line
	2900 6400 3450 6400
Wire Wire Line
	3450 6400 3450 6100
Wire Wire Line
	3450 6100 3850 6100
Wire Wire Line
	3850 6050 3850 6150
Connection ~ 3850 6100
Wire Wire Line
	3850 6450 3850 6550
Connection ~ 3850 5600
Wire Wire Line
	4500 6050 4500 5950
Wire Wire Line
	4500 5550 4500 5650
Connection ~ 3850 5550
Wire Wire Line
	4850 6050 4850 5950
Wire Wire Line
	4850 5550 4850 5650
Connection ~ 4500 5550
Connection ~ 4850 5550
Wire Wire Line
	5300 5400 5300 5650
Wire Notes Line
	650  4950 650  6850
Wire Notes Line
	650  6850 5600 6850
Wire Notes Line
	650  4950 5600 4950
Connection ~ 5300 5550
Wire Wire Line
	5300 6050 5300 5950
Wire Wire Line
	1800 2950 1800 3100
Wire Wire Line
	2400 3000 2400 3100
Wire Wire Line
	2750 3000 2750 3100
Wire Wire Line
	850  3000 850  3100
Wire Wire Line
	1200 3000 1200 3100
Wire Notes Line
	650  2250 650  3450
Wire Notes Line
	650  3450 3050 3450
Wire Notes Line
	3050 3450 3050 2250
Wire Notes Line
	3050 2250 650  2250
Wire Notes Line
	650  3600 650  4800
Wire Notes Line
	3050 3600 650  3600
Wire Notes Line
	650  4800 3750 4800
Wire Notes Line
	2750 600  2750 2100
Wire Notes Line
	2750 2100 5350 2100
Wire Notes Line
	5350 2100 5350 600 
Wire Notes Line
	5350 600  2750 600 
Wire Wire Line
	3450 2450 3450 2500
Wire Wire Line
	3450 2900 3450 2950
Wire Wire Line
	3750 2900 3750 2950
Wire Wire Line
	3750 2450 3750 2500
Wire Wire Line
	4050 2450 4050 2500
Wire Wire Line
	4050 2900 4050 2950
Wire Wire Line
	4350 2900 4350 2950
Wire Wire Line
	4350 2450 4350 2500
Wire Wire Line
	4350 3250 4350 3300
Wire Wire Line
	4050 3250 4050 3300
Wire Wire Line
	3750 3250 3750 3300
Wire Wire Line
	3450 3250 3450 3300
Wire Notes Line
	3250 2250 4650 2250
Wire Notes Line
	4650 2250 4650 3650
Wire Notes Line
	3250 2250 3250 3650
Wire Notes Line
	3250 3650 4650 3650
Connection ~ 1050 5600
Wire Wire Line
	1050 5650 1050 5600
Wire Wire Line
	850  5450 850  5600
Wire Wire Line
	1050 5950 1050 6300
Wire Wire Line
	1400 6300 1400 5950
Wire Wire Line
	4150 5650 4150 5550
Connection ~ 4150 5550
Wire Wire Line
	4150 5950 4150 6050
Wire Wire Line
	3850 5550 5300 5550
Wire Notes Line
	5600 4950 5600 6850
Wire Notes Line
	2650 600  2650 2100
Wire Notes Line
	3050 3600 3050 3750
Wire Notes Line
	3050 3750 3750 3750
Wire Notes Line
	3750 3750 3750 4800
Wire Wire Line
	4000 3950 4000 4150
Wire Wire Line
	4000 4150 4100 4150
Wire Wire Line
	4900 4250 5000 4250
Wire Wire Line
	5000 4250 5000 3950
Wire Wire Line
	5000 3950 5450 3950
Wire Wire Line
	5150 3950 5150 4000
Wire Wire Line
	5450 3950 5450 4100
Wire Wire Line
	5450 4100 5600 4100
Connection ~ 5150 3950
Wire Wire Line
	5600 4200 5500 4200
Wire Wire Line
	5500 4200 5500 4400
Wire Wire Line
	5150 4400 5150 4300
Wire Wire Line
	7300 900  7300 1100
Wire Wire Line
	7300 1100 7400 1100
Wire Wire Line
	8200 1200 8450 1200
Wire Wire Line
	8450 1300 8200 1300
Wire Wire Line
	8200 1300 8200 1550
Wire Wire Line
	8200 1850 8200 1950
Wire Wire Line
	8200 2250 8200 2350
Wire Wire Line
	8200 2650 8200 2750
Wire Wire Line
	8200 3150 8200 3050
Wire Wire Line
	9250 2100 9650 2100
Wire Wire Line
	8600 1500 8600 1450
Wire Wire Line
	8600 1450 8200 1450
Connection ~ 8200 1450
Wire Wire Line
	8600 2000 8600 2050
Wire Wire Line
	8600 2050 8350 2050
Wire Wire Line
	8350 2050 8350 1900
Wire Wire Line
	8350 1900 8200 1900
Connection ~ 8200 1900
Wire Wire Line
	8600 2350 8600 2300
Wire Wire Line
	8600 2300 8200 2300
Connection ~ 8200 2300
Wire Wire Line
	8600 2850 8600 2900
Wire Wire Line
	8600 2900 8350 2900
Wire Wire Line
	8350 2900 8350 2700
Wire Wire Line
	8350 2700 8200 2700
Connection ~ 8200 2700
Wire Wire Line
	9150 2350 9150 2600
Wire Wire Line
	9150 2600 8700 2600
Wire Wire Line
	8700 1750 9150 1750
Wire Wire Line
	9150 1750 9150 1850
Wire Notes Line
	3900 3750 3900 4800
Wire Notes Line
	3900 4800 6050 4800
Wire Notes Line
	6050 4800 6050 3750
Wire Notes Line
	6050 3750 3900 3750
Wire Notes Line
	7150 3550 11000 3550
Wire Notes Line
	11000 3550 11000 600 
Wire Notes Line
	11000 600  7150 600 
Wire Wire Line
	9650 2300 9450 2300
Wire Wire Line
	9450 2300 9450 2800
Wire Wire Line
	9450 2800 10400 2800
Wire Wire Line
	10400 2800 10400 2200
Wire Wire Line
	10250 2200 10550 2200
Wire Wire Line
	9850 2500 9850 2600
Wire Wire Line
	9850 1800 9850 1900
Wire Wire Line
	10400 1750 10400 1650
Wire Wire Line
	10150 1750 10150 1650
Wire Wire Line
	10400 1350 10400 1450
Wire Wire Line
	10150 1350 10150 1450
Connection ~ 10400 2200
Wire Notes Line
	7150 600  7150 3550
Wire Wire Line
	8450 6000 8450 6050
Wire Wire Line
	8450 6050 8550 6050
Wire Wire Line
	8550 6000 8550 6150
Connection ~ 8550 6050
Wire Wire Line
	8650 6000 8650 6100
Wire Wire Line
	8650 6100 8550 6100
Connection ~ 8550 6100
Wire Wire Line
	8250 6000 8250 6150
Wire Wire Line
	8550 3900 8550 4000
Wire Wire Line
	8350 3900 8550 3900
Wire Wire Line
	8450 3900 8450 3850
Wire Wire Line
	8350 3900 8350 4000
Connection ~ 8450 3900
Wire Wire Line
	9250 4600 9350 4600
Wire Wire Line
	9350 4600 9350 4500
Wire Wire Line
	9350 4500 9250 4500
Wire Wire Line
	9700 5200 9500 5200
Wire Wire Line
	9500 5200 9500 5300
Wire Wire Line
	9500 5300 9250 5300
Wire Wire Line
	9700 5500 9500 5500
Wire Wire Line
	9500 5500 9500 5400
Wire Wire Line
	9500 5400 9250 5400
Wire Wire Line
	10100 5200 10200 5200
Wire Wire Line
	10200 5500 10100 5500
Wire Wire Line
	10600 5150 10600 5200
Wire Wire Line
	10600 5200 10500 5200
Wire Wire Line
	10500 5500 10850 5500
Wire Wire Line
	10850 5500 10850 5150
Wire Wire Line
	6550 5000 6550 5100
Wire Wire Line
	6950 4800 7000 4800
Wire Wire Line
	7000 4800 7000 5050
Wire Wire Line
	7000 5050 6550 5050
Connection ~ 6550 5050
Wire Wire Line
	6950 4600 7150 4600
Wire Wire Line
	7150 4600 7250 4700
Wire Wire Line
	6950 4700 7150 4700
Wire Wire Line
	7150 4700 7250 4600
Wire Wire Line
	7250 4600 7650 4600
Wire Wire Line
	7250 4700 7650 4700
Wire Wire Line
	6950 4500 7100 4500
Wire Wire Line
	7100 4500 7100 4750
Wire Wire Line
	7100 5050 7100 5150
Wire Wire Line
	7100 5550 7100 5450
Wire Wire Line
	7100 5100 7200 5100
Wire Wire Line
	7200 5100 7200 5000
Wire Wire Line
	7200 5000 7650 5000
Connection ~ 7100 5100
Wire Wire Line
	7650 4300 7350 4300
Wire Wire Line
	7350 4300 7350 5150
Wire Wire Line
	7350 5450 7350 5550
Wire Wire Line
	7650 5700 7600 5700
Wire Wire Line
	7600 5700 7600 6050
Wire Wire Line
	7600 6050 8250 6050
Connection ~ 8250 6050
Wire Wire Line
	9250 4300 9350 4300
Wire Wire Line
	9250 4400 9350 4400
Wire Wire Line
	9950 4550 9950 4600
Wire Wire Line
	10250 4550 10250 4600
Wire Wire Line
	10550 4550 10550 4600
Wire Wire Line
	10550 4200 10550 4250
Wire Wire Line
	10250 4200 10250 4250
Wire Wire Line
	9950 4200 9950 4250
Wire Notes Line
	11000 3650 6300 3650
Wire Notes Line
	6300 3650 6300 6400
Wire Notes Line
	6300 6400 11000 6400
Wire Notes Line
	11000 6400 11000 3650
Wire Wire Line
	5200 2800 5100 2800
Wire Wire Line
	5100 2800 5100 2950
Wire Wire Line
	5800 2800 6000 2800
Wire Wire Line
	5900 2800 5900 2950
Connection ~ 5900 2800
Wire Wire Line
	6600 2800 6700 2800
Wire Wire Line
	6700 2800 6700 2950
Wire Notes Line
	7050 2550 4750 2550
Wire Notes Line
	4750 2550 4750 3550
Wire Notes Line
	4750 3550 7050 3550
Wire Notes Line
	7050 3550 7050 2550
Wire Wire Line
	2700 5600 3100 5600
Wire Wire Line
	3850 5550 3850 5600
Wire Wire Line
	4150 5550 4850 5550
Wire Wire Line
	8550 6100 8550 6050
Wire Wire Line
	1700 5950 1700 6650
Wire Wire Line
	1700 6650 1650 6650
Wire Wire Line
	1700 6000 1850 6000
Connection ~ 1700 6000
Wire Wire Line
	6850 1700 6850 2100
Wire Notes Line
	5450 2450 5450 600 
Wire Notes Line
	7050 2450 5450 2450
Wire Notes Line
	7050 600  7050 2450
Wire Notes Line
	5450 600  7050 600 
Connection ~ 6850 2000
Connection ~ 6850 1900
Connection ~ 6850 1800
Wire Wire Line
	6850 1900 6850 2000
Wire Wire Line
	850  5600 1850 5600
$Comp
L BARREL_JACK CON201
U 1 1 56B4DEA6
P 1150 1250
F 0 "CON201" H 1150 1500 50  0000 C CNN
F 1 "9V in +inside" H 1150 1050 50  0000 C CNN
F 2 "Connect:BARREL_JACK" H 1150 1250 50  0001 C CNN
F 3 "" H 1150 1250 50  0000 C CNN
	1    1150 1250
	1    0    0    -1  
$EndComp
$Comp
L CP C208
U 1 1 56B4E223
P 2400 1450
F 0 "C208" H 2425 1550 50  0000 L CNN
F 1 "10u" H 2425 1350 50  0000 L CNN
F 2 "Capacitors_SMD:c_elec_5x5.7" H 2438 1300 50  0001 C CNN
F 3 "" H 2400 1450 50  0000 C CNN
	1    2400 1450
	1    0    0    -1  
$EndComp
$Comp
L +9V #PWR060
U 1 1 56B4E5AF
P 2400 850
F 0 "#PWR060" H 2400 700 50  0001 C CNN
F 1 "+9V" H 2400 990 50  0000 C CNN
F 2 "" H 2400 850 50  0000 C CNN
F 3 "" H 2400 850 50  0000 C CNN
	1    2400 850 
	1    0    0    -1  
$EndComp
$Comp
L Switch_SPDT SW201
U 1 1 56B4E9D3
P 1900 1150
F 0 "SW201" H 1900 1350 60  0000 C CNN
F 1 "Switch_SPDT" H 1900 950 60  0001 C CNN
F 2 "Buttons_Switches_ThroughHole:Ninigi_SW_SPDT" H 1900 1150 60  0001 C CNN
F 3 "" H 1900 1150 60  0000 C CNN
	1    1900 1150
	1    0    0    -1  
$EndComp
NoConn ~ 2300 1050
Wire Wire Line
	2400 850  2400 1300
Wire Wire Line
	2400 1250 2300 1250
Wire Wire Line
	1500 1150 1450 1150
Connection ~ 2400 1250
$Comp
L GNDPWR #PWR061
U 1 1 56B50182
P 1600 1800
F 0 "#PWR061" H 1600 1600 50  0001 C CNN
F 1 "GNDPWR" H 1600 1670 50  0000 C CNN
F 2 "" H 1600 1750 50  0000 C CNN
F 3 "" H 1600 1750 50  0000 C CNN
	1    1600 1800
	1    0    0    -1  
$EndComp
Wire Wire Line
	1450 1250 1600 1250
Wire Wire Line
	1600 1250 1600 1800
Wire Wire Line
	1450 1350 1600 1350
Connection ~ 1600 1350
Wire Wire Line
	2400 1600 2400 1700
Wire Wire Line
	2400 1700 1600 1700
Connection ~ 1600 1700
$Comp
L CONN_01X03 P201
U 1 1 56B521A2
P 3050 1250
F 0 "P201" H 3050 1450 50  0000 C CNN
F 1 "CONN_01X03" V 3150 1150 50  0000 C CNN
F 2 "Pin_Headers:Pin_Header_Angled_1x03" H 3050 1250 50  0001 C CNN
F 3 "" H 3050 1250 50  0000 C CNN
	1    3050 1250
	-1   0    0    1   
$EndComp
$Comp
L +5V #PWR062
U 1 1 56B524F6
P 3450 950
F 0 "#PWR062" H 3450 800 50  0001 C CNN
F 1 "+5V" H 3450 1090 50  0000 C CNN
F 2 "" H 3450 950 50  0000 C CNN
F 3 "" H 3450 950 50  0000 C CNN
	1    3450 950 
	1    0    0    -1  
$EndComp
Text GLabel 3450 1350 2    60   Input ~ 0
servo_pwm1
$Comp
L GNDPWR #PWR063
U 1 1 56B52AEB
P 3400 1550
F 0 "#PWR063" H 3400 1350 50  0001 C CNN
F 1 "GNDPWR" H 3400 1420 50  0000 C CNN
F 2 "" H 3400 1500 50  0000 C CNN
F 3 "" H 3400 1500 50  0000 C CNN
	1    3400 1550
	1    0    0    -1  
$EndComp
Wire Wire Line
	3250 1150 3400 1150
Wire Wire Line
	3400 1150 3400 1550
Wire Wire Line
	3250 1250 3450 1250
Wire Wire Line
	3450 1250 3450 950 
Wire Wire Line
	3250 1350 3450 1350
$Comp
L +5V #PWR064
U 1 1 56B53DA4
P 4650 950
F 0 "#PWR064" H 4650 800 50  0001 C CNN
F 1 "+5V" H 4650 1090 50  0000 C CNN
F 2 "" H 4650 950 50  0000 C CNN
F 3 "" H 4650 950 50  0000 C CNN
	1    4650 950 
	1    0    0    -1  
$EndComp
Text GLabel 4700 1350 2    60   Input ~ 0
servo_pwm2
$Comp
L GNDPWR #PWR065
U 1 1 56B53DAB
P 4600 1550
F 0 "#PWR065" H 4600 1350 50  0001 C CNN
F 1 "GNDPWR" H 4600 1420 50  0000 C CNN
F 2 "" H 4600 1500 50  0000 C CNN
F 3 "" H 4600 1500 50  0000 C CNN
	1    4600 1550
	1    0    0    -1  
$EndComp
Wire Wire Line
	4450 1150 4600 1150
Wire Wire Line
	4600 1150 4600 1550
Wire Wire Line
	4450 1250 4650 1250
Wire Wire Line
	4650 1250 4650 950 
Wire Wire Line
	4450 1350 4700 1350
$Comp
L JUMPER JP201
U 1 1 56B54EA6
P 6850 1200
F 0 "JP201" H 6850 1350 50  0000 C CNN
F 1 "VCC from ISP" H 6850 1100 50  0000 C CNN
F 2 "Connect:PINHEAD1-2" H 6850 1200 50  0001 C CNN
F 3 "" H 6850 1200 50  0000 C CNN
	1    6850 1200
	0    1    1    0   
$EndComp
$Comp
L +5VD #PWR066
U 1 1 56B551A4
P 6850 800
F 0 "#PWR066" H 6850 650 50  0001 C CNN
F 1 "+5VD" H 6850 940 50  0000 C CNN
F 2 "" H 6850 800 50  0000 C CNN
F 3 "" H 6850 800 50  0000 C CNN
	1    6850 800 
	1    0    0    -1  
$EndComp
Wire Wire Line
	6850 900  6850 800 
Wire Wire Line
	6850 1600 6850 1500
Text GLabel 5850 1600 0    50   Output ~ 0
uc_mosi
Text GLabel 5850 2000 0    50   Input ~ 0
uc_miso
Text GLabel 5850 1900 0    50   Output ~ 0
uc_sck
Text GLabel 5850 1800 0    50   Output ~ 0
~uc_rst
Wire Wire Line
	6200 2000 5850 2000
Wire Wire Line
	5850 1900 6200 1900
Wire Wire Line
	6200 1800 5850 1800
Wire Wire Line
	6200 1600 5850 1600
Wire Wire Line
	6850 1600 6450 1600
Wire Wire Line
	6450 1700 6850 1700
Wire Wire Line
	6850 1800 6450 1800
Wire Wire Line
	6450 1900 6850 1900
Wire Wire Line
	6850 2000 6450 2000
$Comp
L AVR-ISP-10 CON202
U 1 1 56B56448
P 6400 1800
F 0 "CON202" H 6230 2130 50  0000 C CNN
F 1 "AVR-ISP-10" H 6060 1470 50  0000 L BNN
F 2 "Connect:IDC_Header_Straight_10pins" V 5650 1850 50  0001 C CNN
F 3 "" H 6400 1800 50  0000 C CNN
	1    6400 1800
	1    0    0    -1  
$EndComp
$Comp
L +9V #PWR067
U 1 1 56B5A402
P 750 2500
F 0 "#PWR067" H 750 2350 50  0001 C CNN
F 1 "+9V" H 750 2640 50  0000 C CNN
F 2 "" H 750 2500 50  0000 C CNN
F 3 "" H 750 2500 50  0000 C CNN
	1    750  2500
	1    0    0    -1  
$EndComp
$Comp
L C C201
U 1 1 56B5A6DD
P 850 2850
F 0 "C201" H 875 2950 50  0000 L CNN
F 1 "100n" H 875 2750 50  0000 L CNN
F 2 "Capacitors_SMD:C_0603" H 888 2700 50  0001 C CNN
F 3 "" H 850 2850 50  0000 C CNN
	1    850  2850
	1    0    0    -1  
$EndComp
$Comp
L CP C204
U 1 1 56B5AA04
P 1200 2850
F 0 "C204" H 1225 2950 50  0000 L CNN
F 1 "10u" H 1225 2750 50  0000 L CNN
F 2 "Capacitors_SMD:c_elec_5x5.7" H 1238 2700 50  0001 C CNN
F 3 "" H 1200 2850 50  0000 C CNN
	1    1200 2850
	1    0    0    -1  
$EndComp
$Comp
L CP C209
U 1 1 56B5B073
P 2400 2850
F 0 "C209" H 2425 2950 50  0000 L CNN
F 1 "10u" H 2425 2750 50  0000 L CNN
F 2 "Capacitors_SMD:c_elec_5x5.7" H 2438 2700 50  0001 C CNN
F 3 "" H 2400 2850 50  0000 C CNN
	1    2400 2850
	1    0    0    -1  
$EndComp
$Comp
L C C211
U 1 1 56B5B3B7
P 2750 2850
F 0 "C211" H 2775 2950 50  0000 L CNN
F 1 "100n" H 2775 2750 50  0000 L CNN
F 2 "Capacitors_SMD:C_0603" H 2788 2700 50  0001 C CNN
F 3 "" H 2750 2850 50  0000 C CNN
	1    2750 2850
	1    0    0    -1  
$EndComp
$Comp
L +5VD #PWR068
U 1 1 56B5B706
P 2850 2500
F 0 "#PWR068" H 2850 2350 50  0001 C CNN
F 1 "+5VD" H 2850 2640 50  0000 C CNN
F 2 "" H 2850 2500 50  0000 C CNN
F 3 "" H 2850 2500 50  0000 C CNN
	1    2850 2500
	1    0    0    -1  
$EndComp
$Comp
L GNDD #PWR069
U 1 1 56B5BFC4
P 1800 3100
F 0 "#PWR069" H 1800 2850 50  0001 C CNN
F 1 "GNDD" H 1800 2950 50  0000 C CNN
F 2 "" H 1800 3100 50  0000 C CNN
F 3 "" H 1800 3100 50  0000 C CNN
	1    1800 3100
	1    0    0    -1  
$EndComp
$Comp
L GNDD #PWR070
U 1 1 56B5C598
P 2750 3100
F 0 "#PWR070" H 2750 2850 50  0001 C CNN
F 1 "GNDD" H 2750 2950 50  0000 C CNN
F 2 "" H 2750 3100 50  0000 C CNN
F 3 "" H 2750 3100 50  0000 C CNN
	1    2750 3100
	1    0    0    -1  
$EndComp
Wire Wire Line
	750  2500 750  2650
Wire Wire Line
	750  2650 1400 2650
Wire Wire Line
	1200 2700 1200 2650
Connection ~ 1200 2650
Wire Wire Line
	850  2700 850  2650
Connection ~ 850  2650
Wire Wire Line
	2200 2650 2850 2650
Wire Wire Line
	2850 2650 2850 2500
Wire Wire Line
	2750 2700 2750 2650
Connection ~ 2750 2650
Wire Wire Line
	2400 2700 2400 2650
Connection ~ 2400 2650
$Comp
L C C212
U 1 1 56B60135
P 2750 4350
F 0 "C212" H 2775 4450 50  0000 L CNN
F 1 "100n" H 2775 4250 50  0000 L CNN
F 2 "Capacitors_SMD:C_0603" H 2788 4200 50  0001 C CNN
F 3 "" H 2750 4350 50  0000 C CNN
	1    2750 4350
	1    0    0    -1  
$EndComp
$Comp
L INDUCTOR L201
U 1 1 56B60433
P 3150 4100
F 0 "L201" V 3100 4100 50  0000 C CNN
F 1 "10u" V 3250 4100 50  0000 C CNN
F 2 "Choke_SMD:Choke_SMD_1206_Handsoldering" H 3150 4100 50  0001 C CNN
F 3 "" H 3150 4100 50  0000 C CNN
	1    3150 4100
	0    -1   -1   0   
$EndComp
$Comp
L +5VA #PWR071
U 1 1 56B61F65
P 3500 4000
F 0 "#PWR071" H 3500 3850 50  0001 C CNN
F 1 "+5VA" H 3500 4140 50  0000 C CNN
F 2 "" H 3500 4000 50  0000 C CNN
F 3 "" H 3500 4000 50  0000 C CNN
	1    3500 4000
	1    0    0    -1  
$EndComp
$Comp
L GNDA #PWR072
U 1 1 56B62219
P 2750 4600
F 0 "#PWR072" H 2750 4350 50  0001 C CNN
F 1 "GNDA" H 2750 4450 50  0000 C CNN
F 2 "" H 2750 4600 50  0000 C CNN
F 3 "" H 2750 4600 50  0000 C CNN
	1    2750 4600
	1    0    0    -1  
$EndComp
$Comp
L GNDPWR #PWR073
U 1 1 56B63DEF
P 850 3100
F 0 "#PWR073" H 850 2900 50  0001 C CNN
F 1 "GNDPWR" H 850 2970 50  0000 C CNN
F 2 "" H 850 3050 50  0000 C CNN
F 3 "" H 850 3050 50  0000 C CNN
	1    850  3100
	1    0    0    -1  
$EndComp
$Comp
L GNDPWR #PWR074
U 1 1 56B63A58
P 1200 3100
F 0 "#PWR074" H 1200 2900 50  0001 C CNN
F 1 "GNDPWR" H 1200 2970 50  0000 C CNN
F 2 "" H 1200 3050 50  0000 C CNN
F 3 "" H 1200 3050 50  0000 C CNN
	1    1200 3100
	1    0    0    -1  
$EndComp
$Comp
L GNDD #PWR075
U 1 1 56B5C2AE
P 2400 3100
F 0 "#PWR075" H 2400 2850 50  0001 C CNN
F 1 "GNDD" H 2400 2950 50  0000 C CNN
F 2 "" H 2400 3100 50  0000 C CNN
F 3 "" H 2400 3100 50  0000 C CNN
	1    2400 3100
	1    0    0    -1  
$EndComp
$Comp
L CP C207
U 1 1 56B645F8
P 2350 4350
F 0 "C207" H 2375 4450 50  0000 L CNN
F 1 "10u" H 2375 4250 50  0000 L CNN
F 2 "Capacitors_SMD:c_elec_5x5.7" H 2388 4200 50  0001 C CNN
F 3 "" H 2350 4350 50  0000 C CNN
	1    2350 4350
	1    0    0    -1  
$EndComp
$Comp
L CP C205
U 1 1 56B65411
P 1200 4350
F 0 "C205" H 1225 4450 50  0000 L CNN
F 1 "10u" H 1225 4250 50  0000 L CNN
F 2 "Capacitors_SMD:c_elec_5x5.7" H 1238 4200 50  0001 C CNN
F 3 "" H 1200 4350 50  0000 C CNN
	1    1200 4350
	1    0    0    -1  
$EndComp
$Comp
L C C202
U 1 1 56B6571B
P 850 4350
F 0 "C202" H 875 4450 50  0000 L CNN
F 1 "100n" H 875 4250 50  0000 L CNN
F 2 "Capacitors_SMD:C_0603" H 888 4200 50  0001 C CNN
F 3 "" H 850 4350 50  0000 C CNN
	1    850  4350
	1    0    0    -1  
$EndComp
$Comp
L GNDPWR #PWR076
U 1 1 56B65A24
P 1200 4600
F 0 "#PWR076" H 1200 4400 50  0001 C CNN
F 1 "GNDPWR" H 1200 4470 50  0000 C CNN
F 2 "" H 1200 4550 50  0000 C CNN
F 3 "" H 1200 4550 50  0000 C CNN
	1    1200 4600
	1    0    0    -1  
$EndComp
$Comp
L GNDPWR #PWR077
U 1 1 56B65A1E
P 850 4600
F 0 "#PWR077" H 850 4400 50  0001 C CNN
F 1 "GNDPWR" H 850 4470 50  0000 C CNN
F 2 "" H 850 4550 50  0000 C CNN
F 3 "" H 850 4550 50  0000 C CNN
	1    850  4600
	1    0    0    -1  
$EndComp
Wire Wire Line
	850  4500 850  4600
Wire Wire Line
	1200 4600 1200 4500
Wire Wire Line
	1200 4200 1200 4100
Wire Wire Line
	850  4100 1450 4100
Wire Wire Line
	850  3950 850  4200
Connection ~ 1200 4100
$Comp
L +9V #PWR078
U 1 1 56B66815
P 850 3950
F 0 "#PWR078" H 850 3800 50  0001 C CNN
F 1 "+9V" H 850 4090 50  0000 C CNN
F 2 "" H 850 3950 50  0000 C CNN
F 3 "" H 850 3950 50  0000 C CNN
	1    850  3950
	1    0    0    -1  
$EndComp
Connection ~ 850  4100
$Comp
L GNDA #PWR079
U 1 1 56B66CFA
P 2350 4600
F 0 "#PWR079" H 2350 4350 50  0001 C CNN
F 1 "GNDA" H 2350 4450 50  0000 C CNN
F 2 "" H 2350 4600 50  0000 C CNN
F 3 "" H 2350 4600 50  0000 C CNN
	1    2350 4600
	1    0    0    -1  
$EndComp
$Comp
L GNDA #PWR080
U 1 1 56B66FBA
P 1850 4600
F 0 "#PWR080" H 1850 4350 50  0001 C CNN
F 1 "GNDA" H 1850 4450 50  0000 C CNN
F 2 "" H 1850 4600 50  0000 C CNN
F 3 "" H 1850 4600 50  0000 C CNN
	1    1850 4600
	1    0    0    -1  
$EndComp
Wire Wire Line
	1850 4400 1850 4600
Wire Wire Line
	2350 4500 2350 4600
Wire Wire Line
	2750 4600 2750 4500
Wire Wire Line
	2250 4100 2850 4100
Wire Wire Line
	2750 4100 2750 4200
Wire Wire Line
	2350 4100 2350 4200
Connection ~ 2750 4100
Connection ~ 2350 4100
Wire Wire Line
	3450 4100 3500 4100
Wire Wire Line
	3500 4100 3500 4000
$Comp
L C C206
U 1 1 56B4830D
P 1400 5800
F 0 "C206" H 1425 5900 50  0000 L CNN
F 1 "100n" H 1425 5700 50  0000 L CNN
F 2 "Capacitors_SMD:C_0603" H 1438 5650 50  0001 C CNN
F 3 "" H 1400 5800 50  0000 C CNN
	1    1400 5800
	1    0    0    -1  
$EndComp
$Comp
L GNDPWR #PWR081
U 1 1 56B484AE
P 1050 6300
F 0 "#PWR081" H 1050 6100 50  0001 C CNN
F 1 "GNDPWR" H 1050 6170 50  0000 C CNN
F 2 "" H 1050 6250 50  0000 C CNN
F 3 "" H 1050 6250 50  0000 C CNN
	1    1050 6300
	1    0    0    -1  
$EndComp
$Comp
L C C210
U 1 1 56B4833C
P 2700 5400
F 0 "C210" H 2725 5500 50  0000 L CNN
F 1 "100n" H 2725 5300 50  0000 L CNN
F 2 "Capacitors_SMD:C_0603" H 2738 5250 50  0001 C CNN
F 3 "" H 2700 5400 50  0000 C CNN
	1    2700 5400
	1    0    0    -1  
$EndComp
$Comp
L D D201
U 1 1 56B48335
P 3050 5200
F 0 "D201" H 3050 5300 50  0000 C CNN
F 1 "1N4148" H 3050 5100 50  0000 C CNN
F 2 "Diodes_SMD:MiniMELF_Handsoldering" H 3050 5200 50  0001 C CNN
F 3 "" H 3050 5200 50  0000 C CNN
	1    3050 5200
	1    0    0    -1  
$EndComp
$Comp
L GNDPWR #PWR082
U 1 1 56B4837A
P 5300 6050
F 0 "#PWR082" H 5300 5850 50  0001 C CNN
F 1 "GNDPWR" H 5300 5920 50  0000 C CNN
F 2 "" H 5300 6000 50  0000 C CNN
F 3 "" H 5300 6000 50  0000 C CNN
	1    5300 6050
	1    0    0    -1  
$EndComp
$Comp
L GNDPWR #PWR083
U 1 1 56B48364
P 4850 6050
F 0 "#PWR083" H 4850 5850 50  0001 C CNN
F 1 "GNDPWR" H 4850 5920 50  0000 C CNN
F 2 "" H 4850 6000 50  0000 C CNN
F 3 "" H 4850 6000 50  0000 C CNN
	1    4850 6050
	1    0    0    -1  
$EndComp
$Comp
L GNDPWR #PWR084
U 1 1 56B48358
P 3850 6550
F 0 "#PWR084" H 3850 6350 50  0001 C CNN
F 1 "GNDPWR" H 3850 6420 50  0000 C CNN
F 2 "" H 3850 6500 50  0000 C CNN
F 3 "" H 3850 6500 50  0000 C CNN
	1    3850 6550
	1    0    0    -1  
$EndComp
$Comp
L R R203
U 1 1 56B47853
P 3750 3100
F 0 "R203" V 3830 3100 50  0000 C CNN
F 1 "1k" V 3750 3100 50  0000 C CNN
F 2 "Resistors_SMD:R_0603" V 3680 3100 50  0001 C CNN
F 3 "" H 3750 3100 50  0000 C CNN
	1    3750 3100
	1    0    0    -1  
$EndComp
$Comp
L R R206
U 1 1 56B4785A
P 4050 3100
F 0 "R206" V 4130 3100 50  0000 C CNN
F 1 "1k" V 4050 3100 50  0000 C CNN
F 2 "Resistors_SMD:R_0603" V 3980 3100 50  0001 C CNN
F 3 "" H 4050 3100 50  0000 C CNN
	1    4050 3100
	1    0    0    -1  
$EndComp
$Comp
L R R207
U 1 1 56B480FB
P 4350 3100
F 0 "R207" V 4430 3100 50  0000 C CNN
F 1 "1k" V 4350 3100 50  0000 C CNN
F 2 "Resistors_SMD:R_0603" V 4280 3100 50  0001 C CNN
F 3 "" H 4350 3100 50  0000 C CNN
	1    4350 3100
	1    0    0    -1  
$EndComp
$Comp
L GNDPWR #PWR085
U 1 1 56B480E0
P 4350 3300
F 0 "#PWR085" H 4350 3100 50  0001 C CNN
F 1 "GNDPWR" H 4350 3170 50  0000 C CNN
F 2 "" H 4350 3250 50  0000 C CNN
F 3 "" H 4350 3250 50  0000 C CNN
	1    4350 3300
	1    0    0    -1  
$EndComp
$Comp
L GNDPWR #PWR086
U 1 1 56B48485
P 3450 3300
F 0 "#PWR086" H 3450 3100 50  0001 C CNN
F 1 "GNDPWR" H 3450 3170 50  0000 C CNN
F 2 "" H 3450 3250 50  0000 C CNN
F 3 "" H 3450 3250 50  0000 C CNN
	1    3450 3300
	1    0    0    -1  
$EndComp
$Comp
L CONN_01X03 P202
U 1 1 56B53D9E
P 4250 1250
F 0 "P202" H 4250 1450 50  0000 C CNN
F 1 "CONN_01X03" V 4350 1150 50  0000 C CNN
F 2 "Pin_Headers:Pin_Header_Angled_1x03" H 4250 1250 50  0001 C CNN
F 3 "" H 4250 1250 50  0000 C CNN
	1    4250 1250
	-1   0    0    1   
$EndComp
$Comp
L GNDD #PWR087
U 1 1 56B485D1
P 8550 6150
F 0 "#PWR087" H 8550 5900 50  0001 C CNN
F 1 "GNDD" H 8550 6000 50  0000 C CNN
F 2 "" H 8550 6150 50  0000 C CNN
F 3 "" H 8550 6150 50  0000 C CNN
	1    8550 6150
	1    0    0    -1  
$EndComp
$Comp
L CP C222
U 1 1 56B4865D
P 10550 4400
F 0 "C222" H 10575 4500 50  0000 L CNN
F 1 "10u" H 10575 4300 50  0000 L CNN
F 2 "Capacitors_SMD:c_elec_5x5.7" H 10588 4250 50  0001 C CNN
F 3 "" H 10550 4400 50  0000 C CNN
	1    10550 4400
	1    0    0    -1  
$EndComp
Text GLabel 9350 4400 2    50   Input ~ 0
uart_rxd
Text GLabel 9350 4300 2    50   Input ~ 0
uart_txd
$Comp
L +5VD #PWR088
U 1 1 56B7C27B
P 8450 3850
F 0 "#PWR088" H 8450 3700 50  0001 C CNN
F 1 "+5VD" H 8450 3990 50  0000 C CNN
F 2 "" H 8450 3850 50  0000 C CNN
F 3 "" H 8450 3850 50  0000 C CNN
	1    8450 3850
	1    0    0    -1  
$EndComp
$Comp
L JUMPER3 JP202
U 1 1 56B4855A
P 8600 1750
F 0 "JP202" H 8650 1650 50  0000 L CNN
F 1 "2k2/0" H 8600 1850 50  0000 C BNN
F 2 "Connect:PINHEAD1-3" H 8600 1750 50  0001 C CNN
F 3 "" H 8600 1750 50  0000 C CNN
	1    8600 1750
	0    -1   -1   0   
$EndComp
$Comp
L MCP601 U205
U 1 1 56B48569
P 9950 2200
F 0 "U205" H 10000 2400 50  0000 C CNN
F 1 "MCP601" H 10150 2000 50  0000 C CNN
F 2 "TO_SOT_Packages_SMD:SOT-23-5" H 9900 2300 50  0001 C CNN
F 3 "" H 10000 2400 50  0000 C CNN
	1    9950 2200
	1    0    0    -1  
$EndComp
$Comp
L +5VA #PWR089
U 1 1 56B48596
P 10150 1350
F 0 "#PWR089" H 10150 1200 50  0001 C CNN
F 1 "+5VA" H 10150 1490 50  0000 C CNN
F 2 "" H 10150 1350 50  0000 C CNN
F 3 "" H 10150 1350 50  0000 C CNN
	1    10150 1350
	1    0    0    -1  
$EndComp
$Comp
L GNDA #PWR090
U 1 1 56B48691
P 6700 2950
F 0 "#PWR090" H 6700 2700 50  0001 C CNN
F 1 "GNDA" H 6700 2800 50  0000 C CNN
F 2 "" H 6700 2950 50  0000 C CNN
F 3 "" H 6700 2950 50  0000 C CNN
	1    6700 2950
	1    0    0    -1  
$EndComp
Text GLabel 1650 6650 0    60   Input ~ 0
servos_power_on
NoConn ~ 6200 1700
$Comp
L FT232RL U204
U 1 1 56B485C3
P 8450 5000
F 0 "U204" H 7800 5900 50  0000 L CNN
F 1 "FT232RL" H 8850 5900 50  0000 L CNN
F 2 "Housings_SSOP:SSOP-28_5.3x10.2mm_Pitch0.65mm" H 8450 5000 50  0001 C CNN
F 3 "" H 8450 5000 50  0000 C CNN
	1    8450 5000
	1    0    0    -1  
$EndComp
$Comp
L 7805 U201
U 1 1 56B7C659
P 1800 2700
AR Path="/56B7C659" Ref="U201"  Part="1" 
AR Path="/56B3A81B/56B7C659" Ref="U201"  Part="1" 
F 0 "U201" H 1950 2504 50  0000 C CNN
F 1 "7805" H 1800 2900 50  0000 C CNN
F 2 "TO_SOT_Packages_SMD:TO-252-2Lead" H 1800 2700 50  0001 C CNN
F 3 "" H 1800 2700 50  0000 C CNN
	1    1800 2700
	1    0    0    -1  
$EndComp
$Comp
L 7805 U202
U 1 1 56B7C7D9
P 1850 4150
AR Path="/56B7C7D9" Ref="U202"  Part="1" 
AR Path="/56B3A81B/56B7C7D9" Ref="U202"  Part="1" 
F 0 "U202" H 2000 3954 50  0000 C CNN
F 1 "7805" H 1850 4350 50  0000 C CNN
F 2 "TO_SOT_Packages_SMD:TO-252-2Lead" H 1850 4150 50  0001 C CNN
F 3 "" H 1850 4150 50  0000 C CNN
	1    1850 4150
	1    0    0    -1  
$EndComp
$Comp
L CONN_01X01 P206
U 1 1 56BA51AC
P 1150 7150
F 0 "P206" H 1150 7250 50  0000 C CNN
F 1 "CONN_01X01" V 1250 7150 50  0000 C CNN
F 2 "Mounting_Holes:MountingHole_2-5mm" H 1150 7150 50  0001 C CNN
F 3 "" H 1150 7150 50  0000 C CNN
	1    1150 7150
	0    -1   -1   0   
$EndComp
$Comp
L CONN_01X01 P207
U 1 1 56BA5F78
P 1700 7150
F 0 "P207" H 1700 7250 50  0000 C CNN
F 1 "CONN_01X01" V 1800 7150 50  0000 C CNN
F 2 "Mounting_Holes:MountingHole_2-5mm" H 1700 7150 50  0001 C CNN
F 3 "" H 1700 7150 50  0000 C CNN
	1    1700 7150
	0    -1   -1   0   
$EndComp
$Comp
L CONN_01X01 P208
U 1 1 56BA6073
P 2250 7150
F 0 "P208" H 2250 7250 50  0000 C CNN
F 1 "CONN_01X01" V 2350 7150 50  0000 C CNN
F 2 "Mounting_Holes:MountingHole_2-5mm" H 2250 7150 50  0001 C CNN
F 3 "" H 2250 7150 50  0000 C CNN
	1    2250 7150
	0    -1   -1   0   
$EndComp
$Comp
L CONN_01X01 P209
U 1 1 56BA616D
P 2800 7150
F 0 "P209" H 2800 7250 50  0000 C CNN
F 1 "CONN_01X01" V 2900 7150 50  0000 C CNN
F 2 "Mounting_Holes:MountingHole_2-5mm" H 2800 7150 50  0001 C CNN
F 3 "" H 2800 7150 50  0000 C CNN
	1    2800 7150
	0    -1   -1   0   
$EndComp
$Comp
L CONN_01X01 P210
U 1 1 56BA626E
P 3350 7150
F 0 "P210" H 3350 7250 50  0000 C CNN
F 1 "CONN_01X01" V 3450 7150 50  0000 C CNN
F 2 "Mounting_Holes:MountingHole_3mm" H 3350 7150 50  0001 C CNN
F 3 "" H 3350 7150 50  0000 C CNN
	1    3350 7150
	0    -1   -1   0   
$EndComp
$Comp
L CONN_01X01 P211
U 1 1 56BA637A
P 3900 7150
F 0 "P211" H 3900 7250 50  0000 C CNN
F 1 "CONN_01X01" V 4000 7150 50  0000 C CNN
F 2 "Mounting_Holes:MountingHole_3mm" H 3900 7150 50  0001 C CNN
F 3 "" H 3900 7150 50  0000 C CNN
	1    3900 7150
	0    -1   -1   0   
$EndComp
$Comp
L CONN_01X01 P212
U 1 1 56BA648F
P 4450 7150
F 0 "P212" H 4450 7250 50  0000 C CNN
F 1 "CONN_01X01" V 4550 7150 50  0000 C CNN
F 2 "Mounting_Holes:MountingHole_3mm" H 4450 7150 50  0001 C CNN
F 3 "" H 4450 7150 50  0000 C CNN
	1    4450 7150
	0    -1   -1   0   
$EndComp
$Comp
L CONN_01X01 P213
U 1 1 56BA6595
P 5000 7150
F 0 "P213" H 5000 7250 50  0000 C CNN
F 1 "CONN_01X01" V 5100 7150 50  0000 C CNN
F 2 "Mounting_Holes:MountingHole_3mm" H 5000 7150 50  0001 C CNN
F 3 "" H 5000 7150 50  0000 C CNN
	1    5000 7150
	0    -1   -1   0   
$EndComp
$Comp
L GNDD #PWR091
U 1 1 56BA67F7
P 3050 7450
F 0 "#PWR091" H 3050 7200 50  0001 C CNN
F 1 "GNDD" H 3050 7300 50  0000 C CNN
F 2 "" H 3050 7450 50  0000 C CNN
F 3 "" H 3050 7450 50  0000 C CNN
	1    3050 7450
	1    0    0    -1  
$EndComp
Wire Wire Line
	1150 7350 1150 7400
Wire Wire Line
	1150 7400 5000 7400
Wire Wire Line
	3050 7400 3050 7450
Wire Wire Line
	5000 7400 5000 7350
Connection ~ 3050 7400
Wire Wire Line
	3350 7350 3350 7400
Connection ~ 3350 7400
Wire Wire Line
	3900 7350 3900 7400
Connection ~ 3900 7400
Wire Wire Line
	4450 7350 4450 7400
Connection ~ 4450 7400
Wire Wire Line
	2800 7350 2800 7400
Connection ~ 2800 7400
Wire Wire Line
	2250 7350 2250 7400
Connection ~ 2250 7400
Wire Wire Line
	1700 7350 1700 7400
Connection ~ 1700 7400
Wire Notes Line
	650  6950 650  7750
Wire Notes Line
	650  7750 5350 7750
Wire Notes Line
	5350 7750 5350 6950
Wire Notes Line
	5350 6950 650  6950
Text Notes 4750 7700 0    50   ~ 0
Mounting holes
$EndSCHEMATC
